G04 (created by PCBNEW-RS274X (2010-05-05 BZR 2356)-stable) date Di 06 Jul 2010 23:45:34 CEST*
G01*
G70*
G90*
%MOIN*%
G04 Gerber Fmt 3.4, Leading zero omitted, Abs format*
%FSLAX34Y34*%
G04 APERTURE LIST*
%ADD10C,0.006000*%
%ADD11C,0.012000*%
%ADD12C,0.007900*%
%ADD13R,0.060000X0.060000*%
%ADD14C,0.060000*%
%ADD15O,0.062000X0.078700*%
%ADD16O,0.059100X0.074800*%
%ADD17C,0.080000*%
%ADD18C,0.051200*%
%ADD19C,0.074800*%
%ADD20C,0.110200*%
%ADD21O,0.086600X0.118100*%
%ADD22C,0.137800*%
%ADD23O,0.137800X0.137800*%
%ADD24C,0.118100*%
%ADD25C,0.157500*%
%ADD26C,0.196900*%
%ADD27R,0.196800X0.196800*%
%ADD28R,0.055100X0.070900*%
%ADD29O,0.055100X0.070900*%
%ADD30C,0.189000*%
%ADD31C,0.066000*%
%ADD32C,0.027600*%
%ADD33C,0.039400*%
%ADD34C,0.020000*%
%ADD35C,0.040000*%
%ADD36C,0.010000*%
%ADD37C,0.075000*%
%ADD38C,0.100000*%
%ADD39C,0.015700*%
G04 APERTURE END LIST*
G54D10*
G54D11*
X41295Y-33486D02*
X41257Y-33400D01*
X41219Y-33372D01*
X41143Y-33343D01*
X41029Y-33343D01*
X40952Y-33372D01*
X40914Y-33400D01*
X40876Y-33458D01*
X40876Y-33686D01*
X41676Y-33686D01*
X41676Y-33486D01*
X41638Y-33429D01*
X41600Y-33400D01*
X41524Y-33372D01*
X41448Y-33372D01*
X41371Y-33400D01*
X41333Y-33429D01*
X41295Y-33486D01*
X41295Y-33686D01*
X41676Y-32972D02*
X41676Y-32858D01*
X41638Y-32800D01*
X41562Y-32743D01*
X41410Y-32715D01*
X41143Y-32715D01*
X40990Y-32743D01*
X40914Y-32800D01*
X40876Y-32858D01*
X40876Y-32972D01*
X40914Y-33029D01*
X40990Y-33086D01*
X41143Y-33115D01*
X41410Y-33115D01*
X41562Y-33086D01*
X41638Y-33029D01*
X41676Y-32972D01*
X41676Y-32543D02*
X41676Y-32200D01*
X40876Y-32371D02*
X41676Y-32371D01*
X41676Y-32086D02*
X41676Y-31743D01*
X40876Y-31914D02*
X41676Y-31914D01*
X41676Y-31429D02*
X41676Y-31315D01*
X41638Y-31257D01*
X41562Y-31200D01*
X41410Y-31172D01*
X41143Y-31172D01*
X40990Y-31200D01*
X40914Y-31257D01*
X40876Y-31315D01*
X40876Y-31429D01*
X40914Y-31486D01*
X40990Y-31543D01*
X41143Y-31572D01*
X41410Y-31572D01*
X41562Y-31543D01*
X41638Y-31486D01*
X41676Y-31429D01*
X40876Y-30914D02*
X41676Y-30914D01*
X41105Y-30714D01*
X41676Y-30514D01*
X40876Y-30514D01*
G54D12*
X39370Y-48622D02*
X39370Y-19685D01*
X79134Y-48622D02*
X39370Y-48622D01*
X79134Y-19685D02*
X79134Y-48622D01*
X39370Y-19685D02*
X79134Y-19685D01*
G54D13*
X51209Y-27075D03*
G54D14*
X51209Y-26075D03*
X52209Y-27075D03*
X52209Y-26075D03*
X53209Y-27075D03*
X53209Y-26075D03*
X54209Y-27075D03*
X54209Y-26075D03*
X55209Y-27075D03*
X55209Y-26075D03*
X56209Y-27075D03*
X56209Y-26075D03*
X57209Y-27075D03*
X57209Y-26075D03*
X58209Y-27075D03*
X58209Y-26075D03*
X59209Y-27075D03*
X59209Y-26075D03*
X60209Y-27075D03*
X60209Y-26075D03*
G54D13*
X40839Y-35992D03*
G54D14*
X41839Y-35992D03*
X40839Y-36992D03*
X41839Y-36992D03*
X40839Y-37992D03*
X41839Y-37992D03*
X40839Y-38992D03*
X41839Y-38992D03*
X40839Y-39992D03*
X41839Y-39992D03*
G54D13*
X56700Y-45000D03*
G54D14*
X57700Y-45000D03*
X58700Y-45000D03*
G54D15*
X57752Y-23350D03*
X58752Y-23350D03*
X59752Y-23350D03*
X60752Y-23350D03*
X60752Y-20350D03*
X59752Y-20350D03*
X58752Y-20350D03*
X57752Y-20350D03*
G54D16*
X59941Y-47441D03*
X58169Y-47441D03*
G54D17*
X57677Y-46457D03*
X60433Y-46457D03*
G54D16*
X63878Y-47441D03*
X62106Y-47441D03*
G54D17*
X61614Y-46457D03*
X64370Y-46457D03*
G54D16*
X67815Y-47441D03*
X66043Y-47441D03*
G54D17*
X65551Y-46457D03*
X68307Y-46457D03*
G54D16*
X71752Y-47441D03*
X69980Y-47441D03*
G54D17*
X69488Y-46457D03*
X72244Y-46457D03*
G54D18*
X44685Y-37126D03*
G54D19*
X52953Y-37126D03*
G54D20*
X70866Y-26772D03*
X72835Y-25788D03*
X68897Y-25788D03*
X73818Y-24803D03*
X67913Y-24803D03*
X70866Y-24803D03*
G54D21*
X68898Y-20866D03*
X69882Y-20866D03*
X72835Y-20866D03*
X71851Y-20866D03*
G54D22*
X45669Y-23032D03*
G54D23*
X44370Y-23937D03*
G54D22*
X46968Y-23937D03*
G54D24*
X45669Y-21457D03*
G54D25*
X47126Y-21024D03*
X44212Y-21024D03*
G54D26*
X41535Y-43897D03*
X76969Y-43898D03*
X76969Y-24212D03*
X41535Y-24212D03*
G54D27*
X62615Y-37455D03*
G54D28*
X46752Y-30317D03*
G54D29*
X47752Y-30317D03*
X52752Y-30317D03*
X53752Y-30317D03*
X49752Y-30317D03*
X48752Y-30317D03*
X50752Y-30317D03*
X51752Y-30317D03*
X57752Y-30317D03*
X56752Y-30317D03*
X54752Y-30317D03*
X55752Y-30317D03*
X59752Y-30317D03*
X58752Y-30317D03*
X60752Y-30317D03*
G54D30*
X44488Y-42520D03*
X74016Y-42519D03*
X74016Y-30315D03*
X44488Y-30315D03*
G54D29*
X61752Y-30317D03*
G54D31*
X73909Y-47441D03*
X74909Y-47441D03*
X76272Y-47441D03*
X77272Y-47441D03*
G54D32*
X51000Y-32500D03*
X58500Y-24400D03*
X61400Y-27300D03*
X64100Y-34300D03*
X63000Y-34200D03*
X74100Y-34425D03*
X77500Y-34100D03*
X66600Y-37000D03*
G54D33*
X69700Y-45600D03*
X78400Y-45700D03*
X78400Y-46100D03*
X69300Y-45600D03*
G54D32*
X57600Y-37200D03*
G54D33*
X60700Y-31600D03*
X61100Y-31600D03*
X56300Y-31600D03*
G54D32*
X59200Y-37200D03*
X46400Y-31600D03*
X47200Y-31600D03*
X63000Y-28500D03*
G54D33*
X50200Y-28500D03*
G54D32*
X71300Y-34900D03*
X69300Y-35500D03*
X70300Y-35500D03*
X71800Y-33300D03*
X78500Y-28800D03*
X75800Y-26100D03*
X46300Y-29100D03*
X77600Y-32600D03*
X75900Y-42300D03*
X50600Y-42400D03*
X53800Y-42400D03*
X53800Y-38400D03*
X50000Y-35200D03*
X48000Y-37800D03*
X47000Y-36600D03*
X55400Y-38400D03*
X63200Y-30900D03*
X66300Y-44500D03*
X64900Y-44500D03*
X63500Y-44500D03*
X62900Y-46200D03*
X68300Y-31800D03*
X66350Y-33950D03*
X66800Y-30600D03*
X67600Y-31100D03*
X69300Y-30700D03*
X70400Y-32900D03*
X67800Y-32900D03*
X75600Y-36000D03*
X70600Y-42000D03*
X63600Y-26600D03*
X65100Y-30000D03*
X40000Y-20300D03*
X55441Y-39600D03*
X56800Y-39600D03*
X55441Y-41300D03*
X56800Y-41300D03*
X59057Y-41000D03*
X54500Y-33500D03*
X48000Y-32500D03*
X48000Y-34000D03*
X67000Y-20500D03*
X64000Y-20500D03*
X42500Y-34000D03*
X42500Y-30000D03*
X40000Y-30000D03*
X40000Y-34000D03*
X40000Y-38500D03*
X40000Y-42500D03*
X40000Y-47000D03*
X55500Y-44500D03*
X53000Y-44500D03*
X49600Y-44500D03*
X47000Y-42000D03*
X57000Y-48000D03*
X53000Y-48000D03*
X49000Y-48000D03*
X45000Y-48000D03*
X41000Y-48000D03*
X78500Y-20500D03*
X75000Y-20500D03*
X55800Y-23400D03*
X54400Y-23900D03*
X56200Y-24200D03*
X51000Y-24500D03*
X75900Y-39800D03*
X72600Y-38200D03*
G54D33*
X43000Y-22400D03*
X48300Y-22400D03*
G54D32*
X41500Y-27100D03*
X40900Y-27900D03*
X41700Y-27900D03*
X46400Y-27000D03*
G54D33*
X50800Y-21800D03*
X52600Y-20400D03*
X54000Y-20400D03*
G54D32*
X76100Y-37900D03*
X77500Y-34600D03*
X66800Y-39900D03*
X72100Y-42100D03*
X71300Y-44500D03*
X67900Y-45600D03*
X67400Y-38200D03*
X69200Y-44500D03*
X76400Y-30800D03*
G54D33*
X55500Y-33900D03*
G54D32*
X58900Y-33900D03*
G54D33*
X68900Y-27300D03*
G54D32*
X63500Y-43500D03*
X61900Y-44500D03*
G54D33*
X44800Y-28700D03*
X48000Y-27100D03*
G54D32*
X63800Y-34000D03*
G54D33*
X65000Y-31800D03*
X62000Y-31800D03*
X43200Y-35800D03*
X43200Y-36600D03*
X40000Y-28000D03*
X40000Y-27400D03*
X55400Y-20400D03*
G54D32*
X55900Y-38300D03*
X55900Y-36500D03*
X58900Y-36500D03*
X44900Y-35400D03*
X71300Y-33300D03*
X71500Y-29800D03*
X66900Y-25800D03*
X71800Y-30600D03*
X66200Y-23400D03*
X70800Y-30600D03*
X66000Y-24600D03*
X69800Y-30600D03*
G54D33*
X46400Y-35000D03*
X49000Y-35400D03*
G54D32*
X73300Y-31900D03*
X73000Y-35900D03*
X71500Y-40000D03*
X61100Y-42000D03*
X53900Y-33000D03*
X61400Y-34100D03*
X68100Y-41000D03*
X60800Y-41800D03*
X69800Y-36300D03*
X67000Y-35800D03*
X57209Y-33300D03*
X61200Y-34400D03*
X59000Y-37600D03*
X52000Y-35200D03*
X51000Y-35400D03*
X59200Y-37900D03*
X46000Y-35400D03*
X58400Y-35500D03*
X70800Y-36300D03*
X66200Y-35700D03*
X58100Y-35800D03*
X48100Y-35300D03*
X57700Y-34400D03*
X62000Y-40600D03*
X70600Y-40400D03*
X64400Y-42500D03*
X67400Y-39600D03*
X70000Y-39400D03*
X70100Y-40700D03*
X67400Y-39100D03*
X71200Y-38900D03*
X67000Y-36300D03*
X72300Y-34200D03*
X67500Y-28500D03*
X74200Y-33600D03*
X75000Y-28600D03*
X65800Y-37100D03*
X73700Y-37600D03*
X64200Y-36800D03*
X66700Y-40700D03*
X63200Y-39200D03*
X66400Y-42800D03*
X68300Y-33700D03*
X65800Y-35700D03*
X68600Y-42400D03*
X58700Y-25300D03*
X62600Y-34300D03*
X60100Y-32400D03*
X57400Y-34600D03*
X62400Y-40700D03*
X68100Y-33300D03*
X65000Y-35700D03*
X69700Y-43300D03*
X71200Y-29600D03*
X71400Y-32700D03*
X67500Y-28900D03*
X53300Y-32100D03*
X62300Y-33800D03*
X62800Y-40800D03*
X57100Y-34800D03*
X56200Y-31100D03*
X63800Y-33600D03*
X54200Y-32400D03*
X62000Y-34400D03*
X60800Y-44800D03*
X56800Y-35000D03*
X63000Y-41100D03*
X60800Y-44400D03*
X71500Y-36500D03*
X62800Y-39100D03*
X70700Y-39200D03*
X73300Y-32400D03*
X55400Y-32700D03*
X61800Y-34100D03*
X67700Y-42000D03*
X58900Y-42900D03*
X67000Y-45600D03*
X59800Y-45300D03*
X60600Y-45700D03*
X60400Y-41900D03*
X54300Y-42000D03*
X54600Y-42200D03*
X63900Y-41600D03*
X54900Y-42400D03*
X63900Y-42000D03*
X64000Y-28900D03*
X66600Y-35700D03*
X67600Y-35200D03*
X60200Y-45500D03*
X56200Y-38500D03*
X59100Y-36800D03*
X56200Y-36800D03*
X44400Y-35400D03*
X65900Y-28800D03*
X67500Y-29300D03*
X64800Y-31200D03*
G54D33*
X65300Y-40600D03*
X60500Y-40000D03*
X50400Y-29400D03*
G54D32*
X59800Y-34400D03*
G54D33*
X65400Y-34200D03*
G54D34*
X64100Y-34300D02*
X64000Y-34400D01*
X64000Y-34400D02*
X63200Y-34400D01*
X63200Y-34400D02*
X63000Y-34200D01*
G54D35*
X74100Y-34425D02*
X74125Y-34425D01*
X74125Y-34425D02*
X74800Y-35100D01*
X77500Y-34100D02*
X75800Y-34100D01*
X75800Y-34100D02*
X74800Y-35100D01*
X74800Y-35100D02*
X72700Y-37200D01*
X72700Y-37200D02*
X66800Y-37200D01*
X66800Y-37200D02*
X66600Y-37000D01*
G54D34*
X76272Y-47441D02*
X76272Y-46100D01*
G54D35*
X69700Y-45600D02*
X75300Y-45600D01*
X78400Y-45700D02*
X78000Y-46100D01*
X78400Y-46100D02*
X78400Y-45700D01*
X75800Y-46100D02*
X76272Y-46100D01*
X76272Y-46100D02*
X78000Y-46100D01*
X78000Y-46100D02*
X78400Y-46100D01*
X75300Y-45600D02*
X75800Y-46100D01*
X69300Y-45600D02*
X69700Y-45600D01*
X60700Y-31600D02*
X61100Y-31600D01*
X61100Y-31600D02*
X56300Y-31600D01*
G54D34*
X59200Y-37200D02*
X57600Y-37200D01*
G54D35*
X46400Y-31600D02*
X47200Y-31600D01*
X47200Y-31600D02*
X56300Y-31600D01*
X50200Y-28500D02*
X48900Y-28500D01*
G54D34*
X50200Y-28500D02*
X62982Y-28500D01*
X63000Y-28518D02*
X63000Y-28500D01*
X62982Y-28500D02*
X63000Y-28518D01*
G54D35*
X48900Y-28500D02*
X47713Y-29687D01*
X47713Y-29687D02*
X47713Y-30315D01*
X47752Y-30317D02*
X47713Y-30315D01*
G54D36*
X70866Y-24803D02*
X70866Y-25566D01*
X71300Y-34200D02*
X71300Y-34900D01*
X72500Y-33000D02*
X71300Y-34200D01*
X72500Y-27200D02*
X72500Y-33000D01*
X70866Y-25566D02*
X72500Y-27200D01*
X71500Y-35200D02*
X71800Y-34900D01*
X72700Y-33100D02*
X71800Y-34000D01*
X72700Y-27000D02*
X72700Y-33100D01*
X72835Y-26865D02*
X72700Y-27000D01*
X72835Y-25788D02*
X72835Y-26865D01*
X69600Y-35200D02*
X69300Y-35500D01*
X69600Y-35200D02*
X71500Y-35200D01*
X71800Y-34900D02*
X71800Y-34000D01*
X72000Y-34100D02*
X72000Y-35000D01*
X72900Y-27100D02*
X72900Y-33200D01*
X73818Y-26182D02*
X72900Y-27100D01*
X73818Y-24803D02*
X73818Y-26182D01*
X72900Y-33200D02*
X72000Y-34100D01*
X72000Y-35000D02*
X71500Y-35500D01*
X71500Y-35500D02*
X70300Y-35500D01*
X70872Y-26772D02*
X72300Y-28200D01*
X72300Y-32800D02*
X71800Y-33300D01*
X72300Y-28200D02*
X72300Y-32800D01*
X70866Y-26772D02*
X70872Y-26772D01*
X78500Y-28800D02*
X75800Y-26100D01*
X49600Y-44500D02*
X49500Y-44500D01*
X49500Y-44500D02*
X47000Y-42000D01*
X78400Y-32600D02*
X77600Y-32600D01*
X62750Y-31350D02*
X63200Y-30900D01*
X63878Y-47441D02*
X63878Y-47178D01*
X63878Y-47178D02*
X62900Y-46200D01*
X69300Y-31800D02*
X68300Y-31800D01*
X67100Y-30600D02*
X66800Y-30600D01*
X67600Y-31100D02*
X67100Y-30600D01*
X69300Y-31800D02*
X69300Y-30700D01*
X70400Y-32900D02*
X69300Y-31800D01*
X67400Y-32900D02*
X67800Y-32900D01*
X67400Y-32900D02*
X66350Y-33950D01*
X60209Y-26075D02*
X61975Y-26075D01*
X62500Y-26600D02*
X63600Y-26600D01*
X61975Y-26075D02*
X62500Y-26600D01*
X40000Y-20300D02*
X40000Y-22900D01*
X56800Y-41300D02*
X56800Y-39600D01*
X55441Y-39600D02*
X55600Y-39600D01*
X59057Y-41000D02*
X57100Y-41000D01*
X55441Y-41300D02*
X55400Y-41300D01*
X57100Y-41000D02*
X56800Y-41300D01*
X59057Y-41000D02*
X59100Y-41000D01*
X55500Y-33900D02*
X54900Y-33900D01*
X54900Y-33900D02*
X54500Y-33500D01*
X48000Y-34000D02*
X48000Y-32500D01*
X64000Y-20500D02*
X67000Y-20500D01*
X75000Y-20500D02*
X73200Y-22300D01*
X73200Y-22300D02*
X73200Y-22050D01*
X40000Y-30000D02*
X42500Y-30000D01*
X42500Y-34000D02*
X42450Y-34050D01*
X40000Y-38500D02*
X40000Y-34000D01*
X40000Y-47000D02*
X40000Y-42500D01*
X49600Y-44500D02*
X53000Y-44500D01*
X49000Y-48000D02*
X53000Y-48000D01*
X41000Y-48000D02*
X45000Y-48000D01*
X56200Y-24200D02*
X56209Y-24200D01*
G54D34*
X60752Y-20350D02*
X60752Y-20352D01*
X61700Y-24584D02*
X60209Y-26075D01*
X61700Y-21300D02*
X61700Y-24584D01*
X60752Y-20352D02*
X61700Y-21300D01*
X75900Y-39800D02*
X75900Y-39900D01*
G54D37*
X75900Y-41142D02*
X75900Y-42300D01*
X74800Y-44500D02*
X72100Y-44500D01*
X75900Y-42300D02*
X74800Y-44500D01*
G54D34*
X72100Y-42100D02*
X72100Y-42073D01*
X73031Y-41142D02*
X75900Y-41142D01*
X72100Y-42073D02*
X73031Y-41142D01*
G54D37*
X75900Y-39900D02*
X75900Y-41142D01*
X48600Y-22400D02*
X48300Y-22400D01*
G54D36*
X58209Y-26075D02*
X58209Y-26109D01*
G54D11*
X58700Y-26600D02*
X59684Y-26600D01*
X59684Y-26600D02*
X60209Y-26075D01*
G54D36*
X58209Y-26109D02*
X58700Y-26600D01*
X58209Y-26075D02*
X58209Y-25509D01*
X58100Y-25400D02*
X56209Y-25400D01*
X58209Y-25509D02*
X58100Y-25400D01*
X54209Y-26075D02*
X54209Y-25400D01*
X52209Y-26075D02*
X52209Y-25591D01*
X52209Y-25591D02*
X52400Y-25400D01*
X52400Y-25400D02*
X54209Y-25400D01*
X54209Y-25400D02*
X56209Y-25400D01*
X41500Y-27100D02*
X41500Y-27700D01*
X41500Y-27700D02*
X41700Y-27900D01*
G54D37*
X52600Y-20400D02*
X53300Y-20400D01*
X52650Y-20350D02*
X53200Y-20350D01*
X52600Y-20400D02*
X52650Y-20350D01*
G54D35*
X54000Y-20400D02*
X54150Y-20350D01*
X54150Y-20350D02*
X53800Y-20350D01*
X53650Y-20350D02*
X53800Y-20350D01*
X53300Y-20400D02*
X53650Y-20350D01*
G54D38*
X67950Y-22050D02*
X73200Y-22050D01*
X73200Y-22050D02*
X72950Y-22050D01*
X72950Y-22050D02*
X75000Y-24100D01*
G54D34*
X76100Y-37900D02*
X76150Y-37950D01*
G54D35*
X77500Y-34600D02*
X78400Y-34600D01*
X66800Y-39900D02*
X66800Y-38200D01*
G54D34*
X72100Y-42100D02*
X72100Y-44500D01*
X67900Y-44500D02*
X67900Y-45600D01*
G54D35*
X67100Y-38200D02*
X67400Y-38200D01*
G54D37*
X67100Y-38200D02*
X66800Y-38200D01*
X66800Y-38200D02*
X64800Y-38200D01*
X64800Y-38200D02*
X64055Y-37455D01*
X62615Y-37455D02*
X64055Y-37455D01*
G54D34*
X78400Y-30800D02*
X76400Y-30800D01*
G54D38*
X78400Y-29800D02*
X78400Y-30800D01*
X78400Y-30800D02*
X78400Y-32600D01*
X78400Y-32600D02*
X78400Y-34600D01*
X78400Y-34600D02*
X78400Y-35700D01*
X76150Y-37950D02*
X78400Y-35700D01*
X75900Y-38200D02*
X76150Y-37950D01*
X75000Y-26400D02*
X78400Y-29800D01*
X75000Y-24100D02*
X75000Y-26400D01*
X64066Y-20866D02*
X66766Y-20866D01*
X64066Y-20866D02*
X63550Y-20350D01*
X63550Y-20350D02*
X60752Y-20350D01*
X66766Y-20866D02*
X67950Y-22050D01*
X67950Y-22050D02*
X69400Y-23500D01*
X68897Y-25703D02*
X69400Y-25200D01*
X69400Y-25200D02*
X69400Y-23500D01*
X68897Y-25788D02*
X68897Y-25703D01*
G54D35*
X55500Y-33900D02*
X58900Y-33900D01*
G54D34*
X68897Y-27297D02*
X68897Y-25788D01*
X68900Y-27300D02*
X68897Y-27297D01*
G54D35*
X63500Y-43500D02*
X63500Y-44500D01*
G54D37*
X61900Y-44500D02*
X63500Y-44500D01*
X63500Y-44500D02*
X64900Y-44500D01*
X64900Y-44500D02*
X66300Y-44500D01*
X66300Y-44500D02*
X67900Y-44500D01*
X67900Y-44500D02*
X69200Y-44500D01*
X69200Y-44500D02*
X71300Y-44500D01*
X71300Y-44500D02*
X72100Y-44500D01*
G54D38*
X75900Y-38200D02*
X75900Y-39900D01*
G54D37*
X48600Y-26100D02*
X48600Y-22400D01*
X45669Y-23032D02*
X45669Y-26100D01*
X46326Y-29100D02*
X46300Y-29100D01*
X46300Y-29100D02*
X45900Y-28700D01*
X45900Y-28700D02*
X44800Y-28700D01*
X44800Y-28700D02*
X43200Y-28700D01*
X43200Y-28700D02*
X42800Y-29100D01*
G54D34*
X48000Y-27100D02*
X48600Y-27100D01*
G54D37*
X40000Y-29100D02*
X42800Y-29100D01*
X46326Y-29100D02*
X46713Y-29487D01*
G54D38*
X40000Y-28000D02*
X40000Y-29100D01*
X40000Y-29100D02*
X40000Y-30000D01*
X43200Y-34800D02*
X43200Y-35800D01*
X42450Y-34050D02*
X43200Y-34800D01*
X40000Y-26100D02*
X40000Y-27400D01*
X40000Y-27400D02*
X40000Y-28000D01*
G54D37*
X40000Y-26100D02*
X45669Y-26100D01*
X45669Y-26100D02*
X48600Y-26100D01*
X46713Y-29487D02*
X46713Y-30315D01*
X46752Y-30317D02*
X46713Y-30315D01*
X48600Y-27600D02*
X46713Y-29487D01*
X48600Y-26100D02*
X48600Y-27100D01*
X48600Y-27100D02*
X48600Y-27600D01*
G54D35*
X61752Y-30317D02*
X61752Y-30352D01*
X61752Y-30352D02*
X62750Y-31350D01*
X62750Y-31350D02*
X63200Y-31800D01*
G54D34*
X63800Y-34000D02*
X63900Y-34000D01*
X64200Y-33700D02*
X64200Y-31800D01*
X63900Y-34000D02*
X64200Y-33700D01*
G54D35*
X63200Y-31800D02*
X64200Y-31800D01*
X64200Y-31800D02*
X65000Y-31800D01*
X63200Y-31800D02*
X62000Y-31800D01*
G54D37*
X72600Y-38200D02*
X67100Y-38200D01*
X72600Y-38200D02*
X75900Y-38200D01*
G54D35*
X56209Y-26075D02*
X56209Y-25400D01*
X56209Y-25400D02*
X56209Y-24200D01*
X56209Y-24200D02*
X56209Y-20350D01*
G54D38*
X45669Y-23032D02*
X45968Y-23032D01*
X46600Y-22400D02*
X48600Y-22400D01*
X48600Y-22400D02*
X50200Y-22400D01*
X52250Y-20350D02*
X53200Y-20350D01*
X50200Y-22400D02*
X50800Y-21800D01*
X50800Y-21800D02*
X52250Y-20350D01*
X45968Y-23032D02*
X46600Y-22400D01*
X45669Y-23032D02*
X45432Y-23032D01*
X45432Y-23032D02*
X44800Y-22400D01*
X44800Y-22400D02*
X43000Y-22400D01*
G54D37*
X40000Y-22900D02*
X40000Y-26100D01*
G54D38*
X43000Y-22400D02*
X40500Y-22400D01*
X40500Y-22400D02*
X40000Y-22900D01*
G54D34*
X63878Y-47441D02*
X63878Y-48200D01*
X67815Y-47441D02*
X67815Y-48200D01*
X59941Y-47441D02*
X59941Y-47541D01*
X59941Y-47541D02*
X60600Y-48200D01*
X60600Y-48200D02*
X63878Y-48200D01*
X63878Y-48200D02*
X67815Y-48200D01*
X67815Y-48200D02*
X71200Y-48200D01*
X71200Y-48200D02*
X71752Y-47648D01*
X71752Y-47648D02*
X71752Y-47441D01*
G54D38*
X53200Y-20350D02*
X53800Y-20350D01*
X43200Y-35800D02*
X43200Y-36600D01*
G54D35*
X55400Y-20400D02*
X55400Y-20350D01*
X54700Y-20400D02*
X54800Y-20350D01*
G54D38*
X57752Y-20350D02*
X58752Y-20350D01*
X58752Y-20350D02*
X59752Y-20350D01*
X59752Y-20350D02*
X60752Y-20350D01*
X53800Y-20350D02*
X54800Y-20350D01*
X54800Y-20350D02*
X55400Y-20350D01*
X55400Y-20350D02*
X56209Y-20350D01*
X56209Y-20350D02*
X57752Y-20350D01*
G54D36*
X48300Y-39000D02*
X55200Y-39000D01*
X55200Y-39000D02*
X55900Y-38300D01*
X58900Y-36500D02*
X55900Y-36500D01*
X44900Y-35400D02*
X44900Y-35600D01*
X48300Y-39000D02*
X44900Y-35600D01*
X71500Y-32300D02*
X71500Y-29800D01*
X71300Y-33300D02*
X71700Y-32900D01*
X71700Y-32500D02*
X71700Y-32900D01*
X71500Y-32300D02*
X71700Y-32500D01*
G54D34*
X67800Y-26700D02*
X67800Y-27200D01*
X66900Y-25800D02*
X67800Y-26700D01*
X72000Y-28600D02*
X72000Y-30400D01*
X71300Y-27900D02*
X72000Y-28600D01*
X68500Y-27900D02*
X71300Y-27900D01*
X67800Y-27200D02*
X68500Y-27900D01*
X72000Y-30400D02*
X71800Y-30600D01*
X66500Y-26500D02*
X66500Y-23700D01*
X66500Y-23700D02*
X66200Y-23400D01*
X70800Y-30600D02*
X70800Y-28900D01*
X70200Y-28300D02*
X70800Y-28900D01*
X66500Y-26500D02*
X68300Y-28300D01*
X68300Y-28300D02*
X70200Y-28300D01*
X66100Y-26600D02*
X66100Y-24700D01*
X66100Y-24700D02*
X66000Y-24600D01*
X69800Y-30600D02*
X69800Y-29000D01*
X69500Y-28700D02*
X69800Y-29000D01*
X68200Y-28700D02*
X69500Y-28700D01*
X66100Y-26600D02*
X68200Y-28700D01*
G54D35*
X46400Y-35000D02*
X47400Y-36000D01*
X47400Y-36000D02*
X48400Y-36000D01*
X48400Y-36000D02*
X49000Y-35400D01*
G54D36*
X73300Y-31900D02*
X73600Y-32200D01*
X73600Y-33800D02*
X73500Y-33900D01*
X73600Y-32200D02*
X73600Y-33800D01*
X73000Y-35900D02*
X73500Y-35400D01*
X73500Y-35400D02*
X73500Y-33900D01*
X68400Y-41300D02*
X69700Y-40000D01*
X69700Y-40000D02*
X71500Y-40000D01*
X61100Y-42000D02*
X61400Y-41700D01*
X63600Y-41300D02*
X68400Y-41300D01*
X63200Y-41700D02*
X63600Y-41300D01*
X61400Y-41700D02*
X63200Y-41700D01*
X59200Y-33000D02*
X60000Y-33800D01*
X53900Y-33000D02*
X59200Y-33000D01*
X60000Y-33800D02*
X61100Y-33800D01*
X61100Y-33800D02*
X61400Y-34100D01*
X68100Y-41000D02*
X63600Y-41000D01*
X63100Y-41500D02*
X63600Y-41000D01*
X61100Y-41500D02*
X63100Y-41500D01*
X60800Y-41800D02*
X61100Y-41500D01*
X67500Y-36300D02*
X67000Y-35800D01*
X69800Y-36300D02*
X67500Y-36300D01*
X59900Y-34000D02*
X59200Y-33300D01*
X59200Y-33300D02*
X57209Y-33300D01*
X59900Y-34000D02*
X60800Y-34000D01*
X60800Y-34000D02*
X61200Y-34400D01*
X54200Y-36400D02*
X54200Y-37000D01*
X54200Y-37000D02*
X55000Y-37800D01*
X55000Y-37800D02*
X58800Y-37800D01*
X58800Y-37800D02*
X59000Y-37600D01*
X53000Y-35200D02*
X52000Y-35200D01*
X54200Y-36400D02*
X53000Y-35200D01*
X59200Y-37900D02*
X59100Y-38000D01*
X59100Y-38000D02*
X52600Y-38000D01*
X52600Y-38000D02*
X51000Y-36400D01*
X51000Y-36400D02*
X51000Y-35400D01*
X58400Y-35500D02*
X55500Y-35500D01*
X54600Y-34600D02*
X46200Y-34600D01*
X46200Y-34600D02*
X46000Y-34800D01*
X46000Y-34800D02*
X46000Y-35400D01*
X55500Y-35500D02*
X54600Y-34600D01*
X69000Y-36000D02*
X67900Y-34900D01*
X70500Y-36000D02*
X69000Y-36000D01*
X70800Y-36300D02*
X70500Y-36000D01*
X67000Y-34900D02*
X66200Y-35700D01*
X67900Y-34900D02*
X67000Y-34900D01*
X58100Y-35800D02*
X55400Y-35800D01*
X54400Y-34800D02*
X55400Y-35800D01*
X48600Y-34800D02*
X54400Y-34800D01*
X48100Y-35300D02*
X48600Y-34800D01*
X62000Y-40600D02*
X60300Y-40600D01*
X60100Y-35400D02*
X59300Y-34600D01*
X60100Y-40400D02*
X60100Y-35400D01*
X60300Y-40600D02*
X60100Y-40400D01*
X57900Y-34600D02*
X57700Y-34400D01*
X59300Y-34600D02*
X57900Y-34600D01*
X64400Y-42500D02*
X67900Y-42500D01*
X67900Y-42500D02*
X68600Y-41800D01*
X68600Y-41400D02*
X68600Y-41800D01*
X69600Y-40400D02*
X70600Y-40400D01*
X68600Y-41400D02*
X69600Y-40400D01*
X62400Y-42500D02*
X64400Y-42500D01*
X50300Y-43100D02*
X58500Y-43100D01*
X40839Y-36039D02*
X41300Y-36500D01*
X41300Y-36500D02*
X41300Y-37300D01*
X41300Y-37300D02*
X41500Y-37500D01*
X41500Y-37500D02*
X42200Y-37500D01*
X42200Y-37500D02*
X45300Y-40600D01*
X45300Y-40600D02*
X47800Y-40600D01*
X47800Y-40600D02*
X50300Y-43100D01*
X40839Y-35992D02*
X40839Y-36039D01*
X61700Y-43200D02*
X62400Y-42500D01*
X58600Y-43200D02*
X61700Y-43200D01*
X58500Y-43100D02*
X58600Y-43200D01*
X67400Y-39600D02*
X69800Y-39600D01*
X69800Y-39600D02*
X70000Y-39400D01*
X61900Y-43600D02*
X62600Y-42900D01*
X58300Y-43500D02*
X58400Y-43600D01*
X58400Y-43600D02*
X61900Y-43600D01*
X40839Y-38992D02*
X40839Y-39039D01*
X50100Y-43500D02*
X58300Y-43500D01*
X47600Y-41000D02*
X50100Y-43500D01*
X43700Y-41000D02*
X47600Y-41000D01*
X42200Y-39500D02*
X43700Y-41000D01*
X41300Y-39500D02*
X42200Y-39500D01*
X40839Y-39039D02*
X41300Y-39500D01*
X70100Y-42400D02*
X70100Y-40700D01*
X69400Y-43100D02*
X70100Y-42400D01*
X63900Y-43100D02*
X69400Y-43100D01*
X63700Y-42900D02*
X63900Y-43100D01*
X62600Y-42900D02*
X63700Y-42900D01*
X71200Y-38900D02*
X67600Y-38900D01*
X67600Y-38900D02*
X67400Y-39100D01*
X67300Y-36600D02*
X70900Y-36600D01*
X72300Y-35200D02*
X72300Y-34200D01*
X70900Y-36600D02*
X72300Y-35200D01*
X67000Y-36300D02*
X67300Y-36600D01*
X75000Y-28600D02*
X75200Y-28800D01*
X75200Y-32600D02*
X74200Y-33600D01*
X75200Y-28800D02*
X75200Y-32600D01*
X66800Y-36600D02*
X67000Y-36800D01*
X72600Y-36800D02*
X73700Y-35700D01*
X67000Y-36800D02*
X72600Y-36800D01*
X66800Y-27800D02*
X67500Y-28500D01*
X74200Y-33600D02*
X73700Y-34100D01*
X73700Y-34100D02*
X73700Y-35700D01*
X58209Y-27609D02*
X58400Y-27800D01*
X58209Y-27075D02*
X58209Y-27609D01*
X58400Y-27800D02*
X66800Y-27800D01*
X66300Y-36600D02*
X66800Y-36600D01*
X65800Y-37100D02*
X66300Y-36600D01*
X65000Y-37600D02*
X73700Y-37600D01*
X65000Y-37600D02*
X64200Y-36800D01*
X63200Y-39200D02*
X64400Y-39200D01*
X65900Y-40700D02*
X66700Y-40700D01*
X64400Y-39200D02*
X65900Y-40700D01*
X68300Y-33700D02*
X67800Y-33700D01*
X67800Y-33700D02*
X65800Y-35700D01*
X63900Y-42800D02*
X66400Y-42800D01*
X66400Y-42800D02*
X68200Y-42800D01*
X68200Y-42800D02*
X68600Y-42400D01*
X50200Y-43300D02*
X58400Y-43300D01*
X40839Y-38039D02*
X41300Y-38500D01*
X41300Y-38500D02*
X42200Y-38500D01*
X42200Y-38500D02*
X44518Y-40818D01*
X44518Y-40818D02*
X47718Y-40818D01*
X47718Y-40818D02*
X50200Y-43300D01*
X40839Y-37992D02*
X40839Y-38039D01*
X63800Y-42700D02*
X63900Y-42800D01*
X62500Y-42700D02*
X63800Y-42700D01*
X61800Y-43400D02*
X62500Y-42700D01*
X58500Y-43400D02*
X61800Y-43400D01*
X58400Y-43300D02*
X58500Y-43400D01*
X57752Y-23350D02*
X57752Y-24352D01*
X57752Y-24352D02*
X58700Y-25300D01*
X60100Y-32400D02*
X61400Y-32400D01*
X61400Y-32400D02*
X62600Y-33600D01*
X62600Y-33600D02*
X62600Y-34300D01*
X62400Y-40700D02*
X62200Y-40900D01*
X62200Y-40900D02*
X60100Y-40900D01*
X60100Y-40900D02*
X59900Y-40700D01*
X59900Y-40700D02*
X59900Y-35700D01*
X59900Y-35700D02*
X59000Y-34800D01*
X57600Y-34800D02*
X57400Y-34600D01*
X59000Y-34800D02*
X57600Y-34800D01*
X67400Y-33300D02*
X65000Y-35700D01*
X68100Y-33300D02*
X67400Y-33300D01*
X58200Y-43700D02*
X58300Y-43800D01*
X58300Y-43800D02*
X62000Y-43800D01*
X62000Y-43800D02*
X62700Y-43100D01*
X62700Y-43100D02*
X63600Y-43100D01*
X63600Y-43100D02*
X63800Y-43300D01*
X63800Y-43300D02*
X69700Y-43300D01*
X40839Y-40039D02*
X40839Y-39992D01*
X40839Y-40039D02*
X42000Y-41200D01*
X47500Y-41200D02*
X50000Y-43700D01*
X42000Y-41200D02*
X47500Y-41200D01*
X50000Y-43700D02*
X58200Y-43700D01*
X71100Y-32400D02*
X71100Y-29700D01*
X71100Y-29700D02*
X71200Y-29600D01*
X71100Y-32400D02*
X71400Y-32700D01*
X66600Y-28000D02*
X67500Y-28900D01*
X53100Y-28000D02*
X66600Y-28000D01*
X52209Y-27109D02*
X53100Y-28000D01*
X52209Y-27109D02*
X52209Y-27075D01*
X62300Y-33800D02*
X61700Y-33200D01*
X61700Y-33200D02*
X60300Y-33200D01*
X59200Y-32100D02*
X53300Y-32100D01*
X60300Y-33200D02*
X59200Y-32100D01*
X62800Y-40900D02*
X62600Y-41100D01*
X62600Y-41100D02*
X60000Y-41100D01*
X62800Y-40800D02*
X62800Y-40900D01*
X59700Y-36000D02*
X58700Y-35000D01*
X59700Y-40800D02*
X59700Y-36000D01*
X60000Y-41100D02*
X59700Y-40800D01*
X57300Y-35000D02*
X57100Y-34800D01*
X58700Y-35000D02*
X57300Y-35000D01*
X63800Y-33600D02*
X63200Y-33600D01*
X63200Y-33600D02*
X61500Y-31900D01*
X61100Y-31100D02*
X56200Y-31100D01*
X61500Y-31900D02*
X61500Y-31500D01*
X61500Y-31500D02*
X61100Y-31100D01*
X60200Y-33400D02*
X59200Y-32400D01*
X59200Y-32400D02*
X54200Y-32400D01*
X60200Y-33400D02*
X61500Y-33400D01*
X61500Y-33400D02*
X62100Y-34000D01*
X62000Y-34400D02*
X62100Y-34300D01*
X62100Y-34300D02*
X62100Y-34000D01*
X60800Y-44800D02*
X58900Y-44800D01*
X58900Y-44800D02*
X58700Y-45000D01*
X63000Y-41100D02*
X62900Y-41100D01*
X62700Y-41300D02*
X59900Y-41300D01*
X62900Y-41100D02*
X62700Y-41300D01*
X58600Y-35200D02*
X57000Y-35200D01*
X59500Y-36100D02*
X58600Y-35200D01*
X59500Y-40900D02*
X59500Y-36100D01*
X59900Y-41300D02*
X59500Y-40900D01*
X57000Y-35200D02*
X56800Y-35000D01*
X60800Y-44400D02*
X56900Y-44400D01*
X56700Y-44600D02*
X56900Y-44400D01*
X56700Y-45000D02*
X56700Y-44600D01*
X73300Y-33500D02*
X73400Y-33400D01*
X71500Y-36500D02*
X73300Y-34700D01*
X73300Y-34700D02*
X73300Y-33500D01*
X65900Y-40400D02*
X68600Y-40400D01*
X63000Y-38900D02*
X62800Y-39100D01*
X64400Y-38900D02*
X65900Y-40400D01*
X63000Y-38900D02*
X64400Y-38900D01*
X70100Y-39800D02*
X70700Y-39200D01*
X69200Y-39800D02*
X70100Y-39800D01*
X68600Y-40400D02*
X69200Y-39800D01*
X73400Y-32500D02*
X73300Y-32400D01*
X73400Y-33400D02*
X73400Y-32500D01*
X59200Y-32700D02*
X55400Y-32700D01*
X60100Y-33600D02*
X61300Y-33600D01*
X60100Y-33600D02*
X59200Y-32700D01*
X61800Y-34100D02*
X61300Y-33600D01*
X67700Y-42000D02*
X64400Y-42000D01*
X64400Y-42000D02*
X64100Y-42300D01*
X58900Y-42900D02*
X61700Y-42900D01*
X62300Y-42300D02*
X64100Y-42300D01*
X62300Y-42300D02*
X61700Y-42900D01*
X69980Y-47441D02*
X68541Y-47441D01*
X68541Y-47441D02*
X68000Y-46900D01*
X67000Y-45600D02*
X67000Y-46400D01*
X67500Y-46900D02*
X68000Y-46900D01*
X67000Y-46400D02*
X67500Y-46900D01*
X62900Y-45600D02*
X67000Y-45600D01*
X59950Y-45150D02*
X62450Y-45150D01*
X62450Y-45150D02*
X62900Y-45600D01*
X59800Y-45300D02*
X59950Y-45150D01*
X60600Y-45700D02*
X61900Y-45700D01*
X62106Y-47441D02*
X62159Y-47441D01*
X62500Y-47100D02*
X62500Y-46300D01*
X62159Y-47441D02*
X62500Y-47100D01*
X61900Y-45700D02*
X62500Y-46300D01*
X54300Y-42000D02*
X54400Y-41900D01*
X54400Y-41900D02*
X60400Y-41900D01*
X63600Y-41900D02*
X62100Y-41900D01*
X62100Y-41900D02*
X61500Y-42500D01*
X59300Y-42500D02*
X58900Y-42100D01*
X61500Y-42500D02*
X59300Y-42500D01*
X54700Y-42100D02*
X58900Y-42100D01*
X54600Y-42200D02*
X54700Y-42100D01*
X63600Y-41900D02*
X63900Y-41600D01*
X62200Y-42100D02*
X63800Y-42100D01*
X63800Y-42100D02*
X63900Y-42000D01*
X62200Y-42100D02*
X61600Y-42700D01*
X55000Y-42300D02*
X58800Y-42300D01*
X54900Y-42400D02*
X55000Y-42300D01*
X61600Y-42700D02*
X59200Y-42700D01*
X59200Y-42700D02*
X58800Y-42300D01*
G54D34*
X64000Y-28900D02*
X49500Y-28900D01*
X48713Y-29687D02*
X49500Y-28900D01*
X48713Y-30315D02*
X48713Y-29687D01*
X48713Y-30315D02*
X48752Y-30317D01*
G54D36*
X67600Y-35200D02*
X67100Y-35200D01*
X67100Y-35200D02*
X66600Y-35700D01*
X60300Y-45400D02*
X62400Y-45400D01*
X62400Y-45400D02*
X62800Y-45800D01*
X60200Y-45500D02*
X60300Y-45400D01*
X66400Y-46200D02*
X66000Y-45800D01*
X66400Y-47000D02*
X66400Y-46200D01*
X66043Y-47357D02*
X66400Y-47000D01*
X62800Y-45800D02*
X66000Y-45800D01*
X66043Y-47441D02*
X66043Y-47357D01*
X48200Y-39200D02*
X55500Y-39200D01*
X55500Y-39200D02*
X56200Y-38500D01*
X56200Y-36800D02*
X59100Y-36800D01*
X48200Y-39200D02*
X44400Y-35400D01*
X67000Y-28800D02*
X65900Y-28800D01*
X67500Y-29300D02*
X67000Y-28800D01*
G54D35*
X66300Y-31200D02*
X64800Y-31200D01*
X60500Y-40000D02*
X60700Y-39800D01*
X60700Y-39800D02*
X64500Y-39800D01*
X64500Y-39800D02*
X65300Y-40600D01*
X60700Y-39800D02*
X60700Y-35300D01*
X60700Y-35300D02*
X60800Y-35200D01*
X65400Y-34200D02*
X66300Y-33300D01*
X66300Y-33300D02*
X66300Y-31200D01*
X66300Y-31200D02*
X66300Y-29900D01*
X66300Y-29900D02*
X65800Y-29400D01*
X65800Y-29400D02*
X50400Y-29400D01*
X59800Y-34400D02*
X60600Y-35200D01*
X60600Y-35200D02*
X60800Y-35200D01*
X65400Y-34200D02*
X64400Y-35200D01*
X60800Y-35200D02*
X64400Y-35200D01*
G54D10*
G36*
X78895Y-48383D02*
X78895Y-19924D01*
X61215Y-19924D01*
X61287Y-20023D01*
X61340Y-20246D01*
X61340Y-20330D01*
X60772Y-20330D01*
X60732Y-20330D01*
X59772Y-20330D01*
X59732Y-20330D01*
X58772Y-20330D01*
X58732Y-20330D01*
X57772Y-20330D01*
X57732Y-20330D01*
X57164Y-20330D01*
X57164Y-20246D01*
X57217Y-20023D01*
X57288Y-19924D01*
X39609Y-19924D01*
X39609Y-48383D01*
X41283Y-48383D01*
X41283Y-45159D01*
X40819Y-44966D01*
X40600Y-44746D01*
X40465Y-44611D01*
X40273Y-44147D01*
X40273Y-43645D01*
X40466Y-43181D01*
X40600Y-43047D01*
X40821Y-42827D01*
X41285Y-42635D01*
X41787Y-42635D01*
X42251Y-42828D01*
X42605Y-43183D01*
X42797Y-43647D01*
X42797Y-44149D01*
X42604Y-44613D01*
X42249Y-44967D01*
X41785Y-45159D01*
X41283Y-45159D01*
X41283Y-48383D01*
X58056Y-48383D01*
X58056Y-48094D01*
X57850Y-48008D01*
X57692Y-47850D01*
X57607Y-47643D01*
X57607Y-47237D01*
X57649Y-47134D01*
X57541Y-47135D01*
X57292Y-47031D01*
X57102Y-46840D01*
X56999Y-46591D01*
X56999Y-46321D01*
X57103Y-46072D01*
X57294Y-45882D01*
X57543Y-45779D01*
X57810Y-45779D01*
X57810Y-45567D01*
X57585Y-45566D01*
X57377Y-45479D01*
X57355Y-45373D01*
X57700Y-45028D01*
X58045Y-45373D01*
X58023Y-45479D01*
X58019Y-45482D01*
X57810Y-45567D01*
X57810Y-45779D01*
X57813Y-45779D01*
X58062Y-45883D01*
X58252Y-46074D01*
X58355Y-46323D01*
X58355Y-46593D01*
X58273Y-46788D01*
X58282Y-46788D01*
X58488Y-46874D01*
X58646Y-47032D01*
X58731Y-47239D01*
X58731Y-47645D01*
X58645Y-47851D01*
X58487Y-48009D01*
X58280Y-48094D01*
X58056Y-48094D01*
X58056Y-48383D01*
X59832Y-48383D01*
X59832Y-48082D01*
X59739Y-48057D01*
X59549Y-47939D01*
X59419Y-47757D01*
X59368Y-47539D01*
X59368Y-47461D01*
X59921Y-47461D01*
X59921Y-48023D01*
X59832Y-48082D01*
X59832Y-48383D01*
X60050Y-48383D01*
X60050Y-48082D01*
X59961Y-48023D01*
X59961Y-47461D01*
X60514Y-47461D01*
X60514Y-47539D01*
X60463Y-47757D01*
X60333Y-47939D01*
X60143Y-48057D01*
X60050Y-48082D01*
X60050Y-48383D01*
X63769Y-48383D01*
X63769Y-48082D01*
X63676Y-48057D01*
X63486Y-47939D01*
X63356Y-47757D01*
X63305Y-47539D01*
X63305Y-47461D01*
X63858Y-47461D01*
X63858Y-48023D01*
X63769Y-48082D01*
X63769Y-48383D01*
X63987Y-48383D01*
X63987Y-48082D01*
X63898Y-48023D01*
X63898Y-47461D01*
X64451Y-47461D01*
X64451Y-47539D01*
X64400Y-47757D01*
X64270Y-47939D01*
X64080Y-48057D01*
X63987Y-48082D01*
X63987Y-48383D01*
X67706Y-48383D01*
X67706Y-48082D01*
X67613Y-48057D01*
X67423Y-47939D01*
X67293Y-47757D01*
X67242Y-47539D01*
X67242Y-47461D01*
X67795Y-47461D01*
X67795Y-48023D01*
X67706Y-48082D01*
X67706Y-48383D01*
X69867Y-48383D01*
X69867Y-48094D01*
X69661Y-48008D01*
X69503Y-47850D01*
X69469Y-47769D01*
X68541Y-47769D01*
X68415Y-47744D01*
X68350Y-47700D01*
X68337Y-47757D01*
X68207Y-47939D01*
X68017Y-48057D01*
X67924Y-48082D01*
X67835Y-48023D01*
X67835Y-47461D01*
X67835Y-47421D01*
X67795Y-47421D01*
X67242Y-47421D01*
X67242Y-47343D01*
X67288Y-47145D01*
X67268Y-47132D01*
X66768Y-46632D01*
X66728Y-46572D01*
X66728Y-47000D01*
X66702Y-47125D01*
X66632Y-47232D01*
X66631Y-47232D01*
X66631Y-47233D01*
X66605Y-47259D01*
X66605Y-47645D01*
X66519Y-47851D01*
X66361Y-48009D01*
X66154Y-48094D01*
X65930Y-48094D01*
X65724Y-48008D01*
X65566Y-47850D01*
X65481Y-47643D01*
X65481Y-47237D01*
X65523Y-47134D01*
X65415Y-47135D01*
X65166Y-47031D01*
X64976Y-46840D01*
X64960Y-46802D01*
X64944Y-46842D01*
X64753Y-47032D01*
X64504Y-47135D01*
X64402Y-47135D01*
X64451Y-47343D01*
X64451Y-47421D01*
X63898Y-47421D01*
X63858Y-47421D01*
X63305Y-47421D01*
X63305Y-47343D01*
X63356Y-47125D01*
X63486Y-46943D01*
X63676Y-46825D01*
X63769Y-46800D01*
X63782Y-46808D01*
X63692Y-46591D01*
X63692Y-46321D01*
X63772Y-46128D01*
X62800Y-46128D01*
X62767Y-46121D01*
X62803Y-46174D01*
X62828Y-46300D01*
X62828Y-47100D01*
X62803Y-47226D01*
X62732Y-47332D01*
X62668Y-47396D01*
X62668Y-47645D01*
X62582Y-47851D01*
X62424Y-48009D01*
X62217Y-48094D01*
X61993Y-48094D01*
X61787Y-48008D01*
X61629Y-47850D01*
X61544Y-47643D01*
X61544Y-47237D01*
X61586Y-47134D01*
X61478Y-47135D01*
X61229Y-47031D01*
X61039Y-46840D01*
X61023Y-46802D01*
X61007Y-46842D01*
X60816Y-47032D01*
X60600Y-47121D01*
X60567Y-47135D01*
X60465Y-47135D01*
X60514Y-47343D01*
X60514Y-47421D01*
X59961Y-47421D01*
X59921Y-47421D01*
X59368Y-47421D01*
X59368Y-47343D01*
X59419Y-47125D01*
X59549Y-46943D01*
X59739Y-46825D01*
X59832Y-46800D01*
X59845Y-46808D01*
X59755Y-46591D01*
X59755Y-46321D01*
X59859Y-46072D01*
X60045Y-45886D01*
X59964Y-45852D01*
X59847Y-45735D01*
X59839Y-45716D01*
X59717Y-45716D01*
X59564Y-45652D01*
X59447Y-45535D01*
X59384Y-45382D01*
X59384Y-45217D01*
X59421Y-45128D01*
X59272Y-45128D01*
X59189Y-45328D01*
X59027Y-45490D01*
X58814Y-45578D01*
X58584Y-45578D01*
X58372Y-45489D01*
X58210Y-45327D01*
X58193Y-45287D01*
X58179Y-45323D01*
X58073Y-45345D01*
X57728Y-45000D01*
X57700Y-44972D01*
X57672Y-45000D01*
X57327Y-45345D01*
X57278Y-45334D01*
X57278Y-45356D01*
X57235Y-45458D01*
X57157Y-45536D01*
X57055Y-45578D01*
X56344Y-45578D01*
X56242Y-45535D01*
X56164Y-45457D01*
X56122Y-45355D01*
X56122Y-44644D01*
X56165Y-44542D01*
X56243Y-44464D01*
X56345Y-44422D01*
X56431Y-44422D01*
X56468Y-44368D01*
X56667Y-44169D01*
X56667Y-44168D01*
X56668Y-44168D01*
X56774Y-44097D01*
X56899Y-44072D01*
X58127Y-44072D01*
X58068Y-44032D01*
X58063Y-44028D01*
X50000Y-44028D01*
X49874Y-44003D01*
X49768Y-43932D01*
X47363Y-41528D01*
X45223Y-41528D01*
X45524Y-41829D01*
X45710Y-42278D01*
X45710Y-42764D01*
X45523Y-43213D01*
X45179Y-43556D01*
X44730Y-43742D01*
X44244Y-43742D01*
X43795Y-43555D01*
X43452Y-43211D01*
X43266Y-42762D01*
X43266Y-42276D01*
X43453Y-41827D01*
X43752Y-41528D01*
X42000Y-41528D01*
X41874Y-41503D01*
X41768Y-41432D01*
X40906Y-40570D01*
X40723Y-40570D01*
X40600Y-40518D01*
X40511Y-40481D01*
X40349Y-40319D01*
X40261Y-40106D01*
X40261Y-39876D01*
X40350Y-39664D01*
X40512Y-39502D01*
X40536Y-39491D01*
X40511Y-39481D01*
X40349Y-39319D01*
X40261Y-39106D01*
X40261Y-38876D01*
X40350Y-38664D01*
X40512Y-38502D01*
X40536Y-38491D01*
X40511Y-38481D01*
X40349Y-38319D01*
X40261Y-38106D01*
X40261Y-37876D01*
X40350Y-37664D01*
X40512Y-37502D01*
X40536Y-37491D01*
X40511Y-37481D01*
X40349Y-37319D01*
X40261Y-37106D01*
X40261Y-36876D01*
X40350Y-36664D01*
X40455Y-36558D01*
X40381Y-36527D01*
X40303Y-36449D01*
X40261Y-36347D01*
X40261Y-35636D01*
X40304Y-35534D01*
X40382Y-35456D01*
X40484Y-35414D01*
X40600Y-35414D01*
X40600Y-34089D01*
X40380Y-34089D01*
X40380Y-29991D01*
X41283Y-29991D01*
X41283Y-25474D01*
X40819Y-25281D01*
X40465Y-24926D01*
X40273Y-24462D01*
X40273Y-23960D01*
X40466Y-23496D01*
X40821Y-23142D01*
X41285Y-22950D01*
X41787Y-22950D01*
X42251Y-23143D01*
X42605Y-23498D01*
X42797Y-23962D01*
X42797Y-24464D01*
X42604Y-24928D01*
X42249Y-25282D01*
X41785Y-25474D01*
X41283Y-25474D01*
X41283Y-29991D01*
X42140Y-29991D01*
X42140Y-34089D01*
X40600Y-34089D01*
X40600Y-35414D01*
X41195Y-35414D01*
X41297Y-35457D01*
X41375Y-35535D01*
X41405Y-35608D01*
X41512Y-35502D01*
X41725Y-35414D01*
X41955Y-35414D01*
X42167Y-35503D01*
X42329Y-35665D01*
X42417Y-35878D01*
X42417Y-36108D01*
X42328Y-36320D01*
X42166Y-36482D01*
X42126Y-36498D01*
X42162Y-36513D01*
X42184Y-36619D01*
X41839Y-36964D01*
X41811Y-36992D01*
X41839Y-37020D01*
X41867Y-36992D01*
X42212Y-36647D01*
X42318Y-36669D01*
X42321Y-36673D01*
X42406Y-36882D01*
X42405Y-37107D01*
X42358Y-37218D01*
X42432Y-37268D01*
X44579Y-39414D01*
X44579Y-37660D01*
X44382Y-37579D01*
X44232Y-37428D01*
X44151Y-37232D01*
X44151Y-37020D01*
X44232Y-36823D01*
X44383Y-36673D01*
X44579Y-36592D01*
X44791Y-36592D01*
X44988Y-36673D01*
X45138Y-36824D01*
X45219Y-37020D01*
X45219Y-37232D01*
X45138Y-37429D01*
X44987Y-37579D01*
X44791Y-37660D01*
X44579Y-37660D01*
X44579Y-39414D01*
X45436Y-40272D01*
X47800Y-40272D01*
X47926Y-40297D01*
X48032Y-40368D01*
X50435Y-42771D01*
X54121Y-42772D01*
X54121Y-42375D01*
X54064Y-42352D01*
X53947Y-42235D01*
X53884Y-42082D01*
X53884Y-41917D01*
X53948Y-41764D01*
X54065Y-41647D01*
X54218Y-41584D01*
X54339Y-41584D01*
X54400Y-41572D01*
X59727Y-41572D01*
X59668Y-41532D01*
X59665Y-41528D01*
X59268Y-41132D01*
X59197Y-41026D01*
X59172Y-40900D01*
X59172Y-38316D01*
X59160Y-38316D01*
X59100Y-38328D01*
X56578Y-38328D01*
X56616Y-38418D01*
X56616Y-38583D01*
X56552Y-38736D01*
X56435Y-38853D01*
X56282Y-38916D01*
X56247Y-38916D01*
X55732Y-39432D01*
X55626Y-39503D01*
X55500Y-39528D01*
X48200Y-39528D01*
X48074Y-39503D01*
X47968Y-39432D01*
X46700Y-38164D01*
X44351Y-35816D01*
X44317Y-35816D01*
X44164Y-35752D01*
X44047Y-35635D01*
X43984Y-35482D01*
X43984Y-35317D01*
X44048Y-35164D01*
X44165Y-35047D01*
X44244Y-35014D01*
X44244Y-31537D01*
X43795Y-31350D01*
X43452Y-31006D01*
X43266Y-30557D01*
X43266Y-30071D01*
X43453Y-29622D01*
X43797Y-29279D01*
X44163Y-29127D01*
X44246Y-29093D01*
X44732Y-29093D01*
X45181Y-29280D01*
X45496Y-29595D01*
X45524Y-29624D01*
X45710Y-30073D01*
X45710Y-30559D01*
X45523Y-31008D01*
X45179Y-31351D01*
X44730Y-31537D01*
X44244Y-31537D01*
X44244Y-35014D01*
X44318Y-34984D01*
X44483Y-34984D01*
X44636Y-35048D01*
X44649Y-35061D01*
X44665Y-35047D01*
X44818Y-34984D01*
X44983Y-34984D01*
X45136Y-35048D01*
X45253Y-35165D01*
X45316Y-35318D01*
X45316Y-35483D01*
X45295Y-35531D01*
X46700Y-36936D01*
X48435Y-38672D01*
X55064Y-38672D01*
X55408Y-38327D01*
X52600Y-38328D01*
X52599Y-38327D01*
X52599Y-38328D01*
X52474Y-38303D01*
X52368Y-38232D01*
X52365Y-38228D01*
X50768Y-36632D01*
X50697Y-36526D01*
X50672Y-36400D01*
X50672Y-35660D01*
X50647Y-35635D01*
X50584Y-35482D01*
X50584Y-35317D01*
X50648Y-35164D01*
X50684Y-35128D01*
X49399Y-35128D01*
X49403Y-35131D01*
X49432Y-35203D01*
X49442Y-35217D01*
X49445Y-35233D01*
X49475Y-35306D01*
X49475Y-35384D01*
X49478Y-35400D01*
X49475Y-35415D01*
X49475Y-35495D01*
X49445Y-35564D01*
X49442Y-35584D01*
X49430Y-35600D01*
X49402Y-35669D01*
X49347Y-35723D01*
X49338Y-35738D01*
X48738Y-36338D01*
X48583Y-36442D01*
X48400Y-36478D01*
X47400Y-36478D01*
X47217Y-36442D01*
X47061Y-36337D01*
X46354Y-35630D01*
X46352Y-35636D01*
X46235Y-35753D01*
X46082Y-35816D01*
X45917Y-35816D01*
X45764Y-35752D01*
X45647Y-35635D01*
X45584Y-35482D01*
X45584Y-35317D01*
X45648Y-35164D01*
X45672Y-35140D01*
X45672Y-34800D01*
X45697Y-34674D01*
X45768Y-34568D01*
X45967Y-34369D01*
X45967Y-34368D01*
X45968Y-34368D01*
X46074Y-34297D01*
X46199Y-34272D01*
X50917Y-34272D01*
X50917Y-32916D01*
X50764Y-32852D01*
X50647Y-32735D01*
X50584Y-32582D01*
X50584Y-32417D01*
X50648Y-32264D01*
X50765Y-32147D01*
X50918Y-32084D01*
X51083Y-32084D01*
X51236Y-32148D01*
X51353Y-32265D01*
X51416Y-32418D01*
X51416Y-32583D01*
X51352Y-32736D01*
X51235Y-32853D01*
X51082Y-32916D01*
X50917Y-32916D01*
X50917Y-34272D01*
X54600Y-34272D01*
X54726Y-34297D01*
X54832Y-34368D01*
X55635Y-35172D01*
X56421Y-35172D01*
X56384Y-35082D01*
X56384Y-34917D01*
X56448Y-34764D01*
X56565Y-34647D01*
X56718Y-34584D01*
X56739Y-34584D01*
X56748Y-34564D01*
X56865Y-34447D01*
X57018Y-34384D01*
X57039Y-34384D01*
X57048Y-34364D01*
X57165Y-34247D01*
X57318Y-34184D01*
X57339Y-34184D01*
X57348Y-34164D01*
X57465Y-34047D01*
X57618Y-33984D01*
X57783Y-33984D01*
X57936Y-34048D01*
X58053Y-34165D01*
X58097Y-34271D01*
X59300Y-34272D01*
X59345Y-34281D01*
X59358Y-34217D01*
X59462Y-34062D01*
X59483Y-34047D01*
X59064Y-33628D01*
X57469Y-33628D01*
X57444Y-33653D01*
X57291Y-33716D01*
X57126Y-33716D01*
X56973Y-33652D01*
X56856Y-33535D01*
X56793Y-33382D01*
X56793Y-33328D01*
X54159Y-33328D01*
X54135Y-33353D01*
X53982Y-33416D01*
X53817Y-33416D01*
X53664Y-33352D01*
X53547Y-33235D01*
X53484Y-33082D01*
X53484Y-32917D01*
X53548Y-32764D01*
X53665Y-32647D01*
X53818Y-32584D01*
X53826Y-32584D01*
X53784Y-32482D01*
X53784Y-32428D01*
X53559Y-32428D01*
X53535Y-32453D01*
X53382Y-32516D01*
X53217Y-32516D01*
X53064Y-32452D01*
X52947Y-32335D01*
X52884Y-32182D01*
X52884Y-32078D01*
X46400Y-32078D01*
X46217Y-32042D01*
X46062Y-31938D01*
X45958Y-31783D01*
X45922Y-31600D01*
X45958Y-31417D01*
X46062Y-31262D01*
X46217Y-31158D01*
X46400Y-31122D01*
X46621Y-31122D01*
X46621Y-30949D01*
X46422Y-30949D01*
X46320Y-30907D01*
X46242Y-30829D01*
X46199Y-30727D01*
X46199Y-30406D01*
X46268Y-30337D01*
X46621Y-30337D01*
X46621Y-30297D01*
X46268Y-30297D01*
X46199Y-30228D01*
X46199Y-29907D01*
X46242Y-29805D01*
X46320Y-29727D01*
X46422Y-29685D01*
X46663Y-29685D01*
X46732Y-29754D01*
X46732Y-30221D01*
X46772Y-30221D01*
X46772Y-29754D01*
X46775Y-29751D01*
X46775Y-24903D01*
X46420Y-24755D01*
X46149Y-24483D01*
X46002Y-24128D01*
X46002Y-23918D01*
X45840Y-23982D01*
X45496Y-23976D01*
X45463Y-23976D01*
X45337Y-23921D01*
X45337Y-24126D01*
X45192Y-24475D01*
X44925Y-24742D01*
X44576Y-24886D01*
X44163Y-24886D01*
X43814Y-24741D01*
X43547Y-24474D01*
X43403Y-24125D01*
X43403Y-23748D01*
X43548Y-23399D01*
X43815Y-23132D01*
X44164Y-22988D01*
X44577Y-22988D01*
X44721Y-23048D01*
X44725Y-22826D01*
X44876Y-22480D01*
X45021Y-22412D01*
X45640Y-23032D01*
X45669Y-23060D01*
X45669Y-23004D01*
X45049Y-22384D01*
X45117Y-22239D01*
X45148Y-22220D01*
X45197Y-22200D01*
X45177Y-22192D01*
X44933Y-21948D01*
X44891Y-21848D01*
X44814Y-21926D01*
X44423Y-22088D01*
X44000Y-22088D01*
X43609Y-21926D01*
X43310Y-21626D01*
X43148Y-21235D01*
X43148Y-20812D01*
X43310Y-20421D01*
X43610Y-20122D01*
X44001Y-19960D01*
X44424Y-19960D01*
X44815Y-20122D01*
X45114Y-20422D01*
X45229Y-20699D01*
X45497Y-20589D01*
X45842Y-20589D01*
X46108Y-20700D01*
X46224Y-20421D01*
X46524Y-20122D01*
X46915Y-19960D01*
X47338Y-19960D01*
X47729Y-20122D01*
X48028Y-20422D01*
X48190Y-20813D01*
X48190Y-21236D01*
X48028Y-21627D01*
X47728Y-21926D01*
X47337Y-22088D01*
X46914Y-22088D01*
X46523Y-21926D01*
X46445Y-21848D01*
X46404Y-21949D01*
X46160Y-22193D01*
X46137Y-22202D01*
X46221Y-22239D01*
X46289Y-22384D01*
X45669Y-23004D01*
X45669Y-23060D01*
X45697Y-23032D01*
X46317Y-22412D01*
X46462Y-22480D01*
X46481Y-22511D01*
X46619Y-22861D01*
X46616Y-23037D01*
X46777Y-22971D01*
X47161Y-22971D01*
X47516Y-23119D01*
X47787Y-23391D01*
X47934Y-23746D01*
X47934Y-24130D01*
X47786Y-24485D01*
X47514Y-24756D01*
X47159Y-24903D01*
X46775Y-24903D01*
X46775Y-29751D01*
X46841Y-29685D01*
X47082Y-29685D01*
X47184Y-29727D01*
X47235Y-29778D01*
X47235Y-29687D01*
X47271Y-29504D01*
X47375Y-29349D01*
X48562Y-28162D01*
X48717Y-28058D01*
X48900Y-28022D01*
X50200Y-28022D01*
X50215Y-28025D01*
X50295Y-28025D01*
X50365Y-28054D01*
X50383Y-28058D01*
X50398Y-28068D01*
X50469Y-28098D01*
X50493Y-28122D01*
X50621Y-28122D01*
X50621Y-25521D01*
X51036Y-25520D01*
X51095Y-25497D01*
X51325Y-25497D01*
X51382Y-25520D01*
X52069Y-25520D01*
X52099Y-25508D01*
X52324Y-25509D01*
X52350Y-25520D01*
X53036Y-25520D01*
X53095Y-25497D01*
X53325Y-25497D01*
X53382Y-25520D01*
X54069Y-25520D01*
X54099Y-25508D01*
X54324Y-25509D01*
X54350Y-25520D01*
X55036Y-25520D01*
X55095Y-25497D01*
X55325Y-25497D01*
X55382Y-25520D01*
X56069Y-25520D01*
X56099Y-25508D01*
X56324Y-25509D01*
X56350Y-25520D01*
X57036Y-25520D01*
X57095Y-25497D01*
X57325Y-25497D01*
X57382Y-25520D01*
X58067Y-25520D01*
X58099Y-25508D01*
X58324Y-25509D01*
X58338Y-25515D01*
X58284Y-25382D01*
X58284Y-25347D01*
X57520Y-24584D01*
X57449Y-24478D01*
X57424Y-24352D01*
X57424Y-23933D01*
X57263Y-23772D01*
X57175Y-23560D01*
X57175Y-23139D01*
X57263Y-22927D01*
X57426Y-22765D01*
X57638Y-22677D01*
X57640Y-22677D01*
X57640Y-21010D01*
X57546Y-20984D01*
X57351Y-20863D01*
X57217Y-20677D01*
X57164Y-20454D01*
X57164Y-20370D01*
X57732Y-20370D01*
X57732Y-20951D01*
X57640Y-21010D01*
X57640Y-22677D01*
X57867Y-22677D01*
X58079Y-22765D01*
X58241Y-22928D01*
X58251Y-22954D01*
X58263Y-22927D01*
X58426Y-22765D01*
X58638Y-22677D01*
X58640Y-22677D01*
X58640Y-21010D01*
X58546Y-20984D01*
X58351Y-20863D01*
X58252Y-20725D01*
X58153Y-20863D01*
X57958Y-20984D01*
X57864Y-21010D01*
X57772Y-20951D01*
X57772Y-20370D01*
X58732Y-20370D01*
X58732Y-20951D01*
X58640Y-21010D01*
X58640Y-22677D01*
X58867Y-22677D01*
X59079Y-22765D01*
X59241Y-22928D01*
X59251Y-22953D01*
X59263Y-22927D01*
X59426Y-22765D01*
X59638Y-22677D01*
X59640Y-22677D01*
X59640Y-21010D01*
X59546Y-20984D01*
X59351Y-20863D01*
X59251Y-20725D01*
X59153Y-20863D01*
X58958Y-20984D01*
X58864Y-21010D01*
X58772Y-20951D01*
X58772Y-20370D01*
X59732Y-20370D01*
X59732Y-20951D01*
X59640Y-21010D01*
X59640Y-22677D01*
X59867Y-22677D01*
X60079Y-22765D01*
X60241Y-22928D01*
X60251Y-22954D01*
X60263Y-22927D01*
X60426Y-22765D01*
X60638Y-22677D01*
X60640Y-22677D01*
X60640Y-21010D01*
X60546Y-20984D01*
X60351Y-20863D01*
X60252Y-20725D01*
X60153Y-20863D01*
X59958Y-20984D01*
X59864Y-21010D01*
X59772Y-20951D01*
X59772Y-20370D01*
X60732Y-20370D01*
X60732Y-20951D01*
X60640Y-21010D01*
X60640Y-22677D01*
X60864Y-22677D01*
X60864Y-21010D01*
X60772Y-20951D01*
X60772Y-20370D01*
X61340Y-20370D01*
X61340Y-20454D01*
X61287Y-20677D01*
X61153Y-20863D01*
X60958Y-20984D01*
X60864Y-21010D01*
X60864Y-22677D01*
X60867Y-22677D01*
X61079Y-22765D01*
X61241Y-22928D01*
X61329Y-23140D01*
X61329Y-23561D01*
X61241Y-23773D01*
X61078Y-23935D01*
X60866Y-24023D01*
X60637Y-24023D01*
X60425Y-23935D01*
X60263Y-23772D01*
X60252Y-23746D01*
X60241Y-23773D01*
X60078Y-23935D01*
X59866Y-24023D01*
X59637Y-24023D01*
X59425Y-23935D01*
X59263Y-23772D01*
X59252Y-23746D01*
X59241Y-23773D01*
X59078Y-23935D01*
X58866Y-24023D01*
X58676Y-24022D01*
X58736Y-24048D01*
X58853Y-24165D01*
X58916Y-24318D01*
X58916Y-24483D01*
X58852Y-24636D01*
X58735Y-24753D01*
X58650Y-24787D01*
X58747Y-24884D01*
X58783Y-24884D01*
X58936Y-24948D01*
X59053Y-25065D01*
X59116Y-25218D01*
X59116Y-25383D01*
X59062Y-25510D01*
X59095Y-25497D01*
X59325Y-25497D01*
X59382Y-25520D01*
X60068Y-25520D01*
X60099Y-25508D01*
X60324Y-25509D01*
X60351Y-25520D01*
X60778Y-25521D01*
X60778Y-26939D01*
X60787Y-26961D01*
X60787Y-27191D01*
X60778Y-27212D01*
X60778Y-27472D01*
X61021Y-27472D01*
X60984Y-27382D01*
X60984Y-27217D01*
X61048Y-27064D01*
X61165Y-26947D01*
X61318Y-26884D01*
X61483Y-26884D01*
X61636Y-26948D01*
X61753Y-27065D01*
X61816Y-27218D01*
X61816Y-27383D01*
X61778Y-27472D01*
X66437Y-27472D01*
X65833Y-26867D01*
X65751Y-26745D01*
X65722Y-26600D01*
X65722Y-24910D01*
X65647Y-24835D01*
X65584Y-24682D01*
X65584Y-24517D01*
X65648Y-24364D01*
X65765Y-24247D01*
X65918Y-24184D01*
X66083Y-24184D01*
X66122Y-24200D01*
X66122Y-23856D01*
X66056Y-23790D01*
X65964Y-23752D01*
X65847Y-23635D01*
X65784Y-23482D01*
X65784Y-23317D01*
X65848Y-23164D01*
X65965Y-23047D01*
X66118Y-22984D01*
X66283Y-22984D01*
X66436Y-23048D01*
X66553Y-23165D01*
X66590Y-23256D01*
X66767Y-23433D01*
X66849Y-23555D01*
X66878Y-23700D01*
X66878Y-25384D01*
X66983Y-25384D01*
X67136Y-25448D01*
X67253Y-25565D01*
X67290Y-25656D01*
X67747Y-26112D01*
X68067Y-26432D01*
X68149Y-26555D01*
X68178Y-26700D01*
X68178Y-27043D01*
X68346Y-27211D01*
X68346Y-26311D01*
X68215Y-26259D01*
X68201Y-26238D01*
X68082Y-25937D01*
X68086Y-25627D01*
X68077Y-25632D01*
X67747Y-25632D01*
X67443Y-25505D01*
X67210Y-25272D01*
X67084Y-24967D01*
X67084Y-24637D01*
X67211Y-24333D01*
X67444Y-24100D01*
X67749Y-23974D01*
X68079Y-23974D01*
X68383Y-24101D01*
X68616Y-24334D01*
X68742Y-24639D01*
X68742Y-24969D01*
X68738Y-24976D01*
X68748Y-24973D01*
X69071Y-24978D01*
X69368Y-25106D01*
X69420Y-25237D01*
X68897Y-25760D01*
X68869Y-25788D01*
X68346Y-26311D01*
X68346Y-27211D01*
X68656Y-27522D01*
X69046Y-27522D01*
X69046Y-26603D01*
X68723Y-26598D01*
X68426Y-26470D01*
X68374Y-26339D01*
X68897Y-25816D01*
X69420Y-26339D01*
X69368Y-26470D01*
X69347Y-26484D01*
X69046Y-26603D01*
X69046Y-27522D01*
X69448Y-27522D01*
X69448Y-26311D01*
X68925Y-25788D01*
X69448Y-25265D01*
X69579Y-25317D01*
X69593Y-25338D01*
X69712Y-25639D01*
X69707Y-25962D01*
X69579Y-26259D01*
X69448Y-26311D01*
X69448Y-27522D01*
X69743Y-27522D01*
X69743Y-21737D01*
X69487Y-21630D01*
X69389Y-21532D01*
X69292Y-21631D01*
X69036Y-21737D01*
X68759Y-21737D01*
X68503Y-21630D01*
X68307Y-21434D01*
X68201Y-21178D01*
X68201Y-20553D01*
X68308Y-20297D01*
X68504Y-20101D01*
X68760Y-19995D01*
X69037Y-19995D01*
X69293Y-20102D01*
X69389Y-20199D01*
X69488Y-20101D01*
X69744Y-19995D01*
X70021Y-19995D01*
X70277Y-20102D01*
X70473Y-20298D01*
X70579Y-20554D01*
X70579Y-21179D01*
X70472Y-21435D01*
X70276Y-21631D01*
X70020Y-21737D01*
X69743Y-21737D01*
X69743Y-27522D01*
X70510Y-27522D01*
X70396Y-27474D01*
X70163Y-27241D01*
X70037Y-26936D01*
X70037Y-26606D01*
X70164Y-26302D01*
X70397Y-26069D01*
X70702Y-25943D01*
X70779Y-25943D01*
X70634Y-25798D01*
X70563Y-25692D01*
X70538Y-25566D01*
X70538Y-25564D01*
X70396Y-25505D01*
X70163Y-25272D01*
X70037Y-24967D01*
X70037Y-24637D01*
X70164Y-24333D01*
X70397Y-24100D01*
X70702Y-23974D01*
X71032Y-23974D01*
X71336Y-24101D01*
X71569Y-24334D01*
X71695Y-24639D01*
X71695Y-24969D01*
X71568Y-25273D01*
X71335Y-25506D01*
X71289Y-25525D01*
X72499Y-26735D01*
X72507Y-26729D01*
X72507Y-26549D01*
X72365Y-26490D01*
X72132Y-26257D01*
X72006Y-25952D01*
X72006Y-25622D01*
X72133Y-25318D01*
X72366Y-25085D01*
X72671Y-24959D01*
X72696Y-24959D01*
X72696Y-21737D01*
X72440Y-21630D01*
X72342Y-21533D01*
X72245Y-21631D01*
X71989Y-21737D01*
X71712Y-21737D01*
X71456Y-21630D01*
X71260Y-21434D01*
X71154Y-21178D01*
X71154Y-20553D01*
X71261Y-20297D01*
X71457Y-20101D01*
X71713Y-19995D01*
X71990Y-19995D01*
X72246Y-20102D01*
X72342Y-20198D01*
X72441Y-20101D01*
X72697Y-19995D01*
X72974Y-19995D01*
X73230Y-20102D01*
X73426Y-20298D01*
X73532Y-20554D01*
X73532Y-21179D01*
X73425Y-21435D01*
X73229Y-21631D01*
X72973Y-21737D01*
X72696Y-21737D01*
X72696Y-24959D01*
X72989Y-24959D01*
X72989Y-24637D01*
X73116Y-24333D01*
X73349Y-24100D01*
X73654Y-23974D01*
X73984Y-23974D01*
X74288Y-24101D01*
X74521Y-24334D01*
X74647Y-24639D01*
X74647Y-24969D01*
X74520Y-25273D01*
X74287Y-25506D01*
X74146Y-25564D01*
X74146Y-26182D01*
X74121Y-26308D01*
X74050Y-26414D01*
X73228Y-27236D01*
X73228Y-29375D01*
X73325Y-29279D01*
X73774Y-29093D01*
X74260Y-29093D01*
X74709Y-29280D01*
X74872Y-29443D01*
X74872Y-28997D01*
X74764Y-28952D01*
X74647Y-28835D01*
X74584Y-28682D01*
X74584Y-28517D01*
X74648Y-28364D01*
X74765Y-28247D01*
X74918Y-28184D01*
X75083Y-28184D01*
X75236Y-28248D01*
X75353Y-28365D01*
X75416Y-28518D01*
X75416Y-28552D01*
X75432Y-28568D01*
X75503Y-28674D01*
X75528Y-28799D01*
X75527Y-28799D01*
X75528Y-28800D01*
X75528Y-32600D01*
X75503Y-32726D01*
X75432Y-32832D01*
X74616Y-33648D01*
X74616Y-33683D01*
X74552Y-33836D01*
X74435Y-33953D01*
X74328Y-33996D01*
X74463Y-34087D01*
X74799Y-34424D01*
X75462Y-33762D01*
X75617Y-33658D01*
X75800Y-33622D01*
X76717Y-33622D01*
X76717Y-25474D01*
X76253Y-25281D01*
X75899Y-24926D01*
X75707Y-24462D01*
X75707Y-23960D01*
X75900Y-23496D01*
X76255Y-23142D01*
X76719Y-22950D01*
X77221Y-22950D01*
X77685Y-23143D01*
X78039Y-23498D01*
X78231Y-23962D01*
X78231Y-24464D01*
X78038Y-24928D01*
X77683Y-25282D01*
X77219Y-25474D01*
X76717Y-25474D01*
X76717Y-33622D01*
X77500Y-33622D01*
X77683Y-33658D01*
X77838Y-33762D01*
X77942Y-33917D01*
X77978Y-34100D01*
X77942Y-34283D01*
X77838Y-34438D01*
X77683Y-34542D01*
X77500Y-34578D01*
X75997Y-34578D01*
X75138Y-35438D01*
X75137Y-35438D01*
X75137Y-35439D01*
X73303Y-37272D01*
X73440Y-37272D01*
X73465Y-37247D01*
X73618Y-37184D01*
X73783Y-37184D01*
X73936Y-37248D01*
X74053Y-37365D01*
X74116Y-37518D01*
X74116Y-37683D01*
X74052Y-37836D01*
X73935Y-37953D01*
X73782Y-38016D01*
X73617Y-38016D01*
X73464Y-37952D01*
X73439Y-37928D01*
X65000Y-37928D01*
X64874Y-37903D01*
X64767Y-37831D01*
X64678Y-37742D01*
X64678Y-38714D01*
X66036Y-40072D01*
X67121Y-40072D01*
X67121Y-39909D01*
X67047Y-39835D01*
X66984Y-39682D01*
X66984Y-39517D01*
X67048Y-39364D01*
X67061Y-39350D01*
X67047Y-39335D01*
X66984Y-39182D01*
X66984Y-39017D01*
X67048Y-38864D01*
X67121Y-38791D01*
X67121Y-38621D01*
X67438Y-38621D01*
X67474Y-38597D01*
X67599Y-38572D01*
X70940Y-38572D01*
X70965Y-38547D01*
X71118Y-38484D01*
X71283Y-38484D01*
X71436Y-38548D01*
X71553Y-38665D01*
X71616Y-38818D01*
X71616Y-38983D01*
X71552Y-39136D01*
X71435Y-39253D01*
X71282Y-39316D01*
X71117Y-39316D01*
X71104Y-39310D01*
X71078Y-39373D01*
X71078Y-39672D01*
X71239Y-39672D01*
X71265Y-39647D01*
X71418Y-39584D01*
X71583Y-39584D01*
X71736Y-39648D01*
X71853Y-39765D01*
X71916Y-39918D01*
X71916Y-40083D01*
X71852Y-40236D01*
X71735Y-40353D01*
X71582Y-40416D01*
X71417Y-40416D01*
X71264Y-40352D01*
X71240Y-40328D01*
X71078Y-40328D01*
X71078Y-40378D01*
X71016Y-40378D01*
X71016Y-40483D01*
X70952Y-40636D01*
X70835Y-40753D01*
X70682Y-40816D01*
X70517Y-40816D01*
X70504Y-40810D01*
X70452Y-40936D01*
X70428Y-40960D01*
X70428Y-42400D01*
X70402Y-42526D01*
X70332Y-42632D01*
X70331Y-42632D01*
X70331Y-42633D01*
X69976Y-42988D01*
X70053Y-43065D01*
X70116Y-43218D01*
X70116Y-43383D01*
X70052Y-43536D01*
X69935Y-43653D01*
X69782Y-43716D01*
X69617Y-43716D01*
X69464Y-43652D01*
X69439Y-43628D01*
X63800Y-43628D01*
X63799Y-43627D01*
X63799Y-43628D01*
X63674Y-43603D01*
X63568Y-43532D01*
X63464Y-43428D01*
X62835Y-43428D01*
X62232Y-44032D01*
X62126Y-44103D01*
X62000Y-44128D01*
X61115Y-44128D01*
X61153Y-44165D01*
X61216Y-44318D01*
X61216Y-44483D01*
X61167Y-44599D01*
X61216Y-44718D01*
X61216Y-44822D01*
X62450Y-44822D01*
X62576Y-44847D01*
X62682Y-44918D01*
X63035Y-45272D01*
X66739Y-45272D01*
X66765Y-45247D01*
X66918Y-45184D01*
X67083Y-45184D01*
X67200Y-45232D01*
X67236Y-45248D01*
X67353Y-45365D01*
X67416Y-45518D01*
X67416Y-45683D01*
X67352Y-45836D01*
X67328Y-45860D01*
X67328Y-46264D01*
X67629Y-46565D01*
X67629Y-46321D01*
X67733Y-46072D01*
X67924Y-45882D01*
X68173Y-45779D01*
X68443Y-45779D01*
X68692Y-45883D01*
X68882Y-46074D01*
X68897Y-46111D01*
X68914Y-46072D01*
X69007Y-45978D01*
X68975Y-45947D01*
X68962Y-45938D01*
X68952Y-45924D01*
X68897Y-45869D01*
X68867Y-45796D01*
X68858Y-45783D01*
X68854Y-45766D01*
X68825Y-45694D01*
X68825Y-45615D01*
X68822Y-45600D01*
X68825Y-45584D01*
X68825Y-45505D01*
X68854Y-45434D01*
X68858Y-45417D01*
X68868Y-45401D01*
X68898Y-45331D01*
X68952Y-45275D01*
X68962Y-45262D01*
X68975Y-45252D01*
X69031Y-45197D01*
X69103Y-45167D01*
X69117Y-45158D01*
X69133Y-45154D01*
X69206Y-45125D01*
X69284Y-45125D01*
X69300Y-45122D01*
X73772Y-45122D01*
X73772Y-43741D01*
X73323Y-43554D01*
X72980Y-43210D01*
X72794Y-42761D01*
X72794Y-42275D01*
X72981Y-41826D01*
X73325Y-41483D01*
X73774Y-41297D01*
X74260Y-41297D01*
X74709Y-41484D01*
X75052Y-41828D01*
X75238Y-42277D01*
X75238Y-42763D01*
X75051Y-43212D01*
X74707Y-43555D01*
X74258Y-43741D01*
X73772Y-43741D01*
X73772Y-45122D01*
X75300Y-45122D01*
X75483Y-45158D01*
X75638Y-45262D01*
X75997Y-45622D01*
X76717Y-45622D01*
X76717Y-45160D01*
X76253Y-44967D01*
X75899Y-44612D01*
X75707Y-44148D01*
X75707Y-43646D01*
X75900Y-43182D01*
X76255Y-42828D01*
X76719Y-42636D01*
X77221Y-42636D01*
X77685Y-42829D01*
X78039Y-43184D01*
X78231Y-43648D01*
X78231Y-44150D01*
X78038Y-44614D01*
X77683Y-44968D01*
X77219Y-45160D01*
X76717Y-45160D01*
X76717Y-45622D01*
X77801Y-45622D01*
X78062Y-45362D01*
X78075Y-45352D01*
X78131Y-45297D01*
X78203Y-45267D01*
X78217Y-45258D01*
X78233Y-45254D01*
X78306Y-45225D01*
X78384Y-45225D01*
X78400Y-45222D01*
X78415Y-45225D01*
X78495Y-45225D01*
X78565Y-45254D01*
X78583Y-45258D01*
X78598Y-45268D01*
X78669Y-45298D01*
X78724Y-45352D01*
X78738Y-45362D01*
X78747Y-45375D01*
X78803Y-45431D01*
X78832Y-45503D01*
X78842Y-45517D01*
X78845Y-45533D01*
X78875Y-45606D01*
X78875Y-45684D01*
X78878Y-45700D01*
X78878Y-46100D01*
X78875Y-46115D01*
X78875Y-46195D01*
X78845Y-46265D01*
X78842Y-46283D01*
X78831Y-46298D01*
X78802Y-46369D01*
X78747Y-46424D01*
X78738Y-46438D01*
X78724Y-46447D01*
X78669Y-46503D01*
X78596Y-46532D01*
X78583Y-46542D01*
X78566Y-46545D01*
X78494Y-46575D01*
X78415Y-46575D01*
X78400Y-46578D01*
X76650Y-46578D01*
X76650Y-46961D01*
X76771Y-47082D01*
X76929Y-46926D01*
X77152Y-46834D01*
X77393Y-46834D01*
X77616Y-46927D01*
X77787Y-47098D01*
X77879Y-47321D01*
X77879Y-47562D01*
X77786Y-47785D01*
X77615Y-47956D01*
X77392Y-48048D01*
X77151Y-48048D01*
X76928Y-47955D01*
X76771Y-47798D01*
X76615Y-47956D01*
X76392Y-48048D01*
X76151Y-48048D01*
X75928Y-47955D01*
X75757Y-47784D01*
X75665Y-47561D01*
X75665Y-47320D01*
X75758Y-47097D01*
X75894Y-46961D01*
X75894Y-46578D01*
X75800Y-46578D01*
X75617Y-46542D01*
X75462Y-46438D01*
X75101Y-46078D01*
X72820Y-46078D01*
X72922Y-46323D01*
X72922Y-46593D01*
X72818Y-46842D01*
X72627Y-47032D01*
X72378Y-47135D01*
X72276Y-47135D01*
X72325Y-47343D01*
X72325Y-47421D01*
X71772Y-47421D01*
X71772Y-46943D01*
X71732Y-46903D01*
X71732Y-47421D01*
X71179Y-47421D01*
X71179Y-47343D01*
X71230Y-47125D01*
X71360Y-46943D01*
X71550Y-46825D01*
X71643Y-46800D01*
X71656Y-46808D01*
X71566Y-46591D01*
X71566Y-46321D01*
X71667Y-46078D01*
X70064Y-46078D01*
X70166Y-46323D01*
X70166Y-46593D01*
X70084Y-46788D01*
X70093Y-46788D01*
X70299Y-46874D01*
X70457Y-47032D01*
X70542Y-47239D01*
X70542Y-47645D01*
X70456Y-47851D01*
X70298Y-48009D01*
X70091Y-48094D01*
X69867Y-48094D01*
X69867Y-48383D01*
X71643Y-48383D01*
X71643Y-48082D01*
X71550Y-48057D01*
X71360Y-47939D01*
X71230Y-47757D01*
X71179Y-47539D01*
X71179Y-47461D01*
X71732Y-47461D01*
X71732Y-48023D01*
X71643Y-48082D01*
X71643Y-48383D01*
X71861Y-48383D01*
X71861Y-48082D01*
X71772Y-48023D01*
X71772Y-47461D01*
X72325Y-47461D01*
X72325Y-47539D01*
X72274Y-47757D01*
X72144Y-47939D01*
X71954Y-48057D01*
X71861Y-48082D01*
X71861Y-48383D01*
X74788Y-48383D01*
X74788Y-48048D01*
X74565Y-47955D01*
X74408Y-47798D01*
X74252Y-47956D01*
X74029Y-48048D01*
X73788Y-48048D01*
X73565Y-47955D01*
X73394Y-47784D01*
X73302Y-47561D01*
X73302Y-47320D01*
X73395Y-47097D01*
X73566Y-46926D01*
X73789Y-46834D01*
X74030Y-46834D01*
X74253Y-46927D01*
X74408Y-47083D01*
X74566Y-46926D01*
X74789Y-46834D01*
X75030Y-46834D01*
X75253Y-46927D01*
X75424Y-47098D01*
X75516Y-47321D01*
X75516Y-47562D01*
X75423Y-47785D01*
X75252Y-47956D01*
X75029Y-48048D01*
X74788Y-48048D01*
X74788Y-48383D01*
X78895Y-48383D01*
X78895Y-48383D01*
G37*
G54D39*
X78895Y-48383D02*
X78895Y-19924D01*
X61215Y-19924D01*
X61287Y-20023D01*
X61340Y-20246D01*
X61340Y-20330D01*
X60772Y-20330D01*
X60732Y-20330D01*
X59772Y-20330D01*
X59732Y-20330D01*
X58772Y-20330D01*
X58732Y-20330D01*
X57772Y-20330D01*
X57732Y-20330D01*
X57164Y-20330D01*
X57164Y-20246D01*
X57217Y-20023D01*
X57288Y-19924D01*
X39609Y-19924D01*
X39609Y-48383D01*
X41283Y-48383D01*
X41283Y-45159D01*
X40819Y-44966D01*
X40600Y-44746D01*
X40465Y-44611D01*
X40273Y-44147D01*
X40273Y-43645D01*
X40466Y-43181D01*
X40600Y-43047D01*
X40821Y-42827D01*
X41285Y-42635D01*
X41787Y-42635D01*
X42251Y-42828D01*
X42605Y-43183D01*
X42797Y-43647D01*
X42797Y-44149D01*
X42604Y-44613D01*
X42249Y-44967D01*
X41785Y-45159D01*
X41283Y-45159D01*
X41283Y-48383D01*
X58056Y-48383D01*
X58056Y-48094D01*
X57850Y-48008D01*
X57692Y-47850D01*
X57607Y-47643D01*
X57607Y-47237D01*
X57649Y-47134D01*
X57541Y-47135D01*
X57292Y-47031D01*
X57102Y-46840D01*
X56999Y-46591D01*
X56999Y-46321D01*
X57103Y-46072D01*
X57294Y-45882D01*
X57543Y-45779D01*
X57810Y-45779D01*
X57810Y-45567D01*
X57585Y-45566D01*
X57377Y-45479D01*
X57355Y-45373D01*
X57700Y-45028D01*
X58045Y-45373D01*
X58023Y-45479D01*
X58019Y-45482D01*
X57810Y-45567D01*
X57810Y-45779D01*
X57813Y-45779D01*
X58062Y-45883D01*
X58252Y-46074D01*
X58355Y-46323D01*
X58355Y-46593D01*
X58273Y-46788D01*
X58282Y-46788D01*
X58488Y-46874D01*
X58646Y-47032D01*
X58731Y-47239D01*
X58731Y-47645D01*
X58645Y-47851D01*
X58487Y-48009D01*
X58280Y-48094D01*
X58056Y-48094D01*
X58056Y-48383D01*
X59832Y-48383D01*
X59832Y-48082D01*
X59739Y-48057D01*
X59549Y-47939D01*
X59419Y-47757D01*
X59368Y-47539D01*
X59368Y-47461D01*
X59921Y-47461D01*
X59921Y-48023D01*
X59832Y-48082D01*
X59832Y-48383D01*
X60050Y-48383D01*
X60050Y-48082D01*
X59961Y-48023D01*
X59961Y-47461D01*
X60514Y-47461D01*
X60514Y-47539D01*
X60463Y-47757D01*
X60333Y-47939D01*
X60143Y-48057D01*
X60050Y-48082D01*
X60050Y-48383D01*
X63769Y-48383D01*
X63769Y-48082D01*
X63676Y-48057D01*
X63486Y-47939D01*
X63356Y-47757D01*
X63305Y-47539D01*
X63305Y-47461D01*
X63858Y-47461D01*
X63858Y-48023D01*
X63769Y-48082D01*
X63769Y-48383D01*
X63987Y-48383D01*
X63987Y-48082D01*
X63898Y-48023D01*
X63898Y-47461D01*
X64451Y-47461D01*
X64451Y-47539D01*
X64400Y-47757D01*
X64270Y-47939D01*
X64080Y-48057D01*
X63987Y-48082D01*
X63987Y-48383D01*
X67706Y-48383D01*
X67706Y-48082D01*
X67613Y-48057D01*
X67423Y-47939D01*
X67293Y-47757D01*
X67242Y-47539D01*
X67242Y-47461D01*
X67795Y-47461D01*
X67795Y-48023D01*
X67706Y-48082D01*
X67706Y-48383D01*
X69867Y-48383D01*
X69867Y-48094D01*
X69661Y-48008D01*
X69503Y-47850D01*
X69469Y-47769D01*
X68541Y-47769D01*
X68415Y-47744D01*
X68350Y-47700D01*
X68337Y-47757D01*
X68207Y-47939D01*
X68017Y-48057D01*
X67924Y-48082D01*
X67835Y-48023D01*
X67835Y-47461D01*
X67835Y-47421D01*
X67795Y-47421D01*
X67242Y-47421D01*
X67242Y-47343D01*
X67288Y-47145D01*
X67268Y-47132D01*
X66768Y-46632D01*
X66728Y-46572D01*
X66728Y-47000D01*
X66702Y-47125D01*
X66632Y-47232D01*
X66631Y-47232D01*
X66631Y-47233D01*
X66605Y-47259D01*
X66605Y-47645D01*
X66519Y-47851D01*
X66361Y-48009D01*
X66154Y-48094D01*
X65930Y-48094D01*
X65724Y-48008D01*
X65566Y-47850D01*
X65481Y-47643D01*
X65481Y-47237D01*
X65523Y-47134D01*
X65415Y-47135D01*
X65166Y-47031D01*
X64976Y-46840D01*
X64960Y-46802D01*
X64944Y-46842D01*
X64753Y-47032D01*
X64504Y-47135D01*
X64402Y-47135D01*
X64451Y-47343D01*
X64451Y-47421D01*
X63898Y-47421D01*
X63858Y-47421D01*
X63305Y-47421D01*
X63305Y-47343D01*
X63356Y-47125D01*
X63486Y-46943D01*
X63676Y-46825D01*
X63769Y-46800D01*
X63782Y-46808D01*
X63692Y-46591D01*
X63692Y-46321D01*
X63772Y-46128D01*
X62800Y-46128D01*
X62767Y-46121D01*
X62803Y-46174D01*
X62828Y-46300D01*
X62828Y-47100D01*
X62803Y-47226D01*
X62732Y-47332D01*
X62668Y-47396D01*
X62668Y-47645D01*
X62582Y-47851D01*
X62424Y-48009D01*
X62217Y-48094D01*
X61993Y-48094D01*
X61787Y-48008D01*
X61629Y-47850D01*
X61544Y-47643D01*
X61544Y-47237D01*
X61586Y-47134D01*
X61478Y-47135D01*
X61229Y-47031D01*
X61039Y-46840D01*
X61023Y-46802D01*
X61007Y-46842D01*
X60816Y-47032D01*
X60600Y-47121D01*
X60567Y-47135D01*
X60465Y-47135D01*
X60514Y-47343D01*
X60514Y-47421D01*
X59961Y-47421D01*
X59921Y-47421D01*
X59368Y-47421D01*
X59368Y-47343D01*
X59419Y-47125D01*
X59549Y-46943D01*
X59739Y-46825D01*
X59832Y-46800D01*
X59845Y-46808D01*
X59755Y-46591D01*
X59755Y-46321D01*
X59859Y-46072D01*
X60045Y-45886D01*
X59964Y-45852D01*
X59847Y-45735D01*
X59839Y-45716D01*
X59717Y-45716D01*
X59564Y-45652D01*
X59447Y-45535D01*
X59384Y-45382D01*
X59384Y-45217D01*
X59421Y-45128D01*
X59272Y-45128D01*
X59189Y-45328D01*
X59027Y-45490D01*
X58814Y-45578D01*
X58584Y-45578D01*
X58372Y-45489D01*
X58210Y-45327D01*
X58193Y-45287D01*
X58179Y-45323D01*
X58073Y-45345D01*
X57728Y-45000D01*
X57700Y-44972D01*
X57672Y-45000D01*
X57327Y-45345D01*
X57278Y-45334D01*
X57278Y-45356D01*
X57235Y-45458D01*
X57157Y-45536D01*
X57055Y-45578D01*
X56344Y-45578D01*
X56242Y-45535D01*
X56164Y-45457D01*
X56122Y-45355D01*
X56122Y-44644D01*
X56165Y-44542D01*
X56243Y-44464D01*
X56345Y-44422D01*
X56431Y-44422D01*
X56468Y-44368D01*
X56667Y-44169D01*
X56667Y-44168D01*
X56668Y-44168D01*
X56774Y-44097D01*
X56899Y-44072D01*
X58127Y-44072D01*
X58068Y-44032D01*
X58063Y-44028D01*
X50000Y-44028D01*
X49874Y-44003D01*
X49768Y-43932D01*
X47363Y-41528D01*
X45223Y-41528D01*
X45524Y-41829D01*
X45710Y-42278D01*
X45710Y-42764D01*
X45523Y-43213D01*
X45179Y-43556D01*
X44730Y-43742D01*
X44244Y-43742D01*
X43795Y-43555D01*
X43452Y-43211D01*
X43266Y-42762D01*
X43266Y-42276D01*
X43453Y-41827D01*
X43752Y-41528D01*
X42000Y-41528D01*
X41874Y-41503D01*
X41768Y-41432D01*
X40906Y-40570D01*
X40723Y-40570D01*
X40600Y-40518D01*
X40511Y-40481D01*
X40349Y-40319D01*
X40261Y-40106D01*
X40261Y-39876D01*
X40350Y-39664D01*
X40512Y-39502D01*
X40536Y-39491D01*
X40511Y-39481D01*
X40349Y-39319D01*
X40261Y-39106D01*
X40261Y-38876D01*
X40350Y-38664D01*
X40512Y-38502D01*
X40536Y-38491D01*
X40511Y-38481D01*
X40349Y-38319D01*
X40261Y-38106D01*
X40261Y-37876D01*
X40350Y-37664D01*
X40512Y-37502D01*
X40536Y-37491D01*
X40511Y-37481D01*
X40349Y-37319D01*
X40261Y-37106D01*
X40261Y-36876D01*
X40350Y-36664D01*
X40455Y-36558D01*
X40381Y-36527D01*
X40303Y-36449D01*
X40261Y-36347D01*
X40261Y-35636D01*
X40304Y-35534D01*
X40382Y-35456D01*
X40484Y-35414D01*
X40600Y-35414D01*
X40600Y-34089D01*
X40380Y-34089D01*
X40380Y-29991D01*
X41283Y-29991D01*
X41283Y-25474D01*
X40819Y-25281D01*
X40465Y-24926D01*
X40273Y-24462D01*
X40273Y-23960D01*
X40466Y-23496D01*
X40821Y-23142D01*
X41285Y-22950D01*
X41787Y-22950D01*
X42251Y-23143D01*
X42605Y-23498D01*
X42797Y-23962D01*
X42797Y-24464D01*
X42604Y-24928D01*
X42249Y-25282D01*
X41785Y-25474D01*
X41283Y-25474D01*
X41283Y-29991D01*
X42140Y-29991D01*
X42140Y-34089D01*
X40600Y-34089D01*
X40600Y-35414D01*
X41195Y-35414D01*
X41297Y-35457D01*
X41375Y-35535D01*
X41405Y-35608D01*
X41512Y-35502D01*
X41725Y-35414D01*
X41955Y-35414D01*
X42167Y-35503D01*
X42329Y-35665D01*
X42417Y-35878D01*
X42417Y-36108D01*
X42328Y-36320D01*
X42166Y-36482D01*
X42126Y-36498D01*
X42162Y-36513D01*
X42184Y-36619D01*
X41839Y-36964D01*
X41811Y-36992D01*
X41839Y-37020D01*
X41867Y-36992D01*
X42212Y-36647D01*
X42318Y-36669D01*
X42321Y-36673D01*
X42406Y-36882D01*
X42405Y-37107D01*
X42358Y-37218D01*
X42432Y-37268D01*
X44579Y-39414D01*
X44579Y-37660D01*
X44382Y-37579D01*
X44232Y-37428D01*
X44151Y-37232D01*
X44151Y-37020D01*
X44232Y-36823D01*
X44383Y-36673D01*
X44579Y-36592D01*
X44791Y-36592D01*
X44988Y-36673D01*
X45138Y-36824D01*
X45219Y-37020D01*
X45219Y-37232D01*
X45138Y-37429D01*
X44987Y-37579D01*
X44791Y-37660D01*
X44579Y-37660D01*
X44579Y-39414D01*
X45436Y-40272D01*
X47800Y-40272D01*
X47926Y-40297D01*
X48032Y-40368D01*
X50435Y-42771D01*
X54121Y-42772D01*
X54121Y-42375D01*
X54064Y-42352D01*
X53947Y-42235D01*
X53884Y-42082D01*
X53884Y-41917D01*
X53948Y-41764D01*
X54065Y-41647D01*
X54218Y-41584D01*
X54339Y-41584D01*
X54400Y-41572D01*
X59727Y-41572D01*
X59668Y-41532D01*
X59665Y-41528D01*
X59268Y-41132D01*
X59197Y-41026D01*
X59172Y-40900D01*
X59172Y-38316D01*
X59160Y-38316D01*
X59100Y-38328D01*
X56578Y-38328D01*
X56616Y-38418D01*
X56616Y-38583D01*
X56552Y-38736D01*
X56435Y-38853D01*
X56282Y-38916D01*
X56247Y-38916D01*
X55732Y-39432D01*
X55626Y-39503D01*
X55500Y-39528D01*
X48200Y-39528D01*
X48074Y-39503D01*
X47968Y-39432D01*
X46700Y-38164D01*
X44351Y-35816D01*
X44317Y-35816D01*
X44164Y-35752D01*
X44047Y-35635D01*
X43984Y-35482D01*
X43984Y-35317D01*
X44048Y-35164D01*
X44165Y-35047D01*
X44244Y-35014D01*
X44244Y-31537D01*
X43795Y-31350D01*
X43452Y-31006D01*
X43266Y-30557D01*
X43266Y-30071D01*
X43453Y-29622D01*
X43797Y-29279D01*
X44163Y-29127D01*
X44246Y-29093D01*
X44732Y-29093D01*
X45181Y-29280D01*
X45496Y-29595D01*
X45524Y-29624D01*
X45710Y-30073D01*
X45710Y-30559D01*
X45523Y-31008D01*
X45179Y-31351D01*
X44730Y-31537D01*
X44244Y-31537D01*
X44244Y-35014D01*
X44318Y-34984D01*
X44483Y-34984D01*
X44636Y-35048D01*
X44649Y-35061D01*
X44665Y-35047D01*
X44818Y-34984D01*
X44983Y-34984D01*
X45136Y-35048D01*
X45253Y-35165D01*
X45316Y-35318D01*
X45316Y-35483D01*
X45295Y-35531D01*
X46700Y-36936D01*
X48435Y-38672D01*
X55064Y-38672D01*
X55408Y-38327D01*
X52600Y-38328D01*
X52599Y-38327D01*
X52599Y-38328D01*
X52474Y-38303D01*
X52368Y-38232D01*
X52365Y-38228D01*
X50768Y-36632D01*
X50697Y-36526D01*
X50672Y-36400D01*
X50672Y-35660D01*
X50647Y-35635D01*
X50584Y-35482D01*
X50584Y-35317D01*
X50648Y-35164D01*
X50684Y-35128D01*
X49399Y-35128D01*
X49403Y-35131D01*
X49432Y-35203D01*
X49442Y-35217D01*
X49445Y-35233D01*
X49475Y-35306D01*
X49475Y-35384D01*
X49478Y-35400D01*
X49475Y-35415D01*
X49475Y-35495D01*
X49445Y-35564D01*
X49442Y-35584D01*
X49430Y-35600D01*
X49402Y-35669D01*
X49347Y-35723D01*
X49338Y-35738D01*
X48738Y-36338D01*
X48583Y-36442D01*
X48400Y-36478D01*
X47400Y-36478D01*
X47217Y-36442D01*
X47061Y-36337D01*
X46354Y-35630D01*
X46352Y-35636D01*
X46235Y-35753D01*
X46082Y-35816D01*
X45917Y-35816D01*
X45764Y-35752D01*
X45647Y-35635D01*
X45584Y-35482D01*
X45584Y-35317D01*
X45648Y-35164D01*
X45672Y-35140D01*
X45672Y-34800D01*
X45697Y-34674D01*
X45768Y-34568D01*
X45967Y-34369D01*
X45967Y-34368D01*
X45968Y-34368D01*
X46074Y-34297D01*
X46199Y-34272D01*
X50917Y-34272D01*
X50917Y-32916D01*
X50764Y-32852D01*
X50647Y-32735D01*
X50584Y-32582D01*
X50584Y-32417D01*
X50648Y-32264D01*
X50765Y-32147D01*
X50918Y-32084D01*
X51083Y-32084D01*
X51236Y-32148D01*
X51353Y-32265D01*
X51416Y-32418D01*
X51416Y-32583D01*
X51352Y-32736D01*
X51235Y-32853D01*
X51082Y-32916D01*
X50917Y-32916D01*
X50917Y-34272D01*
X54600Y-34272D01*
X54726Y-34297D01*
X54832Y-34368D01*
X55635Y-35172D01*
X56421Y-35172D01*
X56384Y-35082D01*
X56384Y-34917D01*
X56448Y-34764D01*
X56565Y-34647D01*
X56718Y-34584D01*
X56739Y-34584D01*
X56748Y-34564D01*
X56865Y-34447D01*
X57018Y-34384D01*
X57039Y-34384D01*
X57048Y-34364D01*
X57165Y-34247D01*
X57318Y-34184D01*
X57339Y-34184D01*
X57348Y-34164D01*
X57465Y-34047D01*
X57618Y-33984D01*
X57783Y-33984D01*
X57936Y-34048D01*
X58053Y-34165D01*
X58097Y-34271D01*
X59300Y-34272D01*
X59345Y-34281D01*
X59358Y-34217D01*
X59462Y-34062D01*
X59483Y-34047D01*
X59064Y-33628D01*
X57469Y-33628D01*
X57444Y-33653D01*
X57291Y-33716D01*
X57126Y-33716D01*
X56973Y-33652D01*
X56856Y-33535D01*
X56793Y-33382D01*
X56793Y-33328D01*
X54159Y-33328D01*
X54135Y-33353D01*
X53982Y-33416D01*
X53817Y-33416D01*
X53664Y-33352D01*
X53547Y-33235D01*
X53484Y-33082D01*
X53484Y-32917D01*
X53548Y-32764D01*
X53665Y-32647D01*
X53818Y-32584D01*
X53826Y-32584D01*
X53784Y-32482D01*
X53784Y-32428D01*
X53559Y-32428D01*
X53535Y-32453D01*
X53382Y-32516D01*
X53217Y-32516D01*
X53064Y-32452D01*
X52947Y-32335D01*
X52884Y-32182D01*
X52884Y-32078D01*
X46400Y-32078D01*
X46217Y-32042D01*
X46062Y-31938D01*
X45958Y-31783D01*
X45922Y-31600D01*
X45958Y-31417D01*
X46062Y-31262D01*
X46217Y-31158D01*
X46400Y-31122D01*
X46621Y-31122D01*
X46621Y-30949D01*
X46422Y-30949D01*
X46320Y-30907D01*
X46242Y-30829D01*
X46199Y-30727D01*
X46199Y-30406D01*
X46268Y-30337D01*
X46621Y-30337D01*
X46621Y-30297D01*
X46268Y-30297D01*
X46199Y-30228D01*
X46199Y-29907D01*
X46242Y-29805D01*
X46320Y-29727D01*
X46422Y-29685D01*
X46663Y-29685D01*
X46732Y-29754D01*
X46732Y-30221D01*
X46772Y-30221D01*
X46772Y-29754D01*
X46775Y-29751D01*
X46775Y-24903D01*
X46420Y-24755D01*
X46149Y-24483D01*
X46002Y-24128D01*
X46002Y-23918D01*
X45840Y-23982D01*
X45496Y-23976D01*
X45463Y-23976D01*
X45337Y-23921D01*
X45337Y-24126D01*
X45192Y-24475D01*
X44925Y-24742D01*
X44576Y-24886D01*
X44163Y-24886D01*
X43814Y-24741D01*
X43547Y-24474D01*
X43403Y-24125D01*
X43403Y-23748D01*
X43548Y-23399D01*
X43815Y-23132D01*
X44164Y-22988D01*
X44577Y-22988D01*
X44721Y-23048D01*
X44725Y-22826D01*
X44876Y-22480D01*
X45021Y-22412D01*
X45640Y-23032D01*
X45669Y-23060D01*
X45669Y-23004D01*
X45049Y-22384D01*
X45117Y-22239D01*
X45148Y-22220D01*
X45197Y-22200D01*
X45177Y-22192D01*
X44933Y-21948D01*
X44891Y-21848D01*
X44814Y-21926D01*
X44423Y-22088D01*
X44000Y-22088D01*
X43609Y-21926D01*
X43310Y-21626D01*
X43148Y-21235D01*
X43148Y-20812D01*
X43310Y-20421D01*
X43610Y-20122D01*
X44001Y-19960D01*
X44424Y-19960D01*
X44815Y-20122D01*
X45114Y-20422D01*
X45229Y-20699D01*
X45497Y-20589D01*
X45842Y-20589D01*
X46108Y-20700D01*
X46224Y-20421D01*
X46524Y-20122D01*
X46915Y-19960D01*
X47338Y-19960D01*
X47729Y-20122D01*
X48028Y-20422D01*
X48190Y-20813D01*
X48190Y-21236D01*
X48028Y-21627D01*
X47728Y-21926D01*
X47337Y-22088D01*
X46914Y-22088D01*
X46523Y-21926D01*
X46445Y-21848D01*
X46404Y-21949D01*
X46160Y-22193D01*
X46137Y-22202D01*
X46221Y-22239D01*
X46289Y-22384D01*
X45669Y-23004D01*
X45669Y-23060D01*
X45697Y-23032D01*
X46317Y-22412D01*
X46462Y-22480D01*
X46481Y-22511D01*
X46619Y-22861D01*
X46616Y-23037D01*
X46777Y-22971D01*
X47161Y-22971D01*
X47516Y-23119D01*
X47787Y-23391D01*
X47934Y-23746D01*
X47934Y-24130D01*
X47786Y-24485D01*
X47514Y-24756D01*
X47159Y-24903D01*
X46775Y-24903D01*
X46775Y-29751D01*
X46841Y-29685D01*
X47082Y-29685D01*
X47184Y-29727D01*
X47235Y-29778D01*
X47235Y-29687D01*
X47271Y-29504D01*
X47375Y-29349D01*
X48562Y-28162D01*
X48717Y-28058D01*
X48900Y-28022D01*
X50200Y-28022D01*
X50215Y-28025D01*
X50295Y-28025D01*
X50365Y-28054D01*
X50383Y-28058D01*
X50398Y-28068D01*
X50469Y-28098D01*
X50493Y-28122D01*
X50621Y-28122D01*
X50621Y-25521D01*
X51036Y-25520D01*
X51095Y-25497D01*
X51325Y-25497D01*
X51382Y-25520D01*
X52069Y-25520D01*
X52099Y-25508D01*
X52324Y-25509D01*
X52350Y-25520D01*
X53036Y-25520D01*
X53095Y-25497D01*
X53325Y-25497D01*
X53382Y-25520D01*
X54069Y-25520D01*
X54099Y-25508D01*
X54324Y-25509D01*
X54350Y-25520D01*
X55036Y-25520D01*
X55095Y-25497D01*
X55325Y-25497D01*
X55382Y-25520D01*
X56069Y-25520D01*
X56099Y-25508D01*
X56324Y-25509D01*
X56350Y-25520D01*
X57036Y-25520D01*
X57095Y-25497D01*
X57325Y-25497D01*
X57382Y-25520D01*
X58067Y-25520D01*
X58099Y-25508D01*
X58324Y-25509D01*
X58338Y-25515D01*
X58284Y-25382D01*
X58284Y-25347D01*
X57520Y-24584D01*
X57449Y-24478D01*
X57424Y-24352D01*
X57424Y-23933D01*
X57263Y-23772D01*
X57175Y-23560D01*
X57175Y-23139D01*
X57263Y-22927D01*
X57426Y-22765D01*
X57638Y-22677D01*
X57640Y-22677D01*
X57640Y-21010D01*
X57546Y-20984D01*
X57351Y-20863D01*
X57217Y-20677D01*
X57164Y-20454D01*
X57164Y-20370D01*
X57732Y-20370D01*
X57732Y-20951D01*
X57640Y-21010D01*
X57640Y-22677D01*
X57867Y-22677D01*
X58079Y-22765D01*
X58241Y-22928D01*
X58251Y-22954D01*
X58263Y-22927D01*
X58426Y-22765D01*
X58638Y-22677D01*
X58640Y-22677D01*
X58640Y-21010D01*
X58546Y-20984D01*
X58351Y-20863D01*
X58252Y-20725D01*
X58153Y-20863D01*
X57958Y-20984D01*
X57864Y-21010D01*
X57772Y-20951D01*
X57772Y-20370D01*
X58732Y-20370D01*
X58732Y-20951D01*
X58640Y-21010D01*
X58640Y-22677D01*
X58867Y-22677D01*
X59079Y-22765D01*
X59241Y-22928D01*
X59251Y-22953D01*
X59263Y-22927D01*
X59426Y-22765D01*
X59638Y-22677D01*
X59640Y-22677D01*
X59640Y-21010D01*
X59546Y-20984D01*
X59351Y-20863D01*
X59251Y-20725D01*
X59153Y-20863D01*
X58958Y-20984D01*
X58864Y-21010D01*
X58772Y-20951D01*
X58772Y-20370D01*
X59732Y-20370D01*
X59732Y-20951D01*
X59640Y-21010D01*
X59640Y-22677D01*
X59867Y-22677D01*
X60079Y-22765D01*
X60241Y-22928D01*
X60251Y-22954D01*
X60263Y-22927D01*
X60426Y-22765D01*
X60638Y-22677D01*
X60640Y-22677D01*
X60640Y-21010D01*
X60546Y-20984D01*
X60351Y-20863D01*
X60252Y-20725D01*
X60153Y-20863D01*
X59958Y-20984D01*
X59864Y-21010D01*
X59772Y-20951D01*
X59772Y-20370D01*
X60732Y-20370D01*
X60732Y-20951D01*
X60640Y-21010D01*
X60640Y-22677D01*
X60864Y-22677D01*
X60864Y-21010D01*
X60772Y-20951D01*
X60772Y-20370D01*
X61340Y-20370D01*
X61340Y-20454D01*
X61287Y-20677D01*
X61153Y-20863D01*
X60958Y-20984D01*
X60864Y-21010D01*
X60864Y-22677D01*
X60867Y-22677D01*
X61079Y-22765D01*
X61241Y-22928D01*
X61329Y-23140D01*
X61329Y-23561D01*
X61241Y-23773D01*
X61078Y-23935D01*
X60866Y-24023D01*
X60637Y-24023D01*
X60425Y-23935D01*
X60263Y-23772D01*
X60252Y-23746D01*
X60241Y-23773D01*
X60078Y-23935D01*
X59866Y-24023D01*
X59637Y-24023D01*
X59425Y-23935D01*
X59263Y-23772D01*
X59252Y-23746D01*
X59241Y-23773D01*
X59078Y-23935D01*
X58866Y-24023D01*
X58676Y-24022D01*
X58736Y-24048D01*
X58853Y-24165D01*
X58916Y-24318D01*
X58916Y-24483D01*
X58852Y-24636D01*
X58735Y-24753D01*
X58650Y-24787D01*
X58747Y-24884D01*
X58783Y-24884D01*
X58936Y-24948D01*
X59053Y-25065D01*
X59116Y-25218D01*
X59116Y-25383D01*
X59062Y-25510D01*
X59095Y-25497D01*
X59325Y-25497D01*
X59382Y-25520D01*
X60068Y-25520D01*
X60099Y-25508D01*
X60324Y-25509D01*
X60351Y-25520D01*
X60778Y-25521D01*
X60778Y-26939D01*
X60787Y-26961D01*
X60787Y-27191D01*
X60778Y-27212D01*
X60778Y-27472D01*
X61021Y-27472D01*
X60984Y-27382D01*
X60984Y-27217D01*
X61048Y-27064D01*
X61165Y-26947D01*
X61318Y-26884D01*
X61483Y-26884D01*
X61636Y-26948D01*
X61753Y-27065D01*
X61816Y-27218D01*
X61816Y-27383D01*
X61778Y-27472D01*
X66437Y-27472D01*
X65833Y-26867D01*
X65751Y-26745D01*
X65722Y-26600D01*
X65722Y-24910D01*
X65647Y-24835D01*
X65584Y-24682D01*
X65584Y-24517D01*
X65648Y-24364D01*
X65765Y-24247D01*
X65918Y-24184D01*
X66083Y-24184D01*
X66122Y-24200D01*
X66122Y-23856D01*
X66056Y-23790D01*
X65964Y-23752D01*
X65847Y-23635D01*
X65784Y-23482D01*
X65784Y-23317D01*
X65848Y-23164D01*
X65965Y-23047D01*
X66118Y-22984D01*
X66283Y-22984D01*
X66436Y-23048D01*
X66553Y-23165D01*
X66590Y-23256D01*
X66767Y-23433D01*
X66849Y-23555D01*
X66878Y-23700D01*
X66878Y-25384D01*
X66983Y-25384D01*
X67136Y-25448D01*
X67253Y-25565D01*
X67290Y-25656D01*
X67747Y-26112D01*
X68067Y-26432D01*
X68149Y-26555D01*
X68178Y-26700D01*
X68178Y-27043D01*
X68346Y-27211D01*
X68346Y-26311D01*
X68215Y-26259D01*
X68201Y-26238D01*
X68082Y-25937D01*
X68086Y-25627D01*
X68077Y-25632D01*
X67747Y-25632D01*
X67443Y-25505D01*
X67210Y-25272D01*
X67084Y-24967D01*
X67084Y-24637D01*
X67211Y-24333D01*
X67444Y-24100D01*
X67749Y-23974D01*
X68079Y-23974D01*
X68383Y-24101D01*
X68616Y-24334D01*
X68742Y-24639D01*
X68742Y-24969D01*
X68738Y-24976D01*
X68748Y-24973D01*
X69071Y-24978D01*
X69368Y-25106D01*
X69420Y-25237D01*
X68897Y-25760D01*
X68869Y-25788D01*
X68346Y-26311D01*
X68346Y-27211D01*
X68656Y-27522D01*
X69046Y-27522D01*
X69046Y-26603D01*
X68723Y-26598D01*
X68426Y-26470D01*
X68374Y-26339D01*
X68897Y-25816D01*
X69420Y-26339D01*
X69368Y-26470D01*
X69347Y-26484D01*
X69046Y-26603D01*
X69046Y-27522D01*
X69448Y-27522D01*
X69448Y-26311D01*
X68925Y-25788D01*
X69448Y-25265D01*
X69579Y-25317D01*
X69593Y-25338D01*
X69712Y-25639D01*
X69707Y-25962D01*
X69579Y-26259D01*
X69448Y-26311D01*
X69448Y-27522D01*
X69743Y-27522D01*
X69743Y-21737D01*
X69487Y-21630D01*
X69389Y-21532D01*
X69292Y-21631D01*
X69036Y-21737D01*
X68759Y-21737D01*
X68503Y-21630D01*
X68307Y-21434D01*
X68201Y-21178D01*
X68201Y-20553D01*
X68308Y-20297D01*
X68504Y-20101D01*
X68760Y-19995D01*
X69037Y-19995D01*
X69293Y-20102D01*
X69389Y-20199D01*
X69488Y-20101D01*
X69744Y-19995D01*
X70021Y-19995D01*
X70277Y-20102D01*
X70473Y-20298D01*
X70579Y-20554D01*
X70579Y-21179D01*
X70472Y-21435D01*
X70276Y-21631D01*
X70020Y-21737D01*
X69743Y-21737D01*
X69743Y-27522D01*
X70510Y-27522D01*
X70396Y-27474D01*
X70163Y-27241D01*
X70037Y-26936D01*
X70037Y-26606D01*
X70164Y-26302D01*
X70397Y-26069D01*
X70702Y-25943D01*
X70779Y-25943D01*
X70634Y-25798D01*
X70563Y-25692D01*
X70538Y-25566D01*
X70538Y-25564D01*
X70396Y-25505D01*
X70163Y-25272D01*
X70037Y-24967D01*
X70037Y-24637D01*
X70164Y-24333D01*
X70397Y-24100D01*
X70702Y-23974D01*
X71032Y-23974D01*
X71336Y-24101D01*
X71569Y-24334D01*
X71695Y-24639D01*
X71695Y-24969D01*
X71568Y-25273D01*
X71335Y-25506D01*
X71289Y-25525D01*
X72499Y-26735D01*
X72507Y-26729D01*
X72507Y-26549D01*
X72365Y-26490D01*
X72132Y-26257D01*
X72006Y-25952D01*
X72006Y-25622D01*
X72133Y-25318D01*
X72366Y-25085D01*
X72671Y-24959D01*
X72696Y-24959D01*
X72696Y-21737D01*
X72440Y-21630D01*
X72342Y-21533D01*
X72245Y-21631D01*
X71989Y-21737D01*
X71712Y-21737D01*
X71456Y-21630D01*
X71260Y-21434D01*
X71154Y-21178D01*
X71154Y-20553D01*
X71261Y-20297D01*
X71457Y-20101D01*
X71713Y-19995D01*
X71990Y-19995D01*
X72246Y-20102D01*
X72342Y-20198D01*
X72441Y-20101D01*
X72697Y-19995D01*
X72974Y-19995D01*
X73230Y-20102D01*
X73426Y-20298D01*
X73532Y-20554D01*
X73532Y-21179D01*
X73425Y-21435D01*
X73229Y-21631D01*
X72973Y-21737D01*
X72696Y-21737D01*
X72696Y-24959D01*
X72989Y-24959D01*
X72989Y-24637D01*
X73116Y-24333D01*
X73349Y-24100D01*
X73654Y-23974D01*
X73984Y-23974D01*
X74288Y-24101D01*
X74521Y-24334D01*
X74647Y-24639D01*
X74647Y-24969D01*
X74520Y-25273D01*
X74287Y-25506D01*
X74146Y-25564D01*
X74146Y-26182D01*
X74121Y-26308D01*
X74050Y-26414D01*
X73228Y-27236D01*
X73228Y-29375D01*
X73325Y-29279D01*
X73774Y-29093D01*
X74260Y-29093D01*
X74709Y-29280D01*
X74872Y-29443D01*
X74872Y-28997D01*
X74764Y-28952D01*
X74647Y-28835D01*
X74584Y-28682D01*
X74584Y-28517D01*
X74648Y-28364D01*
X74765Y-28247D01*
X74918Y-28184D01*
X75083Y-28184D01*
X75236Y-28248D01*
X75353Y-28365D01*
X75416Y-28518D01*
X75416Y-28552D01*
X75432Y-28568D01*
X75503Y-28674D01*
X75528Y-28799D01*
X75527Y-28799D01*
X75528Y-28800D01*
X75528Y-32600D01*
X75503Y-32726D01*
X75432Y-32832D01*
X74616Y-33648D01*
X74616Y-33683D01*
X74552Y-33836D01*
X74435Y-33953D01*
X74328Y-33996D01*
X74463Y-34087D01*
X74799Y-34424D01*
X75462Y-33762D01*
X75617Y-33658D01*
X75800Y-33622D01*
X76717Y-33622D01*
X76717Y-25474D01*
X76253Y-25281D01*
X75899Y-24926D01*
X75707Y-24462D01*
X75707Y-23960D01*
X75900Y-23496D01*
X76255Y-23142D01*
X76719Y-22950D01*
X77221Y-22950D01*
X77685Y-23143D01*
X78039Y-23498D01*
X78231Y-23962D01*
X78231Y-24464D01*
X78038Y-24928D01*
X77683Y-25282D01*
X77219Y-25474D01*
X76717Y-25474D01*
X76717Y-33622D01*
X77500Y-33622D01*
X77683Y-33658D01*
X77838Y-33762D01*
X77942Y-33917D01*
X77978Y-34100D01*
X77942Y-34283D01*
X77838Y-34438D01*
X77683Y-34542D01*
X77500Y-34578D01*
X75997Y-34578D01*
X75138Y-35438D01*
X75137Y-35438D01*
X75137Y-35439D01*
X73303Y-37272D01*
X73440Y-37272D01*
X73465Y-37247D01*
X73618Y-37184D01*
X73783Y-37184D01*
X73936Y-37248D01*
X74053Y-37365D01*
X74116Y-37518D01*
X74116Y-37683D01*
X74052Y-37836D01*
X73935Y-37953D01*
X73782Y-38016D01*
X73617Y-38016D01*
X73464Y-37952D01*
X73439Y-37928D01*
X65000Y-37928D01*
X64874Y-37903D01*
X64767Y-37831D01*
X64678Y-37742D01*
X64678Y-38714D01*
X66036Y-40072D01*
X67121Y-40072D01*
X67121Y-39909D01*
X67047Y-39835D01*
X66984Y-39682D01*
X66984Y-39517D01*
X67048Y-39364D01*
X67061Y-39350D01*
X67047Y-39335D01*
X66984Y-39182D01*
X66984Y-39017D01*
X67048Y-38864D01*
X67121Y-38791D01*
X67121Y-38621D01*
X67438Y-38621D01*
X67474Y-38597D01*
X67599Y-38572D01*
X70940Y-38572D01*
X70965Y-38547D01*
X71118Y-38484D01*
X71283Y-38484D01*
X71436Y-38548D01*
X71553Y-38665D01*
X71616Y-38818D01*
X71616Y-38983D01*
X71552Y-39136D01*
X71435Y-39253D01*
X71282Y-39316D01*
X71117Y-39316D01*
X71104Y-39310D01*
X71078Y-39373D01*
X71078Y-39672D01*
X71239Y-39672D01*
X71265Y-39647D01*
X71418Y-39584D01*
X71583Y-39584D01*
X71736Y-39648D01*
X71853Y-39765D01*
X71916Y-39918D01*
X71916Y-40083D01*
X71852Y-40236D01*
X71735Y-40353D01*
X71582Y-40416D01*
X71417Y-40416D01*
X71264Y-40352D01*
X71240Y-40328D01*
X71078Y-40328D01*
X71078Y-40378D01*
X71016Y-40378D01*
X71016Y-40483D01*
X70952Y-40636D01*
X70835Y-40753D01*
X70682Y-40816D01*
X70517Y-40816D01*
X70504Y-40810D01*
X70452Y-40936D01*
X70428Y-40960D01*
X70428Y-42400D01*
X70402Y-42526D01*
X70332Y-42632D01*
X70331Y-42632D01*
X70331Y-42633D01*
X69976Y-42988D01*
X70053Y-43065D01*
X70116Y-43218D01*
X70116Y-43383D01*
X70052Y-43536D01*
X69935Y-43653D01*
X69782Y-43716D01*
X69617Y-43716D01*
X69464Y-43652D01*
X69439Y-43628D01*
X63800Y-43628D01*
X63799Y-43627D01*
X63799Y-43628D01*
X63674Y-43603D01*
X63568Y-43532D01*
X63464Y-43428D01*
X62835Y-43428D01*
X62232Y-44032D01*
X62126Y-44103D01*
X62000Y-44128D01*
X61115Y-44128D01*
X61153Y-44165D01*
X61216Y-44318D01*
X61216Y-44483D01*
X61167Y-44599D01*
X61216Y-44718D01*
X61216Y-44822D01*
X62450Y-44822D01*
X62576Y-44847D01*
X62682Y-44918D01*
X63035Y-45272D01*
X66739Y-45272D01*
X66765Y-45247D01*
X66918Y-45184D01*
X67083Y-45184D01*
X67200Y-45232D01*
X67236Y-45248D01*
X67353Y-45365D01*
X67416Y-45518D01*
X67416Y-45683D01*
X67352Y-45836D01*
X67328Y-45860D01*
X67328Y-46264D01*
X67629Y-46565D01*
X67629Y-46321D01*
X67733Y-46072D01*
X67924Y-45882D01*
X68173Y-45779D01*
X68443Y-45779D01*
X68692Y-45883D01*
X68882Y-46074D01*
X68897Y-46111D01*
X68914Y-46072D01*
X69007Y-45978D01*
X68975Y-45947D01*
X68962Y-45938D01*
X68952Y-45924D01*
X68897Y-45869D01*
X68867Y-45796D01*
X68858Y-45783D01*
X68854Y-45766D01*
X68825Y-45694D01*
X68825Y-45615D01*
X68822Y-45600D01*
X68825Y-45584D01*
X68825Y-45505D01*
X68854Y-45434D01*
X68858Y-45417D01*
X68868Y-45401D01*
X68898Y-45331D01*
X68952Y-45275D01*
X68962Y-45262D01*
X68975Y-45252D01*
X69031Y-45197D01*
X69103Y-45167D01*
X69117Y-45158D01*
X69133Y-45154D01*
X69206Y-45125D01*
X69284Y-45125D01*
X69300Y-45122D01*
X73772Y-45122D01*
X73772Y-43741D01*
X73323Y-43554D01*
X72980Y-43210D01*
X72794Y-42761D01*
X72794Y-42275D01*
X72981Y-41826D01*
X73325Y-41483D01*
X73774Y-41297D01*
X74260Y-41297D01*
X74709Y-41484D01*
X75052Y-41828D01*
X75238Y-42277D01*
X75238Y-42763D01*
X75051Y-43212D01*
X74707Y-43555D01*
X74258Y-43741D01*
X73772Y-43741D01*
X73772Y-45122D01*
X75300Y-45122D01*
X75483Y-45158D01*
X75638Y-45262D01*
X75997Y-45622D01*
X76717Y-45622D01*
X76717Y-45160D01*
X76253Y-44967D01*
X75899Y-44612D01*
X75707Y-44148D01*
X75707Y-43646D01*
X75900Y-43182D01*
X76255Y-42828D01*
X76719Y-42636D01*
X77221Y-42636D01*
X77685Y-42829D01*
X78039Y-43184D01*
X78231Y-43648D01*
X78231Y-44150D01*
X78038Y-44614D01*
X77683Y-44968D01*
X77219Y-45160D01*
X76717Y-45160D01*
X76717Y-45622D01*
X77801Y-45622D01*
X78062Y-45362D01*
X78075Y-45352D01*
X78131Y-45297D01*
X78203Y-45267D01*
X78217Y-45258D01*
X78233Y-45254D01*
X78306Y-45225D01*
X78384Y-45225D01*
X78400Y-45222D01*
X78415Y-45225D01*
X78495Y-45225D01*
X78565Y-45254D01*
X78583Y-45258D01*
X78598Y-45268D01*
X78669Y-45298D01*
X78724Y-45352D01*
X78738Y-45362D01*
X78747Y-45375D01*
X78803Y-45431D01*
X78832Y-45503D01*
X78842Y-45517D01*
X78845Y-45533D01*
X78875Y-45606D01*
X78875Y-45684D01*
X78878Y-45700D01*
X78878Y-46100D01*
X78875Y-46115D01*
X78875Y-46195D01*
X78845Y-46265D01*
X78842Y-46283D01*
X78831Y-46298D01*
X78802Y-46369D01*
X78747Y-46424D01*
X78738Y-46438D01*
X78724Y-46447D01*
X78669Y-46503D01*
X78596Y-46532D01*
X78583Y-46542D01*
X78566Y-46545D01*
X78494Y-46575D01*
X78415Y-46575D01*
X78400Y-46578D01*
X76650Y-46578D01*
X76650Y-46961D01*
X76771Y-47082D01*
X76929Y-46926D01*
X77152Y-46834D01*
X77393Y-46834D01*
X77616Y-46927D01*
X77787Y-47098D01*
X77879Y-47321D01*
X77879Y-47562D01*
X77786Y-47785D01*
X77615Y-47956D01*
X77392Y-48048D01*
X77151Y-48048D01*
X76928Y-47955D01*
X76771Y-47798D01*
X76615Y-47956D01*
X76392Y-48048D01*
X76151Y-48048D01*
X75928Y-47955D01*
X75757Y-47784D01*
X75665Y-47561D01*
X75665Y-47320D01*
X75758Y-47097D01*
X75894Y-46961D01*
X75894Y-46578D01*
X75800Y-46578D01*
X75617Y-46542D01*
X75462Y-46438D01*
X75101Y-46078D01*
X72820Y-46078D01*
X72922Y-46323D01*
X72922Y-46593D01*
X72818Y-46842D01*
X72627Y-47032D01*
X72378Y-47135D01*
X72276Y-47135D01*
X72325Y-47343D01*
X72325Y-47421D01*
X71772Y-47421D01*
X71772Y-46943D01*
X71732Y-46903D01*
X71732Y-47421D01*
X71179Y-47421D01*
X71179Y-47343D01*
X71230Y-47125D01*
X71360Y-46943D01*
X71550Y-46825D01*
X71643Y-46800D01*
X71656Y-46808D01*
X71566Y-46591D01*
X71566Y-46321D01*
X71667Y-46078D01*
X70064Y-46078D01*
X70166Y-46323D01*
X70166Y-46593D01*
X70084Y-46788D01*
X70093Y-46788D01*
X70299Y-46874D01*
X70457Y-47032D01*
X70542Y-47239D01*
X70542Y-47645D01*
X70456Y-47851D01*
X70298Y-48009D01*
X70091Y-48094D01*
X69867Y-48094D01*
X69867Y-48383D01*
X71643Y-48383D01*
X71643Y-48082D01*
X71550Y-48057D01*
X71360Y-47939D01*
X71230Y-47757D01*
X71179Y-47539D01*
X71179Y-47461D01*
X71732Y-47461D01*
X71732Y-48023D01*
X71643Y-48082D01*
X71643Y-48383D01*
X71861Y-48383D01*
X71861Y-48082D01*
X71772Y-48023D01*
X71772Y-47461D01*
X72325Y-47461D01*
X72325Y-47539D01*
X72274Y-47757D01*
X72144Y-47939D01*
X71954Y-48057D01*
X71861Y-48082D01*
X71861Y-48383D01*
X74788Y-48383D01*
X74788Y-48048D01*
X74565Y-47955D01*
X74408Y-47798D01*
X74252Y-47956D01*
X74029Y-48048D01*
X73788Y-48048D01*
X73565Y-47955D01*
X73394Y-47784D01*
X73302Y-47561D01*
X73302Y-47320D01*
X73395Y-47097D01*
X73566Y-46926D01*
X73789Y-46834D01*
X74030Y-46834D01*
X74253Y-46927D01*
X74408Y-47083D01*
X74566Y-46926D01*
X74789Y-46834D01*
X75030Y-46834D01*
X75253Y-46927D01*
X75424Y-47098D01*
X75516Y-47321D01*
X75516Y-47562D01*
X75423Y-47785D01*
X75252Y-47956D01*
X75029Y-48048D01*
X74788Y-48048D01*
X74788Y-48383D01*
X78895Y-48383D01*
G54D10*
G36*
X43107Y-40872D02*
X42386Y-40151D01*
X42318Y-40315D01*
X42212Y-40337D01*
X41867Y-39992D01*
X42030Y-39828D01*
X41975Y-39828D01*
X41839Y-39964D01*
X41811Y-39992D01*
X41646Y-39828D01*
X41646Y-39828D01*
X41811Y-39992D01*
X41533Y-40269D01*
X41533Y-40269D01*
X41811Y-39992D01*
X41839Y-40020D01*
X42184Y-40365D01*
X42162Y-40471D01*
X42158Y-40474D01*
X41949Y-40559D01*
X41822Y-40558D01*
X42136Y-40872D01*
X43107Y-40872D01*
X43107Y-40872D01*
G37*
G54D39*
X43107Y-40872D02*
X42386Y-40151D01*
X42318Y-40315D01*
X42212Y-40337D01*
X41867Y-39992D01*
X42030Y-39828D01*
X41975Y-39828D01*
X41839Y-39964D01*
X41811Y-39992D01*
X41646Y-39828D01*
X41646Y-39828D01*
X41811Y-39992D01*
X41533Y-40269D01*
X41533Y-40269D01*
X41811Y-39992D01*
X41839Y-40020D01*
X42184Y-40365D01*
X42162Y-40471D01*
X42158Y-40474D01*
X41949Y-40559D01*
X41822Y-40558D01*
X42136Y-40872D01*
X43107Y-40872D01*
G54D10*
G36*
X41990Y-39172D02*
X42047Y-39172D01*
X41867Y-38992D01*
X42030Y-38827D01*
X41974Y-38827D01*
X41838Y-38963D01*
X41703Y-38827D01*
X41702Y-38827D01*
X41838Y-38963D01*
X41811Y-38992D01*
X41630Y-39172D01*
X41630Y-39172D01*
X41811Y-38992D01*
X41839Y-39020D01*
X41990Y-39172D01*
X41990Y-39172D01*
G37*
G54D39*
X41990Y-39172D02*
X42047Y-39172D01*
X41867Y-38992D01*
X42030Y-38827D01*
X41974Y-38827D01*
X41838Y-38963D01*
X41703Y-38827D01*
X41702Y-38827D01*
X41838Y-38963D01*
X41811Y-38992D01*
X41630Y-39172D01*
X41630Y-39172D01*
X41811Y-38992D01*
X41839Y-39020D01*
X41990Y-39172D01*
G54D10*
G36*
X41991Y-38172D02*
X42047Y-38172D01*
X41867Y-37992D01*
X41839Y-37964D01*
X41975Y-37828D01*
X41974Y-37828D01*
X41839Y-37964D01*
X41811Y-37992D01*
X41630Y-38172D01*
X41631Y-38172D01*
X41811Y-37992D01*
X41839Y-38020D01*
X41991Y-38172D01*
X41991Y-38172D01*
G37*
G54D39*
X41991Y-38172D02*
X42047Y-38172D01*
X41867Y-37992D01*
X41839Y-37964D01*
X41975Y-37828D01*
X41974Y-37828D01*
X41839Y-37964D01*
X41811Y-37992D01*
X41630Y-38172D01*
X41631Y-38172D01*
X41811Y-37992D01*
X41839Y-38020D01*
X41991Y-38172D01*
G54D10*
G36*
X68884Y-35420D02*
X68884Y-35417D01*
X68948Y-35264D01*
X69065Y-35147D01*
X69218Y-35084D01*
X69251Y-35084D01*
X69368Y-34968D01*
X69474Y-34897D01*
X69600Y-34872D01*
X70884Y-34872D01*
X70884Y-34817D01*
X70948Y-34664D01*
X70972Y-34640D01*
X70972Y-34200D01*
X70997Y-34074D01*
X71068Y-33968D01*
X71319Y-33716D01*
X71217Y-33716D01*
X71064Y-33652D01*
X70947Y-33535D01*
X70884Y-33382D01*
X70884Y-33217D01*
X70948Y-33064D01*
X71061Y-32949D01*
X71047Y-32935D01*
X70984Y-32782D01*
X70984Y-32748D01*
X70868Y-32632D01*
X70797Y-32526D01*
X70772Y-32400D01*
X70772Y-31016D01*
X70717Y-31016D01*
X70626Y-30978D01*
X69974Y-30978D01*
X69882Y-31016D01*
X69717Y-31016D01*
X69700Y-31008D01*
X69626Y-30978D01*
X69621Y-30978D01*
X69621Y-30975D01*
X69564Y-30952D01*
X69447Y-30835D01*
X69384Y-30682D01*
X69384Y-30517D01*
X69422Y-30426D01*
X69422Y-29156D01*
X69344Y-29078D01*
X68200Y-29078D01*
X68055Y-29049D01*
X67932Y-28967D01*
X67916Y-28950D01*
X67916Y-28983D01*
X67867Y-29099D01*
X67916Y-29218D01*
X67916Y-29383D01*
X67852Y-29536D01*
X67735Y-29653D01*
X67582Y-29716D01*
X67417Y-29716D01*
X67264Y-29652D01*
X67147Y-29535D01*
X67084Y-29382D01*
X67084Y-29348D01*
X66863Y-29128D01*
X66203Y-29128D01*
X66638Y-29562D01*
X66742Y-29717D01*
X66778Y-29900D01*
X66778Y-33300D01*
X66754Y-33421D01*
X66815Y-33421D01*
X67167Y-33068D01*
X67274Y-32997D01*
X67400Y-32972D01*
X67839Y-32972D01*
X67865Y-32947D01*
X68018Y-32884D01*
X68183Y-32884D01*
X68336Y-32948D01*
X68453Y-33065D01*
X68516Y-33218D01*
X68516Y-33339D01*
X68536Y-33348D01*
X68653Y-33465D01*
X68716Y-33618D01*
X68716Y-33783D01*
X68652Y-33936D01*
X68535Y-34053D01*
X68382Y-34116D01*
X68217Y-34116D01*
X68064Y-34052D01*
X68039Y-34028D01*
X67935Y-34028D01*
X67391Y-34572D01*
X67900Y-34572D01*
X68026Y-34597D01*
X68132Y-34668D01*
X68884Y-35420D01*
X68884Y-35420D01*
G37*
G54D39*
X68884Y-35420D02*
X68884Y-35417D01*
X68948Y-35264D01*
X69065Y-35147D01*
X69218Y-35084D01*
X69251Y-35084D01*
X69368Y-34968D01*
X69474Y-34897D01*
X69600Y-34872D01*
X70884Y-34872D01*
X70884Y-34817D01*
X70948Y-34664D01*
X70972Y-34640D01*
X70972Y-34200D01*
X70997Y-34074D01*
X71068Y-33968D01*
X71319Y-33716D01*
X71217Y-33716D01*
X71064Y-33652D01*
X70947Y-33535D01*
X70884Y-33382D01*
X70884Y-33217D01*
X70948Y-33064D01*
X71061Y-32949D01*
X71047Y-32935D01*
X70984Y-32782D01*
X70984Y-32748D01*
X70868Y-32632D01*
X70797Y-32526D01*
X70772Y-32400D01*
X70772Y-31016D01*
X70717Y-31016D01*
X70626Y-30978D01*
X69974Y-30978D01*
X69882Y-31016D01*
X69717Y-31016D01*
X69700Y-31008D01*
X69626Y-30978D01*
X69621Y-30978D01*
X69621Y-30975D01*
X69564Y-30952D01*
X69447Y-30835D01*
X69384Y-30682D01*
X69384Y-30517D01*
X69422Y-30426D01*
X69422Y-29156D01*
X69344Y-29078D01*
X68200Y-29078D01*
X68055Y-29049D01*
X67932Y-28967D01*
X67916Y-28950D01*
X67916Y-28983D01*
X67867Y-29099D01*
X67916Y-29218D01*
X67916Y-29383D01*
X67852Y-29536D01*
X67735Y-29653D01*
X67582Y-29716D01*
X67417Y-29716D01*
X67264Y-29652D01*
X67147Y-29535D01*
X67084Y-29382D01*
X67084Y-29348D01*
X66863Y-29128D01*
X66203Y-29128D01*
X66638Y-29562D01*
X66742Y-29717D01*
X66778Y-29900D01*
X66778Y-33300D01*
X66754Y-33421D01*
X66815Y-33421D01*
X67167Y-33068D01*
X67274Y-32997D01*
X67400Y-32972D01*
X67839Y-32972D01*
X67865Y-32947D01*
X68018Y-32884D01*
X68183Y-32884D01*
X68336Y-32948D01*
X68453Y-33065D01*
X68516Y-33218D01*
X68516Y-33339D01*
X68536Y-33348D01*
X68653Y-33465D01*
X68716Y-33618D01*
X68716Y-33783D01*
X68652Y-33936D01*
X68535Y-34053D01*
X68382Y-34116D01*
X68217Y-34116D01*
X68064Y-34052D01*
X68039Y-34028D01*
X67935Y-34028D01*
X67391Y-34572D01*
X67900Y-34572D01*
X68026Y-34597D01*
X68132Y-34668D01*
X68884Y-35420D01*
G54D10*
G36*
X64802Y-34121D02*
X65062Y-33862D01*
X65822Y-33102D01*
X65822Y-31678D01*
X64800Y-31678D01*
X64617Y-31642D01*
X64462Y-31538D01*
X64358Y-31383D01*
X64322Y-31200D01*
X64358Y-31017D01*
X64462Y-30862D01*
X64617Y-30758D01*
X64800Y-30722D01*
X65822Y-30722D01*
X65822Y-30098D01*
X65602Y-29878D01*
X62161Y-29878D01*
X62256Y-30009D01*
X62305Y-30219D01*
X62305Y-30297D01*
X61772Y-30297D01*
X61732Y-30297D01*
X61732Y-30337D01*
X61732Y-30879D01*
X61646Y-30938D01*
X61557Y-30914D01*
X61374Y-30800D01*
X61248Y-30625D01*
X61211Y-30716D01*
X61145Y-30781D01*
X61226Y-30797D01*
X61332Y-30868D01*
X61728Y-31265D01*
X61732Y-31268D01*
X61803Y-31374D01*
X61828Y-31500D01*
X61828Y-31764D01*
X61858Y-31794D01*
X61858Y-30938D01*
X61772Y-30879D01*
X61772Y-30337D01*
X62305Y-30337D01*
X62305Y-30415D01*
X62256Y-30625D01*
X62130Y-30800D01*
X61947Y-30914D01*
X61858Y-30938D01*
X61858Y-31794D01*
X63335Y-33272D01*
X63539Y-33272D01*
X63565Y-33247D01*
X63718Y-33184D01*
X63883Y-33184D01*
X64036Y-33248D01*
X64153Y-33365D01*
X64176Y-33421D01*
X64178Y-33421D01*
X64178Y-33425D01*
X64216Y-33518D01*
X64216Y-33683D01*
X64178Y-33773D01*
X64178Y-33884D01*
X64183Y-33884D01*
X64336Y-33948D01*
X64453Y-34065D01*
X64476Y-34121D01*
X64802Y-34121D01*
X64802Y-34121D01*
G37*
G54D39*
X64802Y-34121D02*
X65062Y-33862D01*
X65822Y-33102D01*
X65822Y-31678D01*
X64800Y-31678D01*
X64617Y-31642D01*
X64462Y-31538D01*
X64358Y-31383D01*
X64322Y-31200D01*
X64358Y-31017D01*
X64462Y-30862D01*
X64617Y-30758D01*
X64800Y-30722D01*
X65822Y-30722D01*
X65822Y-30098D01*
X65602Y-29878D01*
X62161Y-29878D01*
X62256Y-30009D01*
X62305Y-30219D01*
X62305Y-30297D01*
X61772Y-30297D01*
X61732Y-30297D01*
X61732Y-30337D01*
X61732Y-30879D01*
X61646Y-30938D01*
X61557Y-30914D01*
X61374Y-30800D01*
X61248Y-30625D01*
X61211Y-30716D01*
X61145Y-30781D01*
X61226Y-30797D01*
X61332Y-30868D01*
X61728Y-31265D01*
X61732Y-31268D01*
X61803Y-31374D01*
X61828Y-31500D01*
X61828Y-31764D01*
X61858Y-31794D01*
X61858Y-30938D01*
X61772Y-30879D01*
X61772Y-30337D01*
X62305Y-30337D01*
X62305Y-30415D01*
X62256Y-30625D01*
X62130Y-30800D01*
X61947Y-30914D01*
X61858Y-30938D01*
X61858Y-31794D01*
X63335Y-33272D01*
X63539Y-33272D01*
X63565Y-33247D01*
X63718Y-33184D01*
X63883Y-33184D01*
X64036Y-33248D01*
X64153Y-33365D01*
X64176Y-33421D01*
X64178Y-33421D01*
X64178Y-33425D01*
X64216Y-33518D01*
X64216Y-33683D01*
X64178Y-33773D01*
X64178Y-33884D01*
X64183Y-33884D01*
X64336Y-33948D01*
X64453Y-34065D01*
X64476Y-34121D01*
X64802Y-34121D01*
M02*
