M48
;DRILL file {PCBnew (2010-05-05 BZR 2356)-stable} date Di 06 Jul 2010 23:13:39 CEST
;FORMAT={2:3/ absolute / inch / suppress leading zeros}
R,T
VER,1
FMAT,2
INCH,TZ
TCST,OFF
ICI,OFF
ATC,ON
T1C0.016
T2C0.024
T3C0.031
T4C0.032
T5C0.039
T6C0.040
T7C0.043
T8C0.051
T9C0.063
T10C0.079
T11C0.094
T12C0.102
T13C0.118
%
M47
G05
M72
T1
X4000Y-2030
X4000Y-3000
X4000Y-3400
X4000Y-3850
X4000Y-4250
X4000Y-4700
X4090Y-2790
X4100Y-4800
X4150Y-2710
X4170Y-2790
X4250Y-3000
X4250Y-3400
X4440Y-3540
X4490Y-3540
X4500Y-4800
X4600Y-3540
X4630Y-2910
X4640Y-2700
X4640Y-3160
X4700Y-3660
X4700Y-4200
X4720Y-3160
X4800Y-3250
X4800Y-3400
X4800Y-3780
X4810Y-3530
X4900Y-4800
X4960Y-4450
X5000Y-3520
X5060Y-4240
X5100Y-2450
X5100Y-3250
X5100Y-3540
X5200Y-3520
X5300Y-4450
X5300Y-4800
X5330Y-3210
X5380Y-3840
X5380Y-4240
X5390Y-3300
X5420Y-3240
X5430Y-4200
X5440Y-2390
X5450Y-3350
X5460Y-4220
X5490Y-4240
X5540Y-3270
X5540Y-3840
X5544Y-3960
X5544Y-4130
X5550Y-4450
X5580Y-2340
X5590Y-3650
X5590Y-3830
X5620Y-2420
X5620Y-3110
X5620Y-3680
X5620Y-3850
X5680Y-3500
X5680Y-3960
X5680Y-4130
X5700Y-4800
X5710Y-3480
X5721Y-3330
X5740Y-3460
X5760Y-3720
X5770Y-3440
X5810Y-3580
X5840Y-3550
X5850Y-2440
X5870Y-2530
X5890Y-3390
X5890Y-3650
X5890Y-4290
X5900Y-3760
X5906Y-4100
X5910Y-3680
X5920Y-3720
X5920Y-3790
X5980Y-3440
X5980Y-4530
X6010Y-3240
X6020Y-4550
X6040Y-4190
X6060Y-4570
X6080Y-4180
X6080Y-4440
X6080Y-4480
X6110Y-4200
X6120Y-3440
X6140Y-2730
X6140Y-3410
X6180Y-3410
X6190Y-4450
X6200Y-3440
X6200Y-4060
X6230Y-3380
X6240Y-4070
X6260Y-3430
X6280Y-3910
X6280Y-4080
X6290Y-4620
X6300Y-2850
X6300Y-3420
X6300Y-4110
X6320Y-3090
X6320Y-3920
X6350Y-4350
X6350Y-4450
X6360Y-2660
X6380Y-3360
X6380Y-3400
X6390Y-4160
X6390Y-4200
X6400Y-2050
X6400Y-2890
X6410Y-3430
X6420Y-3680
X6440Y-4250
X6480Y-3120
X6490Y-4450
X6500Y-3570
X6510Y-3000
X6580Y-3570
X6580Y-3710
X6590Y-2880
X6600Y-2460
X6620Y-2340
X6620Y-3570
X6630Y-4450
X6635Y-3395
X6640Y-4280
X6660Y-3570
X6660Y-3700
X6670Y-4070
X6680Y-3060
X6680Y-3990
X6690Y-2580
X6700Y-2050
X6700Y-3580
X6700Y-3630
X6700Y-4560
X6740Y-3820
X6740Y-3910
X6740Y-3960
X6750Y-2850
X6750Y-2890
X6750Y-2930
X6760Y-3110
X6760Y-3520
X6770Y-4200
X6780Y-3290
X6790Y-4560
X6810Y-3330
X6810Y-4100
X6830Y-3180
X6830Y-3370
X6860Y-4240
X6920Y-4450
X6930Y-3070
X6930Y-3550
X6970Y-4330
X6980Y-3060
X6980Y-3630
X7000Y-3940
X7010Y-4070
X7030Y-3550
X7040Y-3290
X7060Y-4040
X7060Y-4200
X7070Y-3920
X7080Y-3060
X7080Y-3630
X7120Y-2960
X7120Y-3890
X7130Y-3330
X7130Y-3490
X7130Y-4450
X7140Y-3270
X7150Y-2980
X7150Y-3650
X7150Y-4000
X7180Y-3060
X7180Y-3330
X7210Y-4210
X7230Y-3420
X7260Y-3820
X7300Y-3590
X7330Y-3190
X7330Y-3240
X7370Y-3760
X7410Y-3443
X7420Y-3360
X7500Y-2050
X7500Y-2860
X7560Y-3600
X7580Y-2610
X7590Y-3980
X7590Y-4230
X7610Y-3790
X7640Y-3080
X7750Y-3410
X7750Y-3460
X7760Y-3260
X7850Y-2050
X7850Y-2880
T2
X4000Y-2740
X4000Y-2800
X4300Y-2240
X4320Y-3580
X4320Y-3660
X4480Y-2870
X4640Y-3500
X4800Y-2710
X4830Y-2240
X4900Y-3540
X5020Y-2850
X5040Y-2940
X5080Y-2180
X5260Y-2040
X5400Y-2040
X5540Y-2040
X5550Y-3390
X5630Y-3160
X6050Y-4000
X6070Y-3160
X6110Y-3160
X6200Y-3180
X6500Y-3180
X6530Y-4060
X6540Y-3420
X6890Y-2730
X6930Y-4560
X6970Y-4560
X7840Y-4570
X7840Y-4610
T3
X4675Y-3032
X4775Y-3032
X4875Y-3032
X4975Y-3032
X5075Y-3032
X5175Y-3032
X5275Y-3032
X5375Y-3032
X5475Y-3032
X5575Y-3032
X5675Y-3032
X5775Y-2035
X5775Y-2335
X5775Y-3032
X5875Y-2035
X5875Y-2335
X5875Y-3032
X5975Y-2035
X5975Y-2335
X5975Y-3032
X6075Y-2035
X6075Y-2335
X6075Y-3032
X6175Y-3032
T4
X5121Y-2708
X7391Y-4744
X7491Y-4744
X7627Y-4744
X7727Y-4744
T5
X5817Y-4744
X5994Y-4744
X6211Y-4744
X6388Y-4744
X6604Y-4744
X6782Y-4744
X6998Y-4744
X7175Y-4744
T6
X4084Y-3599
X4084Y-3699
X4084Y-3799
X4084Y-3899
X4084Y-3999
X4184Y-3599
X4184Y-3699
X4184Y-3799
X4184Y-3899
X4184Y-3999
X5121Y-2608
X5221Y-2608
X5221Y-2708
X5321Y-2608
X5321Y-2708
X5421Y-2608
X5421Y-2708
X5521Y-2608
X5521Y-2708
X5621Y-2608
X5621Y-2708
X5670Y-4500
X5721Y-2608
X5721Y-2708
X5770Y-4500
X5821Y-2608
X5821Y-2708
X5870Y-4500
X5921Y-2608
X5921Y-2708
X6021Y-2608
X6021Y-2708
T7
X4468Y-3713
T8
X5768Y-4646
X6043Y-4646
X6161Y-4646
X6437Y-4646
X6555Y-4646
X6791Y-2480
X6831Y-4646
X6890Y-2579
X6890Y-2087
X6949Y-4646
X6988Y-2087
X7087Y-2480
X7087Y-2677
X7185Y-2087
X7224Y-4646
X7283Y-2087
X7283Y-2579
X7382Y-2480
T9
X5295Y-3713
T10
X4567Y-2303
X4697Y-2394
T11
X4421Y-2102
X4567Y-2146
X4713Y-2102
T12
X4449Y-3032
X4449Y-4252
X7402Y-3032
X7402Y-4252
T13
X4154Y-2421
X4154Y-4390
X6262Y-3746
X7697Y-2421
X7697Y-4390
T10
X4437Y-2394G85X4437Y-2394
G05
T0
M30
