EESchema Schematic File Version 2  date Fr 03 Sep 2010 00:17:59 CEST
LIBS:power
LIBS:device
LIBS:transistors
LIBS:conn
LIBS:linear
LIBS:regul
LIBS:74xx
LIBS:cmos4000
LIBS:adc-dac
LIBS:memory
LIBS:xilinx
LIBS:special
LIBS:microcontrollers
LIBS:dsp
LIBS:microchip
LIBS:analog_switches
LIBS:motorola
LIBS:texas
LIBS:intel
LIBS:audio
LIBS:interface
LIBS:digital-audio
LIBS:philips
LIBS:display
LIBS:cypress
LIBS:siliconi
LIBS:opto
LIBS:atmel
LIBS:contrib
LIBS:valves
LIBS:open1541
LIBS:xs1-l1-64lqfp
LIBS:open1541-cache
EELAYER 24  0
EELAYER END
$Descr A3 16535 11700
Sheet 1 1
Title "open1541"
Date "2 sep 2010"
Rev "B"
Comp "skoe"
Comment1 ""
Comment2 ""
Comment3 ""
Comment4 ""
$EndDescr
Text Notes 9300 1675 0    40   ~ 0
Use internal pullup
NoConn ~ 9250 1650
Wire Wire Line
	10450 3150 10200 3150
Wire Wire Line
	10200 3150 10200 2350
Wire Wire Line
	10200 2350 9250 2350
Connection ~ 13350 1950
Wire Wire Line
	13350 1950 13350 1900
Wire Wire Line
	13750 2150 13250 2150
Wire Wire Line
	13750 1950 13250 1950
Wire Wire Line
	3400 2050 3400 2000
Wire Wire Line
	3400 2050 3300 2050
Wire Wire Line
	3300 2050 3300 2000
Wire Wire Line
	2500 2250 2250 2250
Wire Wire Line
	2500 2250 2500 2450
Connection ~ 2400 2650
Wire Wire Line
	2750 1500 2750 1450
Wire Wire Line
	1750 2850 2500 2850
Wire Wire Line
	1850 7400 1200 7400
Wire Wire Line
	1850 7400 1850 7250
Wire Wire Line
	1850 6900 1200 6900
Wire Wire Line
	1850 6900 1850 7050
Wire Wire Line
	9900 7450 9900 7550
Wire Wire Line
	9950 7500 9850 7500
Connection ~ 10700 7500
Wire Wire Line
	10700 7600 10700 7500
Connection ~ 13150 4850
Wire Wire Line
	13050 4850 13050 4800
Connection ~ 14050 4850
Wire Wire Line
	14050 4350 13700 4350
Wire Wire Line
	14050 4350 14050 5100
Connection ~ 14150 4650
Wire Wire Line
	13700 4850 14050 4850
Wire Wire Line
	14050 5100 14300 5100
Connection ~ 2750 1500
Wire Wire Line
	11300 8850 11300 8800
Wire Wire Line
	11450 8700 10750 8700
Wire Wire Line
	11250 7400 11450 7400
Wire Wire Line
	9900 6850 9900 6950
Connection ~ 8900 7500
Wire Wire Line
	8900 7450 8900 7500
Wire Notes Line
	12600 10350 12600 8125
Wire Notes Line
	12600 10350 15850 10350
Wire Notes Line
	15850 10350 15850 8125
Wire Notes Line
	15850 8125 12600 8125
Wire Wire Line
	13600 9050 13600 9025
Wire Notes Line
	850  10675 850  8650
Wire Notes Line
	850  10675 2875 10675
Wire Notes Line
	2875 10675 2875 8650
Wire Notes Line
	2875 8650 850  8650
Wire Wire Line
	13450 6975 14650 6975
Wire Wire Line
	13450 6775 13950 6775
Wire Notes Line
	9775 3700 9800 3700
Wire Notes Line
	9800 3700 9800 4200
Wire Notes Line
	12600 2750 12600 650 
Wire Notes Line
	12600 2750 15850 2750
Wire Notes Line
	15850 2750 15850 650 
Wire Notes Line
	15850 650  12600 650 
Wire Wire Line
	2000 1750 2000 1600
Wire Wire Line
	2000 1600 1900 1600
Wire Wire Line
	1900 1500 2950 1500
Wire Wire Line
	14000 3950 14350 3950
Wire Wire Line
	3600 10475 3600 10325
Wire Wire Line
	3600 10325 4150 10325
Wire Wire Line
	1800 3400 1800 3450
Connection ~ 14800 1450
Wire Wire Line
	14950 1100 14950 1150
Wire Wire Line
	14950 1150 14750 1150
Connection ~ 14800 1350
Wire Wire Line
	14800 1450 14750 1450
Connection ~ 13650 2050
Wire Wire Line
	13950 1550 13650 1550
Wire Wire Line
	13650 1550 13650 2050
Connection ~ 13600 2250
Connection ~ 13550 2150
Wire Wire Line
	13950 1150 13550 1150
Wire Wire Line
	13550 1150 13550 2150
Wire Wire Line
	11800 2650 11800 2550
Connection ~ 10900 2050
Wire Wire Line
	10900 2150 10900 2050
Wire Wire Line
	11350 2650 11350 2550
Wire Wire Line
	10450 2650 10450 2550
Connection ~ 10900 2650
Wire Wire Line
	10450 2050 10450 2150
Wire Wire Line
	11350 2050 11350 2150
Wire Wire Line
	10900 2700 10900 2550
Wire Wire Line
	10450 2050 11800 2050
Wire Wire Line
	11800 2050 11800 2150
Connection ~ 11350 2050
Wire Wire Line
	11800 2650 10450 2650
Connection ~ 11350 2650
Connection ~ 11350 1750
Wire Wire Line
	10450 1750 11800 1750
Connection ~ 11350 1150
Wire Wire Line
	11800 1150 11800 1250
Wire Wire Line
	11800 1150 10450 1150
Wire Notes Line
	850  8500 850  6050
Wire Notes Line
	850  8500 2900 8500
Wire Notes Line
	2900 8500 2900 6050
Wire Notes Line
	2900 6050 850  6050
Wire Notes Line
	3100 9550 3100 6050
Wire Notes Line
	3100 9550 7650 9550
Wire Notes Line
	7650 9550 7650 6050
Wire Notes Line
	7650 6050 3100 6050
Wire Wire Line
	5200 7000 4800 7000
Wire Wire Line
	7100 9100 7100 9000
Wire Wire Line
	7250 9000 6950 9000
Wire Wire Line
	7250 9000 7250 8950
Connection ~ 7100 8500
Wire Wire Line
	7100 8450 7100 8500
Wire Wire Line
	1250 2800 1250 2850
Wire Wire Line
	1750 5650 1750 5550
Wire Wire Line
	1800 3000 1800 2850
Connection ~ 3850 4900
Wire Wire Line
	3850 4850 3850 4900
Wire Wire Line
	3750 4900 4150 4900
Connection ~ 3950 4300
Wire Wire Line
	3850 4300 4050 4300
Wire Wire Line
	3850 4300 3850 4350
Connection ~ 1750 5100
Wire Wire Line
	1750 5150 1750 5050
Connection ~ 2700 5100
Wire Wire Line
	2700 5300 2700 4900
Wire Wire Line
	15300 1950 15300 2000
Wire Wire Line
	14950 2450 15300 2450
Wire Wire Line
	15300 2450 15300 2400
Wire Wire Line
	15000 1950 15000 2250
Connection ~ 15000 1950
Wire Wire Line
	14950 1950 15300 1950
Wire Notes Line
	850  3700 5550 3700
Wire Wire Line
	8750 7500 8950 7500
Wire Wire Line
	11250 7200 11250 7150
Wire Wire Line
	11250 7150 11450 7150
Connection ~ 2375 10250
Wire Wire Line
	2275 10250 2375 10250
Connection ~ 2375 9850
Wire Wire Line
	2375 9850 2275 9850
Wire Wire Line
	2375 10350 2375 9450
Wire Wire Line
	2375 9450 2275 9450
Wire Wire Line
	2450 7150 2350 7150
Connection ~ 9950 4950
Wire Wire Line
	9900 4950 9950 4950
Wire Wire Line
	9400 5150 9300 5150
Wire Wire Line
	9300 5150 9300 4750
Connection ~ 9300 4750
Wire Wire Line
	9250 4750 9400 4750
Wire Notes Line
	9775 2700 9800 2700
Wire Notes Line
	9800 2700 9800 3100
Wire Notes Line
	9800 3100 9775 3100
Connection ~ 14650 6975
Connection ~ 13950 6775
Wire Wire Line
	14650 7025 14650 6625
Wire Wire Line
	13950 7025 13950 6625
Connection ~ 13950 6075
Wire Wire Line
	13950 6075 13950 6125
Connection ~ 14650 6075
Wire Wire Line
	14650 6025 14650 6125
Wire Wire Line
	14650 6075 13600 6075
Wire Wire Line
	13600 6075 13600 6125
Wire Wire Line
	3700 8050 3700 9250
Connection ~ 6450 3350
Wire Wire Line
	6450 3300 6450 3400
Connection ~ 15500 3950
Wire Wire Line
	15450 3950 15500 3950
Connection ~ 7050 1850
Wire Wire Line
	7050 1850 7050 1800
Connection ~ 4850 2450
Wire Wire Line
	4850 2900 4850 2950
Connection ~ 4250 2950
Connection ~ 4550 2450
Wire Wire Line
	4550 2500 4550 2450
Wire Wire Line
	1450 6700 1650 6700
Wire Wire Line
	1450 7800 1450 6700
Wire Wire Line
	2200 7750 2350 7750
Connection ~ 7100 3350
Wire Wire Line
	7250 3150 7100 3150
Connection ~ 6900 2850
Wire Wire Line
	6900 2900 6900 2850
Wire Wire Line
	6900 2450 7100 2450
Wire Wire Line
	7100 2450 7100 2750
Wire Wire Line
	7100 2750 7250 2750
Connection ~ 7200 1950
Wire Wire Line
	7200 1950 7250 1950
Connection ~ 7200 2150
Wire Wire Line
	7200 2150 7250 2150
Connection ~ 7200 2350
Wire Wire Line
	7200 2350 7250 2350
Wire Wire Line
	7200 2550 7250 2550
Wire Wire Line
	7200 2550 7200 1850
Connection ~ 7200 1250
Wire Wire Line
	7200 1250 7250 1250
Connection ~ 7200 1450
Wire Wire Line
	7200 1450 7250 1450
Wire Wire Line
	7200 1650 7250 1650
Wire Wire Line
	7200 1100 7200 1650
Connection ~ 14650 7725
Wire Wire Line
	14650 7625 14650 7775
Connection ~ 14300 7725
Wire Wire Line
	14300 7725 14300 7625
Wire Wire Line
	14750 3950 14950 3950
Connection ~ 15100 5550
Connection ~ 15100 5100
Wire Wire Line
	4100 7300 4100 7050
Wire Wire Line
	4100 7050 3950 7050
Wire Wire Line
	3950 6950 4600 6950
Wire Wire Line
	3950 6750 4600 6750
Wire Bus Line
	4700 6750 4700 9150
Connection ~ 3700 8900
Wire Wire Line
	3750 8900 3700 8900
Connection ~ 3700 8200
Wire Wire Line
	3700 8200 3750 8200
Wire Wire Line
	5500 9350 5500 9450
Wire Wire Line
	5100 9250 4800 9250
Wire Wire Line
	4150 10425 4100 10425
Connection ~ 13900 9325
Wire Wire Line
	13900 9875 13900 9225
Wire Wire Line
	13900 9225 13950 9225
Wire Wire Line
	10900 1800 10900 1650
Wire Wire Line
	11350 1150 11350 1250
Wire Wire Line
	10450 1150 10450 1250
Connection ~ 10900 1750
Wire Wire Line
	10450 1750 10450 1650
Connection ~ 4300 1500
Wire Wire Line
	3750 1500 4650 1500
Wire Wire Line
	11350 1650 11350 1750
Wire Wire Line
	10900 1250 10900 1150
Connection ~ 10900 1150
Wire Wire Line
	1450 8200 1450 8250
Connection ~ 1450 7750
Connection ~ 2350 7750
Wire Wire Line
	5100 8200 4800 8200
Wire Wire Line
	5100 8550 4800 8550
Wire Wire Line
	5100 8900 4800 8900
Wire Wire Line
	6200 7450 6200 7550
Wire Wire Line
	5500 8000 5500 8100
Connection ~ 13900 9625
Wire Wire Line
	13900 9625 13950 9625
Wire Wire Line
	13900 9425 13950 9425
Wire Wire Line
	13900 9525 13950 9525
Connection ~ 13900 9525
Wire Wire Line
	6200 6450 6200 6550
Wire Wire Line
	2350 8200 2350 8250
Wire Wire Line
	13950 9325 13900 9325
Connection ~ 13900 9425
Wire Wire Line
	13900 9725 13950 9725
Connection ~ 13900 9725
Wire Wire Line
	4100 10225 4150 10225
Wire Wire Line
	13600 9450 13600 9500
Wire Wire Line
	3700 9250 3750 9250
Wire Wire Line
	3700 8550 3750 8550
Connection ~ 3700 8550
Wire Wire Line
	4600 9250 4250 9250
Wire Wire Line
	4250 8900 4600 8900
Wire Wire Line
	4250 8550 4600 8550
Wire Wire Line
	4250 8200 4600 8200
Wire Wire Line
	3950 6650 4600 6650
Wire Wire Line
	3950 6850 4600 6850
Wire Wire Line
	15050 5550 15100 5550
Wire Wire Line
	15100 5100 15050 5100
Wire Wire Line
	14750 3650 14950 3650
Wire Wire Line
	13600 7725 13600 7625
Wire Wire Line
	14650 7725 13600 7725
Wire Wire Line
	13950 7725 13950 7625
Connection ~ 13950 7725
Wire Wire Line
	7250 4750 7200 4750
Wire Wire Line
	7200 4750 7200 4800
Wire Wire Line
	7200 1550 7250 1550
Connection ~ 7200 1550
Wire Wire Line
	7200 1350 7250 1350
Connection ~ 7200 1350
Wire Wire Line
	7250 1150 7200 1150
Connection ~ 7200 1150
Wire Wire Line
	7200 2450 7250 2450
Connection ~ 7200 2450
Wire Wire Line
	7200 2250 7250 2250
Connection ~ 7200 2250
Wire Wire Line
	7200 2050 7250 2050
Connection ~ 7200 2050
Connection ~ 7200 1850
Wire Wire Line
	6900 2850 7250 2850
Connection ~ 6900 2450
Wire Wire Line
	7100 3250 7250 3250
Connection ~ 7100 3150
Wire Wire Line
	7100 3100 7100 3250
Wire Wire Line
	7250 3450 7100 3450
Wire Wire Line
	7100 3450 7100 3350
Wire Wire Line
	1600 7750 1450 7750
Wire Wire Line
	2350 7700 2350 7800
Connection ~ 2350 7150
Wire Wire Line
	2350 6700 2150 6700
Wire Wire Line
	2350 7200 2350 6700
Connection ~ 1450 7150
Wire Wire Line
	3600 2850 3700 2850
Wire Wire Line
	3700 2950 3700 2850
Wire Wire Line
	4850 2450 4850 2500
Wire Wire Line
	4200 2450 4850 2450
Connection ~ 4250 2450
Wire Wire Line
	4550 2950 4550 2900
Wire Wire Line
	3700 2950 4550 2950
Wire Wire Line
	7250 1850 6900 1850
Wire Wire Line
	6900 1850 6900 1950
Wire Wire Line
	14100 3650 14350 3650
Wire Wire Line
	15500 3650 15450 3650
Wire Wire Line
	7250 3350 6450 3350
Wire Wire Line
	14300 6075 14300 6125
Connection ~ 14300 6075
Wire Wire Line
	13600 6625 13600 7025
Wire Wire Line
	14300 6625 14300 7025
Connection ~ 13600 6675
Connection ~ 14300 6875
Wire Wire Line
	9250 4650 9400 4650
Connection ~ 9350 4650
Wire Wire Line
	9350 4650 9350 4950
Wire Wire Line
	9350 4950 9400 4950
Wire Wire Line
	9950 5150 9900 5150
Wire Wire Line
	9950 4900 9950 5150
Wire Wire Line
	2275 9650 2375 9650
Connection ~ 2375 9650
Wire Wire Line
	2375 10050 2275 10050
Connection ~ 2375 10050
Wire Notes Line
	850  3700 850  650 
Wire Notes Line
	850  650  5550 650 
Wire Notes Line
	5550 650  5550 3700
Wire Wire Line
	15000 2250 14950 2250
Wire Wire Line
	15150 1950 15150 1900
Connection ~ 15150 1950
Wire Wire Line
	14950 2150 15000 2150
Connection ~ 15000 2150
Wire Wire Line
	15150 2550 15150 2450
Connection ~ 15150 2450
Wire Wire Line
	2700 5300 2850 5300
Wire Wire Line
	2700 4900 2850 4900
Wire Wire Line
	1800 5100 1750 5100
Wire Wire Line
	4050 4300 4050 4350
Wire Wire Line
	1750 4500 1750 4550
Wire Wire Line
	3750 5300 4150 5300
Wire Wire Line
	4050 4850 4050 5300
Connection ~ 4050 5300
Wire Wire Line
	2400 2700 2400 2650
Connection ~ 1800 2850
Wire Wire Line
	6950 8500 6950 8550
Wire Wire Line
	6950 8500 7250 8500
Wire Wire Line
	7250 8500 7250 8550
Wire Wire Line
	6950 9000 6950 8950
Connection ~ 7100 9000
Wire Wire Line
	5200 6650 4800 6650
Wire Wire Line
	5200 7350 4800 7350
Wire Notes Line
	5550 3850 850  3850
Wire Notes Line
	5550 3850 5550 5900
Wire Notes Line
	5550 5900 850  5900
Wire Notes Line
	850  5900 850  3850
Wire Wire Line
	11800 1750 11800 1650
Wire Wire Line
	13950 1450 13600 1450
Wire Wire Line
	13600 1450 13600 2250
Connection ~ 13700 1950
Wire Wire Line
	14800 1550 14750 1550
Wire Wire Line
	14800 1250 14750 1250
Wire Wire Line
	14750 1350 14950 1350
Wire Wire Line
	14950 1350 14950 1400
Wire Wire Line
	13950 1350 13700 1350
Wire Wire Line
	13700 1350 13700 1950
Wire Wire Line
	14800 1550 14800 1250
Wire Notes Line
	5150 9725 3100 9725
Wire Notes Line
	5150 9725 5150 10675
Wire Notes Line
	5150 10675 3100 10675
Wire Notes Line
	3100 10675 3100 9725
Wire Notes Line
	12450 650  5750 650 
Wire Notes Line
	12450 650  12450 5900
Wire Notes Line
	12450 5900 5750 5900
Wire Notes Line
	5750 5900 5750 650 
Wire Notes Line
	9800 4200 9775 4200
Wire Wire Line
	13450 6675 13600 6675
Wire Wire Line
	13450 6875 14300 6875
Wire Notes Line
	15850 2850 12600 2850
Wire Notes Line
	15850 2850 15850 8025
Wire Notes Line
	15850 8025 12600 8025
Wire Notes Line
	12600 8025 12600 2850
Wire Wire Line
	12975 9000 12975 9025
Wire Wire Line
	12975 9025 13025 9025
Wire Wire Line
	13950 9025 13525 9025
Connection ~ 13600 9025
Wire Notes Line
	7850 9550 7850 6050
Wire Notes Line
	7850 9550 12450 9550
Wire Notes Line
	12450 9550 12450 6050
Wire Notes Line
	12450 6050 7850 6050
Wire Wire Line
	8900 6850 8900 6950
Wire Wire Line
	10450 7500 11450 7500
Wire Wire Line
	11450 7150 11450 7300
Wire Wire Line
	11300 8800 11450 8800
Wire Wire Line
	10150 8650 10150 8700
Wire Wire Line
	10150 8700 10250 8700
Wire Wire Line
	15100 5800 15100 4650
Wire Wire Line
	15500 4100 15500 3650
Wire Wire Line
	15100 4650 15050 4650
Wire Wire Line
	14300 4650 13700 4650
Wire Wire Line
	13950 5550 14300 5550
Wire Wire Line
	13700 5050 13950 5050
Wire Wire Line
	14150 4650 14150 4200
Wire Wire Line
	14150 4200 13700 4200
Wire Wire Line
	13950 5550 13950 4500
Wire Wire Line
	13950 4500 13700 4500
Connection ~ 13950 5050
Wire Wire Line
	13150 4650 13200 4650
Wire Wire Line
	13150 4650 13150 5050
Wire Wire Line
	13150 5050 13200 5050
Wire Wire Line
	13200 4850 13050 4850
Wire Wire Line
	9900 8050 9900 8150
Connection ~ 9900 7500
Wire Wire Line
	10700 8000 10700 8150
Wire Wire Line
	1200 6950 1200 6850
Connection ~ 1200 6900
Wire Wire Line
	1200 7350 1200 7450
Connection ~ 1200 7400
Wire Wire Line
	2250 2650 2500 2650
Wire Wire Line
	2250 2250 2250 1500
Connection ~ 2250 1500
Connection ~ 2250 2250
Wire Wire Line
	3350 2050 3350 2100
Connection ~ 3350 2050
Wire Wire Line
	13750 2050 13250 2050
Wire Wire Line
	13750 2250 13250 2250
Wire Wire Line
	11450 7700 10950 7700
Wire Wire Line
	10950 7700 10950 8150
Wire Notes Line
	9875 1300 9900 1300
Wire Notes Line
	9900 1300 9900 2100
Wire Notes Line
	9900 2100 9875 2100
Text Notes 7900 10000 0    60   ~ 0
Changes since rev. A:\n- Display R/W is low, cannot read from 5V display\n- Different LEDs\n- P50
$Comp
L CONN_1 P50
U 1 1 4C4B3EAC
P 10600 3150
F 0 "P50" H 10680 3150 40  0000 L CNN
F 1 "CONN_1" H 10600 3205 30  0001 C CNN
	1    10600 3150
	1    0    0    -1  
$EndComp
$Comp
L GND #PWR01
U 1 1 4C4B3D08
P 10950 8150
F 0 "#PWR01" H 10950 8150 30  0001 C CNN
F 1 "GND" H 10950 8080 30  0001 C CNN
	1    10950 8150
	1    0    0    -1  
$EndComp
$Comp
L +3.3V #PWR02
U 1 1 4C3374E8
P 13350 1400
F 0 "#PWR02" H 13350 1360 30  0001 C CNN
F 1 "+3.3V" H 13350 1510 30  0000 C CNN
	1    13350 1400
	1    0    0    -1  
$EndComp
$Comp
L R R60
U 1 1 4C3374CD
P 13350 1650
F 0 "R60" V 13430 1650 50  0000 C CNN
F 1 "10k" V 13350 1650 50  0000 C CNN
	1    13350 1650
	-1   0    0    1   
$EndComp
$Comp
L HOLES_FOR_HAMMOND_RL6215 P500
U 1 1 4C324445
P 6150 9850
F 0 "P500" H 5450 9850 60  0000 C CNN
F 1 "HOLES_FOR_HAMMOND_RL6215" H 6350 9850 60  0000 C CNN
	1    6150 9850
	1    0    0    -1  
$EndComp
$Comp
L TC1262 U10
U 1 1 4C322FAD
P 3350 1650
F 0 "U10" H 3350 1700 60  0000 C CNN
F 1 "TC1262-3.3" H 3100 1950 60  0000 L CNN
	1    3350 1650
	1    0    0    -1  
$EndComp
$Comp
L C C10
U 1 1 4C322E23
P 2750 1700
F 0 "C10" H 2800 1800 50  0000 L CNN
F 1 "10u" H 2800 1600 50  0000 L CNN
	1    2750 1700
	1    0    0    -1  
$EndComp
$Comp
L GND #PWR03
U 1 1 4A971213
P 2750 1900
F 0 "#PWR03" H 2750 1900 30  0001 C CNN
F 1 "GND" H 2750 1830 30  0001 C CNN
	1    2750 1900
	1    0    0    -1  
$EndComp
$Comp
L C C32
U 1 1 4C2FA59E
P 1200 7150
F 0 "C32" H 1250 7250 50  0000 L CNN
F 1 "1u" H 1250 7050 50  0000 L CNN
	1    1200 7150
	-1   0    0    -1  
$EndComp
$Comp
L GND #PWR04
U 1 1 4C2CDFDA
P 9900 8150
F 0 "#PWR04" H 9900 8150 30  0001 C CNN
F 1 "GND" H 9900 8080 30  0001 C CNN
	1    9900 8150
	1    0    0    -1  
$EndComp
$Comp
L R R104
U 1 1 4C2CDF92
P 10200 7500
F 0 "R104" V 10280 7500 50  0000 C CNN
F 1 "470" V 10200 7500 50  0000 C CNN
	1    10200 7500
	0    -1   -1   0   
$EndComp
$Comp
L GND #PWR05
U 1 1 4C278EB7
P 15100 5800
F 0 "#PWR05" H 15100 5800 30  0001 C CNN
F 1 "GND" H 15100 5730 30  0001 C CNN
	1    15100 5800
	1    0    0    -1  
$EndComp
$Comp
L R R80
U 1 1 4C278DCC
P 13450 4650
F 0 "R80" V 13530 4650 50  0000 C CNN
F 1 "10k" V 13450 4650 50  0000 C CNN
	1    13450 4650
	0    1    1    0   
$EndComp
Text GLabel 13700 4200 0    40   Output ~ 0
DIP-SW
Text GLabel 9250 1450 2    40   Input ~ 0
DIP-SW
$Comp
L C C11
U 1 1 4C2762D8
P 2250 2450
F 0 "C11" H 2300 2550 50  0000 L CNN
F 1 "10u" H 2300 2350 50  0000 L CNN
	1    2250 2450
	1    0    0    -1  
$EndComp
$Comp
L GND #PWR06
U 1 1 4C250E52
P 11250 7200
F 0 "#PWR06" H 11250 7200 30  0001 C CNN
F 1 "GND" H 11250 7130 30  0001 C CNN
	1    11250 7200
	1    0    0    -1  
$EndComp
$Comp
L +5V #PWR07
U 1 1 4C250E3C
P 10150 8650
F 0 "#PWR07" H 10150 8740 20  0001 C CNN
F 1 "+5V" H 10150 8740 30  0000 C CNN
	1    10150 8650
	1    0    0    -1  
$EndComp
$Comp
L R R100
U 1 1 4C19407C
P 10500 8700
F 0 "R100" V 10580 8700 50  0000 C CNN
F 1 "10" V 10500 8700 50  0000 C CNN
	1    10500 8700
	0    -1   -1   0   
$EndComp
$Comp
L CONN_16 P100
U 1 1 4C250C86
P 11800 8050
F 0 "P100" V 11750 8050 60  0000 C CNN
F 1 "LCD" V 11850 8050 60  0000 C CNN
	1    11800 8050
	1    0    0    -1  
$EndComp
Text Notes 8200 8450 0    60   ~ 0
R100 depends on display type
$Comp
L +5V #PWR08
U 1 1 4C23D264
P 9900 6850
F 0 "#PWR08" H 9900 6940 20  0001 C CNN
F 1 "+5V" H 9900 6940 30  0000 C CNN
	1    9900 6850
	1    0    0    -1  
$EndComp
$Comp
L R R103
U 1 1 4C23D225
P 9900 7800
F 0 "R103" V 9980 7800 50  0000 C CNN
F 1 "n.c." V 9900 7800 50  0000 C CNN
	1    9900 7800
	-1   0    0    1   
$EndComp
$Comp
L +3.3V #PWR09
U 1 1 4C23D1B6
P 8900 6850
F 0 "#PWR09" H 8900 6810 30  0001 C CNN
F 1 "+3.3V" H 8900 6960 30  0000 C CNN
	1    8900 6850
	1    0    0    -1  
$EndComp
$Comp
L C C100
U 1 1 4C19464D
P 10700 7800
F 0 "C100" H 10750 7900 50  0000 L CNN
F 1 "1u" H 10750 7700 50  0000 L CNN
	1    10700 7800
	-1   0    0    -1  
$EndComp
$Comp
L R R102
U 1 1 4C194617
P 8900 7200
F 0 "R102" V 8980 7200 50  0000 C CNN
F 1 "10k" V 8900 7200 50  0000 C CNN
	1    8900 7200
	-1   0    0    1   
$EndComp
$Comp
L 74HCT04 U70
U 6 1 4C23D031
P 9400 7500
F 0 "U70" H 9550 7600 40  0000 C CNN
F 1 "74LVC06" H 9600 7400 40  0000 C CNN
	6    9400 7500
	1    0    0    -1  
$EndComp
Text Notes 8000 6400 0    200  ~ 40
LCD
Text Notes 12750 8450 0    200  ~ 40
SD Card
Text Notes 12725 3200 0    200  ~ 40
Button, LEDs
Text GLabel 13450 6675 0    40   Output ~ 0
BUTTON_A
Text GLabel 13450 6775 0    40   Output ~ 0
BUTTON_B
Text GLabel 13450 6975 0    40   Output ~ 0
BUTTON_D
Text GLabel 13450 6875 0    40   Output ~ 0
BUTTON_C
Text Notes 9900 4025 1    60   ~ 0
P4E
Text GLabel 9250 4050 2    40   Input ~ 0
BUTTON_C
Text GLabel 9250 4150 2    40   Input ~ 0
BUTTON_D
Text GLabel 9250 3850 2    40   Input ~ 0
BUTTON_B
Text GLabel 9250 3750 2    40   Input ~ 0
BUTTON_A
Text Notes 12750 1000 0    200  ~ 40
Flash
Text Notes 5900 1000 0    200  ~ 40
XMOS
NoConn ~ 1900 1700
$Comp
L GND #PWR010
U 1 1 4C225D90
P 2000 1750
F 0 "#PWR010" H 2000 1750 30  0001 C CNN
F 1 "GND" H 2000 1680 30  0001 C CNN
	1    2000 1750
	1    0    0    -1  
$EndComp
$Comp
L CONN_3 P10
U 1 1 4C225CFC
P 1550 1600
F 0 "P10" V 1500 1600 50  0000 C CNN
F 1 "5V=" V 1600 1600 40  0000 C CNN
	1    1550 1600
	-1   0    0    -1  
$EndComp
$Comp
L +3.3V #PWR011
U 1 1 4C2124EF
P 14000 3950
F 0 "#PWR011" H 14000 3910 30  0001 C CNN
F 1 "+3.3V" H 14000 4060 30  0000 C CNN
	1    14000 3950
	1    0    0    -1  
$EndComp
Text GLabel 9250 3150 2    40   Output ~ 0
IEC-ATN-OUT
Text Notes 3250 10025 0    200  ~ 40
UART
$Comp
L GND #PWR012
U 1 1 4C21212A
P 3600 10475
F 0 "#PWR012" H 3600 10475 30  0001 C CNN
F 1 "GND" H 3600 10405 30  0001 C CNN
	1    3600 10475
	1    0    0    -1  
$EndComp
$Comp
L CONN_3 P41
U 1 1 4C21210C
P 4500 10325
F 0 "P41" V 4450 10325 50  0000 C CNN
F 1 "UART" V 4550 10325 40  0000 C CNN
	1    4500 10325
	1    0    0    -1  
$EndComp
$Comp
L +3.3V #PWR013
U 1 1 4C211FA2
P 13050 4800
F 0 "#PWR013" H 13050 4760 30  0001 C CNN
F 1 "+3.3V" H 13050 4910 30  0000 C CNN
	1    13050 4800
	1    0    0    -1  
$EndComp
$Comp
L R R81
U 1 1 4C211F7F
P 13450 4850
F 0 "R81" V 13530 4850 50  0000 C CNN
F 1 "10k" V 13450 4850 50  0000 C CNN
	1    13450 4850
	0    1    1    0   
$EndComp
$Comp
L R R82
U 1 1 4C211F7E
P 13450 5050
F 0 "R82" V 13530 5050 50  0000 C CNN
F 1 "10k" V 13450 5050 50  0000 C CNN
	1    13450 5050
	0    1    1    0   
$EndComp
Text GLabel 13700 4500 0    40   Output ~ 0
DEV-ADDR-1
Text GLabel 13700 4350 0    40   Output ~ 0
DEV-ADDR-0
$Comp
L +3.3V #PWR014
U 1 1 4C211A87
P 14950 1100
F 0 "#PWR014" H 14950 1060 30  0001 C CNN
F 1 "+3.3V" H 14950 1210 30  0000 C CNN
	1    14950 1100
	1    0    0    -1  
$EndComp
$Comp
L GND #PWR015
U 1 1 4C211A82
P 14950 1400
F 0 "#PWR015" H 14950 1400 30  0001 C CNN
F 1 "GND" H 14950 1330 30  0001 C CNN
	1    14950 1400
	1    0    0    -1  
$EndComp
NoConn ~ 13950 1250
$Comp
L CONN_5X2 P60
U 1 1 4C1D41BC
P 14350 1350
F 0 "P60" H 14350 1650 60  0000 C CNN
F 1 "ISP" V 14350 1350 50  0000 C CNN
	1    14350 1350
	1    0    0    -1  
$EndComp
$Comp
L VDD #PWR016
U 1 1 4C1D309F
P 10900 2050
F 0 "#PWR016" H 10900 2150 30  0001 C CNN
F 1 "VDD" H 10900 2160 30  0000 C CNN
	1    10900 2050
	1    0    0    -1  
$EndComp
$Comp
L C C55
U 1 1 4C1D3095
P 10450 2350
F 0 "C55" H 10500 2450 50  0000 L CNN
F 1 "1u" H 10500 2250 50  0000 L CNN
	1    10450 2350
	1    0    0    -1  
$EndComp
$Comp
L C C56
U 1 1 4C1D3094
P 10900 2350
F 0 "C56" H 10950 2450 50  0000 L CNN
F 1 "1u" H 10950 2250 50  0000 L CNN
	1    10900 2350
	1    0    0    -1  
$EndComp
$Comp
L C C57
U 1 1 4C1D3093
P 11350 2350
F 0 "C57" H 11400 2450 50  0000 L CNN
F 1 "1u" H 11400 2250 50  0000 L CNN
	1    11350 2350
	1    0    0    -1  
$EndComp
$Comp
L GND #PWR017
U 1 1 4C1D3092
P 10900 2700
F 0 "#PWR017" H 10900 2700 30  0001 C CNN
F 1 "GND" H 10900 2630 30  0001 C CNN
	1    10900 2700
	1    0    0    -1  
$EndComp
$Comp
L C C58
U 1 1 4C1D3090
P 11800 2350
F 0 "C58" H 11850 2450 50  0000 L CNN
F 1 "1u" H 11850 2250 50  0000 L CNN
	1    11800 2350
	1    0    0    -1  
$EndComp
$Comp
L C C54
U 1 1 4C1D301F
P 11800 1450
F 0 "C54" H 11850 1550 50  0000 L CNN
F 1 "1u" H 11850 1350 50  0000 L CNN
	1    11800 1450
	1    0    0    -1  
$EndComp
Text Notes 1000 9050 0    200  ~ 40
JTAG
Text Notes 1000 6400 0    200  ~ 40
Clock
Text Notes 1000 4200 0    200  ~ 40
Reset
Text Notes 3200 6400 0    200  ~ 40
IEC
$Comp
L R R72
U 1 1 4C1BDBDE
P 5450 7350
F 0 "R72" V 5530 7350 50  0000 C CNN
F 1 "10" V 5450 7350 50  0000 C CNN
	1    5450 7350
	0    1    1    0   
$EndComp
$Comp
L R R71
U 1 1 4C1BDBDA
P 5450 7000
F 0 "R71" V 5530 7000 50  0000 C CNN
F 1 "10" V 5450 7000 50  0000 C CNN
	1    5450 7000
	0    1    1    0   
$EndComp
$Comp
L R R70
U 1 1 4C1BDBD6
P 5450 6650
F 0 "R70" V 5530 6650 50  0000 C CNN
F 1 "10" V 5450 6650 50  0000 C CNN
	1    5450 6650
	0    1    1    0   
$EndComp
$Comp
L +3.3V #PWR018
U 1 1 4C1BD70A
P 7100 8450
F 0 "#PWR018" H 7100 8410 30  0001 C CNN
F 1 "+3.3V" H 7100 8560 30  0000 C CNN
	1    7100 8450
	1    0    0    -1  
$EndComp
$Comp
L GND #PWR019
U 1 1 4C1BD704
P 7100 9100
F 0 "#PWR019" H 7100 9100 30  0001 C CNN
F 1 "GND" H 7100 9030 30  0001 C CNN
	1    7100 9100
	1    0    0    -1  
$EndComp
$Comp
L C C71
U 1 1 4C1BD6EC
P 7250 8750
F 0 "C71" H 7300 8850 50  0000 L CNN
F 1 "1u" H 7300 8650 50  0000 L CNN
	1    7250 8750
	1    0    0    -1  
$EndComp
$Comp
L C C70
U 1 1 4C1BD6DD
P 6950 8750
F 0 "C70" H 7000 8850 50  0000 L CNN
F 1 "1u" H 7000 8650 50  0000 L CNN
	1    6950 8750
	1    0    0    -1  
$EndComp
$Comp
L +3.3V #PWR020
U 1 1 4C1BD18E
P 1250 2800
F 0 "#PWR020" H 1250 2760 30  0001 C CNN
F 1 "+3.3V" H 1250 2910 30  0000 C CNN
	1    1250 2800
	1    0    0    -1  
$EndComp
$Comp
L GND #PWR021
U 1 1 4C1BD16A
P 1800 3450
F 0 "#PWR021" H 1800 3450 30  0001 C CNN
F 1 "GND" H 1800 3380 30  0001 C CNN
	1    1800 3450
	1    0    0    -1  
$EndComp
$Comp
L R R10
U 1 1 4C1BD122
P 1500 2850
F 0 "R10" V 1580 2850 50  0000 C CNN
F 1 "100k" V 1500 2850 50  0000 C CNN
	1    1500 2850
	0    -1   -1   0   
$EndComp
$Comp
L C C15
U 1 1 4C1BD100
P 1800 3200
F 0 "C15" H 1850 3300 50  0000 L CNN
F 1 "1u" H 1850 3100 50  0000 L CNN
	1    1800 3200
	1    0    0    -1  
$EndComp
Text GLabel 4150 4900 2    40   Output ~ 0
RST_N
Text GLabel 4150 5300 2    40   Output ~ 0
TRST_N
$Comp
L +3.3V #PWR022
U 1 1 4C1BBECD
P 1750 4500
F 0 "#PWR022" H 1750 4460 30  0001 C CNN
F 1 "+3.3V" H 1750 4610 30  0000 C CNN
	1    1750 4500
	1    0    0    -1  
$EndComp
$Comp
L R R22
U 1 1 4C1BBEB3
P 4050 4600
F 0 "R22" V 4130 4600 50  0000 C CNN
F 1 "10k" V 4050 4600 50  0000 C CNN
	1    4050 4600
	1    0    0    -1  
$EndComp
$Comp
L GND #PWR023
U 1 1 4C1BBE96
P 1750 5650
F 0 "#PWR023" H 1750 5650 30  0001 C CNN
F 1 "GND" H 1750 5580 30  0001 C CNN
	1    1750 5650
	1    0    0    -1  
$EndComp
$Comp
L R R20
U 1 1 4C1BBE74
P 1750 4800
F 0 "R20" V 1830 4800 50  0000 C CNN
F 1 "100k" V 1750 4800 50  0000 C CNN
	1    1750 4800
	1    0    0    -1  
$EndComp
$Comp
L C C20
U 1 1 4C1BBE64
P 1750 5350
F 0 "C20" H 1800 5450 50  0000 L CNN
F 1 "1u" H 1800 5250 50  0000 L CNN
	1    1750 5350
	1    0    0    -1  
$EndComp
$Comp
L +3.3V #PWR024
U 1 1 4C1BBE3A
P 3950 4300
F 0 "#PWR024" H 3950 4260 30  0001 C CNN
F 1 "+3.3V" H 3950 4410 30  0000 C CNN
	1    3950 4300
	1    0    0    -1  
$EndComp
$Comp
L R R21
U 1 1 4C1BBE22
P 3850 4600
F 0 "R21" V 3930 4600 50  0000 C CNN
F 1 "10k" V 3850 4600 50  0000 C CNN
	1    3850 4600
	1    0    0    -1  
$EndComp
$Comp
L 74HCT04 U70
U 4 1 4C1BBD71
P 3300 4900
F 0 "U70" H 3450 5000 40  0000 C CNN
F 1 "74LVC06" H 3500 4800 40  0000 C CNN
	4    3300 4900
	1    0    0    1   
$EndComp
$Comp
L 74HCT04 U70
U 5 1 4C1BBD70
P 3300 5300
F 0 "U70" H 3450 5400 40  0000 C CNN
F 1 "74LVC06" H 3500 5200 40  0000 C CNN
	5    3300 5300
	1    0    0    1   
$EndComp
$Comp
L 74HCT04 U71
U 5 1 4C1BBB5F
P 2250 5100
F 0 "U71" H 2400 5200 40  0000 C CNN
F 1 "74LVC14" H 2450 5000 40  0000 C CNN
	5    2250 5100
	1    0    0    -1  
$EndComp
Text GLabel 13250 2050 0    40   Output ~ 0
FLASH-MISO
Text GLabel 13250 1950 0    40   Input ~ 0
FLASH-SSEL
Text GLabel 13250 2250 0    40   Input ~ 0
FLASH-CLK
Text GLabel 13250 2150 0    40   Input ~ 0
FLASH-MOSI
$Comp
L AT25DF041A U60
U 1 1 4C1A858F
P 14350 2150
F 0 "U60" H 14550 1700 60  0000 C CNN
F 1 "AT25DF041A" H 14350 2500 60  0000 C CNN
	1    14350 2150
	1    0    0    -1  
$EndComp
$Comp
L GND #PWR025
U 1 1 4C1A8514
P 15150 2550
F 0 "#PWR025" H 15150 2550 30  0001 C CNN
F 1 "GND" H 15150 2480 30  0001 C CNN
	1    15150 2550
	1    0    0    -1  
$EndComp
$Comp
L +3.3V #PWR026
U 1 1 4C1A8488
P 15150 1900
F 0 "#PWR026" H 15150 1860 30  0001 C CNN
F 1 "+3.3V" H 15150 2010 30  0000 C CNN
	1    15150 1900
	1    0    0    -1  
$EndComp
$Comp
L C C60
U 1 1 4C1A8462
P 15300 2200
F 0 "C60" H 15350 2300 50  0000 L CNN
F 1 "1u" H 15350 2100 50  0000 L CNN
	1    15300 2200
	1    0    0    -1  
$EndComp
Text Notes 1000 1000 0    200  ~ 40
Power
Text GLabel 8750 7500 0    40   Input ~ 0
CONTRAST
Text GLabel 9250 3650 2    40   Output ~ 0
CONTRAST
$Comp
L GND #PWR027
U 1 1 4C194684
P 10700 8150
F 0 "#PWR027" H 10700 8150 30  0001 C CNN
F 1 "GND" H 10700 8080 30  0001 C CNN
	1    10700 8150
	1    0    0    -1  
$EndComp
$Comp
L R R101
U 1 1 4C194621
P 9900 7200
F 0 "R101" V 9980 7200 50  0000 C CNN
F 1 "470" V 9900 7200 50  0000 C CNN
	1    9900 7200
	-1   0    0    1   
$EndComp
$Comp
L +5V #PWR028
U 1 1 4C194605
P 11250 7400
F 0 "#PWR028" H 11250 7490 20  0001 C CNN
F 1 "+5V" H 11250 7490 30  0000 C CNN
	1    11250 7400
	1    0    0    -1  
$EndComp
Text GLabel 11450 7600 0    40   Input ~ 0
LCD_RS
Text GLabel 9250 3350 2    40   Output ~ 0
LCD_RS
Text GLabel 11450 7800 0    40   Input ~ 0
LCD_E
Text GLabel 9250 2450 2    40   Output ~ 0
LCD_E
$Comp
L GND #PWR029
U 1 1 4C194066
P 11300 8850
F 0 "#PWR029" H 11300 8850 30  0001 C CNN
F 1 "GND" H 11300 8780 30  0001 C CNN
	1    11300 8850
	1    0    0    -1  
$EndComp
NoConn ~ 11450 7900
NoConn ~ 11450 8000
NoConn ~ 11450 8100
NoConn ~ 11450 8200
Text GLabel 11450 8600 0    40   Input ~ 0
DB7
Text GLabel 11450 8500 0    40   Input ~ 0
DB6
Text GLabel 11450 8300 0    40   Input ~ 0
DB4
Text GLabel 11450 8400 0    40   Input ~ 0
DB5
NoConn ~ 1475 9350
NoConn ~ 1475 10150
NoConn ~ 1475 10250
$Comp
L GND #PWR030
U 1 1 4C192CAA
P 2375 10350
F 0 "#PWR030" H 2375 10350 30  0001 C CNN
F 1 "GND" H 2375 10280 30  0001 C CNN
	1    2375 10350
	1    0    0    -1  
$EndComp
NoConn ~ 2275 10150
NoConn ~ 2275 9950
NoConn ~ 2275 9750
NoConn ~ 2275 9550
NoConn ~ 2275 9350
Text GLabel 1475 9950 0    40   Input ~ 0
TDO
Text GLabel 1475 9550 0    40   Output ~ 0
TDI
Text GLabel 1475 9650 0    40   Output ~ 0
TMS
Text GLabel 1475 9450 0    40   Output ~ 0
TRST_N
Text GLabel 1475 9750 0    40   Output ~ 0
TCK
Text GLabel 1475 10050 0    40   Output ~ 0
RST_N
Text GLabel 1475 9850 0    40   Output ~ 0
DEBUG
$Comp
L CONN_10X2 P40
U 1 1 4C192AB6
P 1875 9800
F 0 "P40" H 1875 10350 60  0000 C CNN
F 1 "JTAG" V 1875 9700 50  0000 C CNN
	1    1875 9800
	1    0    0    -1  
$EndComp
$Comp
L +3.3V #PWR031
U 1 1 4C192851
P 1200 6850
F 0 "#PWR031" H 1200 6810 30  0001 C CNN
F 1 "+3.3V" H 1200 6960 30  0000 C CNN
	1    1200 6850
	1    0    0    -1  
$EndComp
$Comp
L TC7SU04 U30
U 1 1 4C192807
P 1900 7150
F 0 "U30" H 2075 7250 50  0000 C CNN
F 1 "TC7SU04" H 2100 7050 40  0000 C CNN
	1    1900 7150
	1    0    0    -1  
$EndComp
Text GLabel 9250 1750 2    40   Input ~ 0
IEC-RST-IN
$Comp
L GND #PWR032
U 1 1 4C16A496
P 6450 4150
F 0 "#PWR032" H 6450 4150 30  0001 C CNN
F 1 "GND" H 6450 4080 30  0001 C CNN
	1    6450 4150
	1    0    0    -1  
$EndComp
$Comp
L +3.3V #PWR033
U 1 1 4C16A3C8
P 9950 4900
F 0 "#PWR033" H 9950 4860 30  0001 C CNN
F 1 "+3.3V" H 9950 5010 30  0000 C CNN
	1    9950 4900
	1    0    0    -1  
$EndComp
Text GLabel 9400 4750 2    40   Input ~ 0
DETECT
Text GLabel 9400 4650 2    40   Input ~ 0
WPROT
$Comp
L R R53
U 1 1 4C16A2F3
P 9650 5150
F 0 "R53" V 9730 5150 50  0000 C CNN
F 1 "10k" V 9650 5150 50  0000 C CNN
	1    9650 5150
	0    1    1    0   
$EndComp
$Comp
L R R52
U 1 1 4C16A2F2
P 9650 4950
F 0 "R52" V 9730 4950 50  0000 C CNN
F 1 "10k" V 9650 4950 50  0000 C CNN
	1    9650 4950
	0    1    1    0   
$EndComp
Text GLabel 9250 4250 2    40   Output ~ 0
SD_CLK
Text GLabel 9250 4350 2    40   Input ~ 0
SD_MISO
Text GLabel 9250 4550 2    40   Output ~ 0
SD_SEL
Text GLabel 9250 4450 2    40   Input ~ 0
SD_MOSI
Text GLabel 9250 2850 2    40   Output ~ 0
DB5
Text GLabel 9250 2750 2    40   Output ~ 0
DB4
Text GLabel 9250 2950 2    40   Output ~ 0
DB6
Text GLabel 9250 3050 2    40   Output ~ 0
DB7
$Comp
L +3.3V #PWR034
U 1 1 4C1690D4
P 14650 6025
F 0 "#PWR034" H 14650 5985 30  0001 C CNN
F 1 "+3.3V" H 14650 6135 30  0000 C CNN
	1    14650 6025
	1    0    0    -1  
$EndComp
$Comp
L R R87
U 1 1 4C1690BF
P 14300 6375
F 0 "R87" V 14380 6375 50  0000 C CNN
F 1 "10k" V 14300 6375 50  0000 C CNN
	1    14300 6375
	1    0    0    -1  
$EndComp
$Comp
L R R88
U 1 1 4C1690BE
P 14650 6375
F 0 "R88" V 14730 6375 50  0000 C CNN
F 1 "10k" V 14650 6375 50  0000 C CNN
	1    14650 6375
	1    0    0    -1  
$EndComp
$Comp
L R R86
U 1 1 4C1690B9
P 13950 6375
F 0 "R86" V 14030 6375 50  0000 C CNN
F 1 "10k" V 13950 6375 50  0000 C CNN
	1    13950 6375
	1    0    0    -1  
$EndComp
$Comp
L R R85
U 1 1 4C1690B2
P 13600 6375
F 0 "R85" V 13680 6375 50  0000 C CNN
F 1 "10k" V 13600 6375 50  0000 C CNN
	1    13600 6375
	1    0    0    -1  
$EndComp
Text GLabel 9250 2250 2    40   Output ~ 0
FLASH-MOSI
Text GLabel 9250 2150 2    40   Output ~ 0
FLASH-CLK
Text GLabel 9250 1250 2    40   Output ~ 0
FLASH-SSEL
Text GLabel 9250 1150 2    40   Input ~ 0
FLASH-MISO
NoConn ~ 3950 7150
Text GLabel 9250 3250 2    40   Output ~ 0
IEC-CLK-OUT
Text GLabel 9250 2650 2    40   Output ~ 0
IEC-DATA-OUT
Text Notes 9900 3000 1    60   ~ 0
P4D
Text GLabel 9250 1350 2    40   Input ~ 0
IEC-DATA-IN
Text GLabel 9250 1850 2    40   Input ~ 0
DEV-ADDR-0
Text GLabel 9250 1950 2    40   Input ~ 0
DEV-ADDR-1
Text Notes 10000 1750 1    60   ~ 0
P8A
Text GLabel 9250 1550 2    40   Input ~ 0
IEC-CLK-IN
Text GLabel 9250 2050 2    40   Input ~ 0
IEC-ATN-IN
Text GLabel 6600 6650 2    50   Input ~ 0
IEC-CLK-OUT
Text GLabel 6600 7000 2    50   Input ~ 0
IEC-DATA-OUT
Text GLabel 6600 7350 2    50   Input ~ 0
IEC-ATN-OUT
Text GLabel 6000 9250 2    50   Output ~ 0
IEC-RST-IN
Text GLabel 6000 8900 2    50   Output ~ 0
IEC-ATN-IN
Text GLabel 6000 8550 2    50   Output ~ 0
IEC-DATA-IN
Text GLabel 6000 8200 2    50   Output ~ 0
IEC-CLK-IN
$Comp
L GND #PWR035
U 1 1 4C1539E3
P 15500 4100
F 0 "#PWR035" H 15500 4100 30  0001 C CNN
F 1 "GND" H 15500 4030 30  0001 C CNN
	1    15500 4100
	1    0    0    -1  
$EndComp
Text GLabel 14100 3650 0    50   Input ~ 0
RED
Text GLabel 9250 2550 2    40   Output ~ 0
RED
Text GLabel 9250 3550 2    40   Input ~ 0
UART-RX
Text GLabel 9250 3450 2    40   Output ~ 0
UART-TX
Text Notes 4900 2425 0    40   ~ 0
1V
$Comp
L VDD #PWR036
U 1 1 4C15262D
P 4850 2450
F 0 "#PWR036" H 4850 2550 30  0001 C CNN
F 1 "VDD" H 4850 2560 30  0000 C CNN
	1    4850 2450
	1    0    0    -1  
$EndComp
$Comp
L GND #PWR037
U 1 1 4C15253F
P 4850 2950
F 0 "#PWR037" H 4850 2950 30  0001 C CNN
F 1 "GND" H 4850 2880 30  0001 C CNN
	1    4850 2950
	1    0    0    -1  
$EndComp
$Comp
L GND #PWR038
U 1 1 4C152504
P 4250 3450
F 0 "#PWR038" H 4250 3450 30  0001 C CNN
F 1 "GND" H 4250 3380 30  0001 C CNN
	1    4250 3450
	1    0    0    -1  
$EndComp
$Comp
L GND #PWR039
U 1 1 4C1524F4
P 2400 2700
F 0 "#PWR039" H 2400 2700 30  0001 C CNN
F 1 "GND" H 2400 2630 30  0001 C CNN
	1    2400 2700
	1    0    0    -1  
$EndComp
$Comp
L C C14
U 1 1 4C1524DD
P 4850 2700
F 0 "C14" H 4900 2800 50  0000 L CNN
F 1 "10u" H 4900 2600 50  0000 L CNN
	1    4850 2700
	1    0    0    -1  
$EndComp
$Comp
L C C13
U 1 1 4C1524AC
P 4550 2700
F 0 "C13" H 4600 2800 50  0000 L CNN
F 1 "33p" H 4600 2600 50  0000 L CNN
	1    4550 2700
	1    0    0    -1  
$EndComp
$Comp
L R R12
U 1 1 4C152498
P 4250 3200
F 0 "R12" V 4330 3200 50  0000 C CNN
F 1 "100k" V 4250 3200 50  0000 C CNN
	1    4250 3200
	1    0    0    -1  
$EndComp
$Comp
L R R11
U 1 1 4C152476
P 4250 2700
F 0 "R11" V 4330 2700 50  0000 C CNN
F 1 "68k" V 4250 2700 50  0000 C CNN
	1    4250 2700
	1    0    0    -1  
$EndComp
$Comp
L INDUCTOR L10
U 1 1 4C15242F
P 3900 2450
F 0 "L10" V 3850 2450 40  0000 C CNN
F 1 "2u2" V 4000 2450 40  0000 C CNN
	1    3900 2450
	0    -1   -1   0   
$EndComp
$Comp
L NCP1521B U11
U 1 1 4C152324
P 3050 2650
F 0 "U11" H 3050 2650 60  0000 C CNN
F 1 "NCP1521B" H 3050 2550 60  0000 C CNN
	1    3050 2650
	1    0    0    -1  
$EndComp
Text GLabel 7250 3750 0    40   Input ~ 0
DEBUG
Text GLabel 7250 3850 0    40   Input ~ 0
RST_N
Text GLabel 7250 4450 0    40   Input ~ 0
TCK
Text GLabel 7250 4550 0    40   Input ~ 0
TRST_N
Text GLabel 7250 4350 0    40   Input ~ 0
TMS
Text GLabel 7250 4250 0    40   Input ~ 0
TDI
Text GLabel 7250 4150 0    40   Output ~ 0
TDO
Text GLabel 15200 9225 2    40   Input ~ 0
SD_MOSI
Text GLabel 15200 9325 2    40   Input ~ 0
SD_SEL
Text GLabel 15200 9125 2    40   Output ~ 0
SD_MISO
Text GLabel 15200 9025 2    40   Input ~ 0
SD_CLK
Text GLabel 7250 3950 0    40   Input ~ 0
CLK
Text GLabel 2450 7150 2    50   Output ~ 0
CLK
$Comp
L GND #PWR040
U 1 1 4C13F149
P 1200 7450
F 0 "#PWR040" H 1200 7450 30  0001 C CNN
F 1 "GND" H 1200 7380 30  0001 C CNN
	1    1200 7450
	1    0    0    -1  
$EndComp
$Comp
L R R31
U 1 1 4C13F0D7
P 2350 7450
F 0 "R31" V 2430 7450 50  0000 C CNN
F 1 "470" V 2350 7450 50  0000 C CNN
	1    2350 7450
	1    0    0    -1  
$EndComp
$Comp
L R R30
U 1 1 4C13F04B
P 1900 6700
F 0 "R30" V 1980 6700 50  0000 C CNN
F 1 "1M" V 1900 6700 50  0000 C CNN
	1    1900 6700
	0    1    1    0   
$EndComp
$Comp
L R R51
U 1 1 4C12AEC9
P 6450 3050
F 0 "R51" V 6530 3050 50  0000 C CNN
F 1 "10k" V 6450 3050 50  0000 C CNN
	1    6450 3050
	1    0    0    -1  
$EndComp
$Comp
L +3.3V #PWR041
U 1 1 4C12ADFA
P 7100 3100
F 0 "#PWR041" H 7100 3060 30  0001 C CNN
F 1 "+3.3V" H 7100 3210 30  0000 C CNN
	1    7100 3100
	1    0    0    -1  
$EndComp
$Comp
L GND #PWR042
U 1 1 4C12A986
P 6900 2900
F 0 "#PWR042" H 6900 2900 30  0001 C CNN
F 1 "GND" H 6900 2830 30  0001 C CNN
	1    6900 2900
	1    0    0    -1  
$EndComp
$Comp
L +3.3V #PWR043
U 1 1 4C12A93A
P 6450 2800
F 0 "#PWR043" H 6450 2760 30  0001 C CNN
F 1 "+3.3V" H 6450 2910 30  0000 C CNN
	1    6450 2800
	1    0    0    -1  
$EndComp
$Comp
L C C50
U 1 1 4C12A8D3
P 6900 2650
F 0 "C50" H 6950 2750 50  0000 L CNN
F 1 "1u" H 6950 2550 50  0000 L CNN
	1    6900 2650
	-1   0    0    -1  
$EndComp
$Comp
L R R50
U 1 1 4C12A89E
P 6900 2200
F 0 "R50" V 6980 2200 50  0000 C CNN
F 1 "2R2" V 6900 2200 50  0000 C CNN
	1    6900 2200
	1    0    0    -1  
$EndComp
$Comp
L VDD #PWR044
U 1 1 4C12A868
P 7050 1800
F 0 "#PWR044" H 7050 1900 30  0001 C CNN
F 1 "VDD" H 7050 1910 30  0000 C CNN
	1    7050 1800
	1    0    0    -1  
$EndComp
$Comp
L SD_CARD P90
U 1 1 4C12A454
P 14600 9375
F 0 "P90" H 14350 8825 60  0000 C CNN
F 1 "SD_CARD" H 14600 9875 60  0000 C CNN
	1    14600 9375
	-1   0    0    -1  
$EndComp
$Comp
L XS1-L1-64LQFP U50
U 1 1 4C12A384
P 8250 2950
F 0 "U50" H 7650 1000 50  0000 C CNN
F 1 "XS1-L1-64LQFP" V 8250 3000 50  0000 C CNN
	1    8250 2950
	1    0    0    -1  
$EndComp
$Comp
L GND #PWR045
U 1 1 4BCE2340
P 14650 7775
F 0 "#PWR045" H 14650 7775 30  0001 C CNN
F 1 "GND" H 14650 7705 30  0001 C CNN
	1    14650 7775
	1    0    0    -1  
$EndComp
$Comp
L SW_PUSH SW83
U 1 1 4BCE2309
P 14300 7325
F 0 "SW83" H 14450 7435 50  0000 C CNN
F 1 "BUTTON C" H 14300 7245 50  0000 C CNN
	1    14300 7325
	0    -1   -1   0   
$EndComp
$Comp
L SW_PUSH SW84
U 1 1 4BCE2308
P 14650 7325
F 0 "SW84" H 14800 7435 50  0000 C CNN
F 1 "BUTTON D" H 14650 7245 50  0000 C CNN
	1    14650 7325
	0    -1   -1   0   
$EndComp
$Comp
L SW_PUSH SW82
U 1 1 4BCE22F1
P 13950 7325
F 0 "SW82" H 14100 7435 50  0000 C CNN
F 1 "BUTTON B" H 13950 7245 50  0000 C CNN
	1    13950 7325
	0    -1   -1   0   
$EndComp
$Comp
L SW_PUSH SW81
U 1 1 4BCE22B6
P 13600 7325
F 0 "SW81" H 13750 7435 50  0000 C CNN
F 1 "BUTTON A" H 13600 7245 50  0000 C CNN
	1    13600 7325
	0    -1   -1   0   
$EndComp
$Comp
L R R84
U 1 1 4B86E018
P 15200 3950
F 0 "R84" V 15280 3950 50  0000 C CNN
F 1 "470" V 15200 3950 50  0000 C CNN
	1    15200 3950
	0    1    1    0   
$EndComp
$Comp
L R R83
U 1 1 4B86E011
P 15200 3650
F 0 "R83" V 15280 3650 50  0000 C CNN
F 1 "470" V 15200 3650 50  0000 C CNN
	1    15200 3650
	0    1    1    0   
$EndComp
$Comp
L LED D81
U 1 1 4B86DED6
P 14550 3950
F 0 "D81" H 14550 4050 50  0000 C CNN
F 1 "LED 2mA, 2.5V, green" H 14550 3850 50  0000 C CNN
	1    14550 3950
	1    0    0    -1  
$EndComp
$Comp
L LED D80
U 1 1 4B86DEC5
P 14550 3650
F 0 "D80" H 14550 3750 50  0000 C CNN
F 1 "LED 2mA, 2.5V, red" H 14550 3550 50  0000 C CNN
	1    14550 3650
	1    0    0    -1  
$EndComp
Text Notes 15150 5600 0    60   ~ 0
DEV1
Text Notes 15125 4700 0    60   ~ 0
SPARE
Text Notes 15150 5150 0    60   ~ 0
DEV2
Text Notes 6250 4050 1    60   ~ 0
BOOT MODE
$Comp
L DIP_SWITCH_4 SW80
U 2 1 4B8446F7
P 14700 4650
F 0 "SW80" H 14700 4500 60  0000 C CNN
F 1 "DIP" H 14700 4800 60  0000 C CNN
	2    14700 4650
	1    0    0    -1  
$EndComp
$Comp
L GND #PWR046
U 1 1 4B8445B4
P 4100 7300
F 0 "#PWR046" H 4100 7300 30  0001 C CNN
F 1 "GND" H 4100 7230 30  0001 C CNN
	1    4100 7300
	1    0    0    -1  
$EndComp
Entry Wire Line
	4600 6950 4700 7050
Entry Wire Line
	4600 6850 4700 6950
Entry Wire Line
	4600 6750 4700 6850
Entry Wire Line
	4600 6650 4700 6750
Text Label 4200 6950 0    60   ~ 0
IEC_ATN
Text Label 4200 6750 0    60   ~ 0
IEC_DATA
Text Label 4200 6850 0    60   ~ 0
IEC_CLK
Text Label 4200 6650 0    60   ~ 0
IEC_RST
$Comp
L CONN_6 P70
U 1 1 4B84450A
P 3600 6900
F 0 "P70" V 3550 6900 60  0000 C CNN
F 1 "IEC" V 3650 6900 60  0000 C CNN
	1    3600 6900
	-1   0    0    1   
$EndComp
$Comp
L +5V #PWR047
U 1 1 4B844494
P 3700 8050
F 0 "#PWR047" H 3700 8140 20  0001 C CNN
F 1 "+5V" H 3700 8140 30  0000 C CNN
	1    3700 8050
	1    0    0    -1  
$EndComp
Text Label 4250 8900 0    60   ~ 0
IEC_ATN
Text Label 4250 8550 0    60   ~ 0
IEC_DATA
Text Label 4250 8200 0    60   ~ 0
IEC_CLK
Entry Wire Line
	4600 8900 4700 8800
Entry Wire Line
	4600 8550 4700 8450
Entry Wire Line
	4600 8200 4700 8100
Entry Wire Line
	4600 9250 4700 9150
Text Label 4250 9250 0    60   ~ 0
IEC_RST
$Comp
L R R76
U 1 1 4B8443F9
P 4000 9250
F 0 "R76" V 4080 9250 50  0000 C CNN
F 1 "10k" V 4000 9250 50  0000 C CNN
	1    4000 9250
	0    -1   -1   0   
$EndComp
$Comp
L R R75
U 1 1 4B8443EA
P 4000 8900
F 0 "R75" V 4080 8900 50  0000 C CNN
F 1 "10k" V 4000 8900 50  0000 C CNN
	1    4000 8900
	0    -1   -1   0   
$EndComp
$Comp
L R R74
U 1 1 4B8443E4
P 4000 8550
F 0 "R74" V 4080 8550 50  0000 C CNN
F 1 "10k" V 4000 8550 50  0000 C CNN
	1    4000 8550
	0    -1   -1   0   
$EndComp
$Comp
L R R73
U 1 1 4B8443D1
P 4000 8200
F 0 "R73" V 4080 8200 50  0000 C CNN
F 1 "10k" V 4000 8200 50  0000 C CNN
	1    4000 8200
	0    -1   -1   0   
$EndComp
Text GLabel 15200 9525 2    40   Output ~ 0
WPROT
Text GLabel 15200 9625 2    40   Output ~ 0
DETECT
$Comp
L GND #PWR048
U 1 1 4B843E79
P 13600 9500
F 0 "#PWR048" H 13600 9500 30  0001 C CNN
F 1 "GND" H 13600 9430 30  0001 C CNN
	1    13600 9500
	1    0    0    -1  
$EndComp
$Comp
L R R90
U 1 1 4B843E4C
P 13275 9025
F 0 "R90" V 13355 9025 50  0000 C CNN
F 1 "2R2" V 13275 9025 50  0000 C CNN
	1    13275 9025
	0    1    1    0   
$EndComp
$Comp
L C C90
U 1 1 4B843E14
P 13600 9250
F 0 "C90" H 13650 9350 50  0000 L CNN
F 1 "10u" H 13650 9150 50  0000 L CNN
	1    13600 9250
	1    0    0    -1  
$EndComp
$Comp
L DIP_SWITCH_4 SW80
U 3 1 4B71DD34
P 14700 5100
F 0 "SW80" H 14700 4950 60  0000 C CNN
F 1 "DIP" H 14700 5250 60  0000 C CNN
	3    14700 5100
	1    0    0    -1  
$EndComp
$Comp
L DIP_SWITCH_4 SW80
U 4 1 4B71DD32
P 14700 5550
F 0 "SW80" H 14700 5400 60  0000 C CNN
F 1 "DIP" H 14700 5700 60  0000 C CNN
	4    14700 5550
	1    0    0    -1  
$EndComp
$Comp
L DIP_SWITCH_4 SW80
U 1 1 4B71DD2D
P 6450 3800
F 0 "SW80" H 6450 3650 60  0000 C CNN
F 1 "DIP" H 6450 3950 60  0000 C CNN
	1    6450 3800
	0    1    1    0   
$EndComp
$Comp
L 74HCT04 U71
U 4 1 4B7096A3
P 5550 9250
F 0 "U71" H 5700 9350 40  0000 C CNN
F 1 "74LVC14" H 5750 9150 40  0000 C CNN
	4    5550 9250
	1    0    0    -1  
$EndComp
$Comp
L GND #PWR049
U 1 1 4B7096A2
P 5500 9450
F 0 "#PWR049" H 5500 9450 30  0001 C CNN
F 1 "GND" H 5500 9380 30  0001 C CNN
	1    5500 9450
	1    0    0    -1  
$EndComp
Text Label 4800 9250 0    60   ~ 0
IEC_RST
Entry Wire Line
	4700 9150 4800 9250
Text GLabel 4100 10225 0    50   Input ~ 0
UART-TX
Text GLabel 4100 10425 0    50   Output ~ 0
UART-RX
$Comp
L +3.3V #PWR050
U 1 1 4AC7DA5F
P 10900 1150
F 0 "#PWR050" H 10900 1110 30  0001 C CNN
F 1 "+3.3V" H 10900 1260 30  0000 C CNN
	1    10900 1150
	1    0    0    -1  
$EndComp
$Comp
L GND #PWR051
U 1 1 4AC7DA4F
P 10900 1800
F 0 "#PWR051" H 10900 1800 30  0001 C CNN
F 1 "GND" H 10900 1730 30  0001 C CNN
	1    10900 1800
	1    0    0    -1  
$EndComp
$Comp
L C C53
U 1 1 4AC7DA2B
P 11350 1450
F 0 "C53" H 11400 1550 50  0000 L CNN
F 1 "1u" H 11400 1350 50  0000 L CNN
	1    11350 1450
	1    0    0    -1  
$EndComp
$Comp
L C C52
U 1 1 4AC7DA22
P 10900 1450
F 0 "C52" H 10950 1550 50  0000 L CNN
F 1 "1u" H 10950 1350 50  0000 L CNN
	1    10900 1450
	1    0    0    -1  
$EndComp
$Comp
L C C51
U 1 1 4AC7D9E4
P 10450 1450
F 0 "C51" H 10500 1550 50  0000 L CNN
F 1 "1u" H 10500 1350 50  0000 L CNN
	1    10450 1450
	1    0    0    -1  
$EndComp
$Comp
L +5V #PWR052
U 1 1 4A97123F
P 2750 1450
F 0 "#PWR052" H 2750 1540 20  0001 C CNN
F 1 "+5V" H 2750 1540 30  0000 C CNN
	1    2750 1450
	1    0    0    -1  
$EndComp
$Comp
L +3.3V #PWR053
U 1 1 4A971222
P 4650 1500
F 0 "#PWR053" H 4650 1460 30  0001 C CNN
F 1 "+3.3V" H 4650 1610 30  0000 C CNN
	1    4650 1500
	1    0    0    -1  
$EndComp
$Comp
L GND #PWR054
U 1 1 4A97121A
P 4300 1900
F 0 "#PWR054" H 4300 1900 30  0001 C CNN
F 1 "GND" H 4300 1830 30  0001 C CNN
	1    4300 1900
	1    0    0    -1  
$EndComp
$Comp
L GND #PWR055
U 1 1 4A971218
P 3350 2100
F 0 "#PWR055" H 3350 2100 30  0001 C CNN
F 1 "GND" H 3350 2030 30  0001 C CNN
	1    3350 2100
	1    0    0    -1  
$EndComp
$Comp
L C C12
U 1 1 4A9711DD
P 4300 1700
F 0 "C12" H 4350 1800 50  0000 L CNN
F 1 "1u" H 4350 1600 50  0000 L CNN
	1    4300 1700
	1    0    0    -1  
$EndComp
$Comp
L +3.3V #PWR056
U 1 1 4AEE0E16
P 12975 9000
F 0 "#PWR056" H 12975 8960 30  0001 C CNN
F 1 "+3.3V" H 12975 9110 30  0000 C CNN
	1    12975 9000
	1    0    0    -1  
$EndComp
$Comp
L C C30
U 1 1 4AECC855
P 1450 8000
F 0 "C30" H 1500 8100 50  0000 L CNN
F 1 "18p" H 1500 7900 50  0000 L CNN
	1    1450 8000
	1    0    0    -1  
$EndComp
$Comp
L C C31
U 1 1 4AECC848
P 2350 8000
F 0 "C31" H 2400 8100 50  0000 L CNN
F 1 "18p" H 2400 7900 50  0000 L CNN
	1    2350 8000
	1    0    0    -1  
$EndComp
$Comp
L GND #PWR057
U 1 1 4AECC7F8
P 2350 8250
F 0 "#PWR057" H 2350 8250 30  0001 C CNN
F 1 "GND" H 2350 8180 30  0001 C CNN
	1    2350 8250
	1    0    0    -1  
$EndComp
$Comp
L GND #PWR058
U 1 1 4AECC7F2
P 1450 8250
F 0 "#PWR058" H 1450 8250 30  0001 C CNN
F 1 "GND" H 1450 8180 30  0001 C CNN
	1    1450 8250
	1    0    0    -1  
$EndComp
$Comp
L CRYSTAL X30
U 1 1 4AECC4B7
P 1900 7750
F 0 "X30" H 1900 7900 60  0000 C CNN
F 1 "20MHz" H 1900 7600 60  0000 C CNN
	1    1900 7750
	-1   0    0    1   
$EndComp
Entry Wire Line
	4700 8100 4800 8200
Entry Wire Line
	4700 8450 4800 8550
Entry Wire Line
	4700 8800 4800 8900
Entry Wire Line
	4700 7450 4800 7350
Entry Wire Line
	4700 7100 4800 7000
Entry Wire Line
	4700 6750 4800 6650
Text Label 4800 8200 0    60   ~ 0
IEC_CLK
Text Label 4800 8550 0    60   ~ 0
IEC_DATA
Text Label 4800 8900 0    60   ~ 0
IEC_ATN
Text Label 4800 7350 0    60   ~ 0
IEC_ATN
Text Label 4800 7000 0    60   ~ 0
IEC_DATA
Text Label 4800 6650 0    60   ~ 0
IEC_CLK
$Comp
L +3.3V #PWR059
U 1 1 4AEB77A7
P 6200 6450
F 0 "#PWR059" H 6200 6410 30  0001 C CNN
F 1 "+3.3V" H 6200 6560 30  0000 C CNN
	1    6200 6450
	1    0    0    -1  
$EndComp
$Comp
L GND #PWR060
U 1 1 4AEB7799
P 6200 7550
F 0 "#PWR060" H 6200 7550 30  0001 C CNN
F 1 "GND" H 6200 7480 30  0001 C CNN
	1    6200 7550
	1    0    0    -1  
$EndComp
$Comp
L 74HCT04 U70
U 3 1 4AEB7701
P 6150 7350
F 0 "U70" H 6300 7450 40  0000 C CNN
F 1 "74LVC06" H 6350 7250 40  0000 C CNN
	3    6150 7350
	-1   0    0    -1  
$EndComp
$Comp
L 74HCT04 U70
U 2 1 4AEB76F9
P 6150 7000
F 0 "U70" H 6300 7100 40  0000 C CNN
F 1 "74LVC06" H 6350 6900 40  0000 C CNN
	2    6150 7000
	-1   0    0    -1  
$EndComp
$Comp
L 74HCT04 U70
U 1 1 4AEB76EB
P 6150 6650
F 0 "U70" H 6300 6750 40  0000 C CNN
F 1 "74LVC06" H 6350 6550 40  0000 C CNN
	1    6150 6650
	-1   0    0    -1  
$EndComp
$Comp
L +3.3V #PWR061
U 1 1 4AEB6D4D
P 5500 8000
F 0 "#PWR061" H 5500 7960 30  0001 C CNN
F 1 "+3.3V" H 5500 8110 30  0000 C CNN
	1    5500 8000
	1    0    0    -1  
$EndComp
$Comp
L 74HCT04 U71
U 3 1 4AEB6CC8
P 5550 8900
F 0 "U71" H 5700 9000 40  0000 C CNN
F 1 "74LVC14" H 5750 8800 40  0000 C CNN
	3    5550 8900
	1    0    0    -1  
$EndComp
$Comp
L 74HCT04 U71
U 2 1 4AEB6CC1
P 5550 8550
F 0 "U71" H 5700 8650 40  0000 C CNN
F 1 "74LVC14" H 5750 8450 40  0000 C CNN
	2    5550 8550
	1    0    0    -1  
$EndComp
$Comp
L 74HCT04 U71
U 1 1 4AEB6C35
P 5550 8200
F 0 "U71" H 5700 8300 40  0000 C CNN
F 1 "74LVC14" H 5750 8100 40  0000 C CNN
	1    5550 8200
	1    0    0    -1  
$EndComp
$Comp
L +3.3V #PWR062
U 1 1 4AEB695B
P 7200 1100
F 0 "#PWR062" H 7200 1060 30  0001 C CNN
F 1 "+3.3V" H 7200 1210 30  0000 C CNN
	1    7200 1100
	1    0    0    -1  
$EndComp
$Comp
L GND #PWR063
U 1 1 4AEB6933
P 7200 4800
F 0 "#PWR063" H 7200 4800 30  0001 C CNN
F 1 "GND" H 7200 4730 30  0001 C CNN
	1    7200 4800
	1    0    0    -1  
$EndComp
$Comp
L GND #PWR064
U 1 1 4AEB6860
P 13900 9875
F 0 "#PWR064" H 13900 9875 30  0001 C CNN
F 1 "GND" H 13900 9805 30  0001 C CNN
	1    13900 9875
	1    0    0    -1  
$EndComp
$EndSCHEMATC
