PCBNEW-LibModule-V1  Di 06 Jul 2010 23:35:42 CEST
$INDEX
HC-49US
PTS645VH83
AU-Y1006-R
SOD-323
FPC_FCC_16_1MM
SMD-TESTPOINT
6X1_50MIL
pin_array_10x2
NHD-C0220AZ-FSW-FTW
LQFP64-EP
SD-RSMT-2-MQ-WF
SM0805_FIXED
SOCKET-DIN-SDS-60J
S
SWITCH_RT_ANGLE
DIP-SWITCH-4X
DC-SOCKET-PJ-047B
pin_array_16
BOX_HOLES_RL6215
LCD_80X36
SO8N-8MM
LED-3MM-FIXED
$EndINDEX
$MODULE PTS645VH83
Po 0 0 0 15 4AE2153B 00000000 ~~
Li PTS645VH83
Sc 00000000
AR
Op 0 0 0
T0 0 1000 600 600 0 120 N V 21 "S"
T1 0 1750 400 300 0 60 N I 21 "PTS645VH83"
DS -1500 500 1500 500 80 21
DS -1500 -1000 -1500 500 80 21
DS -1500 -1000 1500 -1000 80 21
DS 1500 -1000 1500 500 80 21
$PAD
Sh "1" O 787 591 0 0 0
Dr 394 0 0
At STD N 00E0FFFF
Ne 0 ""
Po -886 0
$EndPAD
$PAD
Sh "2" O 787 591 0 0 0
Dr 394 0 0
At STD N 00E0FFFF
Ne 0 ""
Po 886 0
$EndPAD
$PAD
Sh "" C 800 800 0 0 0
Dr 472 0 0
At STD N 00E0FFFF
Ne 0 ""
Po 1378 984
$EndPAD
$PAD
Sh "" C 800 800 0 0 0
Dr 472 0 0
At STD N 00E0FFFF
Ne 0 ""
Po -1378 984
$EndPAD
$EndMODULE  PTS645VH83
$MODULE AU-Y1006-R
Po 0 0 0 15 4AEF5FE2 00000000 ~~
Li AU-Y1006-R
Sc 00000000
AR
Op 0 0 0
T0 0 3500 400 400 0 50 N V 21 N"AU-Y1006-R"
T1 0 2500 600 600 0 120 N V 21 N"VAL**"
DS -2562 5570 -2562 0 50 21
DS -2562 0 2562 0 50 21
DS 2562 0 2562 5566 50 21
DS 2562 5566 -2562 5570 50 21
$PAD
Sh "4" R 354 1181 0 0 0
Dr 0 0 0
At SMD N 00888000
Ne 0 ""
Po 1378 0
$EndPAD
$PAD
Sh "3" R 354 1181 0 0 0
Dr 0 0 0
At SMD N 00888000
Ne 0 ""
Po 394 0
$EndPAD
$PAD
Sh "2" R 354 1181 0 0 0
Dr 0 0 0
At SMD N 00888000
Ne 0 ""
Po -394 0
$EndPAD
$PAD
Sh "" C 1181 1181 0 0 0
Dr 906 0 0
At STD N 00E0FFFF
Ne 0 ""
Po 2575 1461
$EndPAD
$PAD
Sh "" C 1181 1181 0 0 0
Dr 906 0 0
At STD N 00E0FFFF
Ne 0 ""
Po -2587 1461
$EndPAD
$PAD
Sh "1" R 354 1181 0 0 0
Dr 0 0 0
At SMD N 00888000
Ne 0 ""
Po -1378 0
$EndPAD
$EndMODULE  AU-Y1006-R
$MODULE HC-49US
Po 0 0 0 15 4A905481 00000000 ~~
Li HC-49US
Sc 00000000
AR
Op 0 0 0
T0 100 1500 600 600 0 120 N V 21 N"HC-49US"
T1 0 -1400 600 600 0 120 N V 21 N"VAL**"
DS 2300 800 2300 600 80 21
DS 2300 -800 2300 -600 80 21
DS -2100 -1000 2100 -1000 80 21
DS -2300 -600 -2300 -800 80 21
DS -2300 800 -2300 600 80 21
DS 2100 1000 -2100 1000 80 21
DA 2100 800 2300 800 900 80 21
DA -2100 800 -2100 1000 900 80 21
DA -2100 -800 -2300 -800 900 80 21
DA 2100 -800 2100 -1000 900 80 21
$PAD
Sh "2" R 2200 830 0 0 0
Dr 0 0 0
At SMD N 00888000
Ne 0 ""
Po 1870 0
$EndPAD
$PAD
Sh "1" R 2200 830 0 0 0
Dr 0 0 0
At SMD N 00888000
Ne 0 ""
Po -1870 0
$EndPAD
$EndMODULE  HC-49US
$MODULE SOD-323
Po 0 0 0 15 4B708BA3 00000000 ~~
Li SOD-323
Sc 00000000
AR
Op 0 0 0
T0 39 -630 276 276 0 59 N V 21 N"SOD-323"
T1 39 669 276 276 0 59 N I 21 N"VAL**"
DS -709 394 -276 394 59 21
DS -709 -394 -276 -394 59 21
DS 827 394 276 394 59 21
DS 827 -394 276 -394 59 21
DS 826 -394 826 394 59 21
DS 709 394 709 -394 59 21
DS -709 -394 -709 394 59 21
$PAD
Sh "2" R 256 531 0 0 0
Dr 0 0 0
At SMD N 00888000
Ne 0 ""
Po 472 0
$EndPAD
$PAD
Sh "1" R 256 531 0 0 0
Dr 0 0 0
At SMD N 00888000
Ne 0 ""
Po -472 0
$EndPAD
$EndMODULE  SOD-323
$MODULE FPC_FCC_16_1MM
Po 0 0 0 15 4B85A874 00000000 ~~
Li FPC_FCC_16_1MM
Sc 00000000
AR
Op 0 0 0
T0 0 -1378 512 512 0 98 N V 21 N"FPC_FCC_16_1MM"
T1 -197 1378 512 512 0 98 N V 21 N"VAL**"
DS -3740 -984 -3740 984 59 21
DS -3740 984 3740 984 59 21
DS 3740 984 3740 -984 59 21
DS 3740 -984 -3740 -984 59 21
$PAD
Sh "9" O 472 591 0 0 0
Dr 276 0 0
At STD N 00E0FFFF
Ne 0 ""
Po 196 393
$EndPAD
$PAD
Sh "10" O 472 591 0 0 0
Dr 276 0 0
At STD N 00E0FFFF
Ne 0 ""
Po 590 -394
$EndPAD
$PAD
Sh "12" O 472 591 0 0 0
Dr 276 0 0
At STD N 00E0FFFF
Ne 0 ""
Po 1377 -394
$EndPAD
$PAD
Sh "11" O 472 591 0 0 0
Dr 276 0 0
At STD N 00E0FFFF
Ne 0 ""
Po 983 393
$EndPAD
$PAD
Sh "15" O 472 591 0 0 0
Dr 276 0 0
At STD N 00E0FFFF
Ne 0 ""
Po 2558 393
$EndPAD
$PAD
Sh "16" O 472 591 0 0 0
Dr 276 0 0
At STD N 00E0FFFF
Ne 0 ""
Po 2952 -394
$EndPAD
$PAD
Sh "14" O 472 591 0 0 0
Dr 276 0 0
At STD N 00E0FFFF
Ne 0 ""
Po 2165 -394
$EndPAD
$PAD
Sh "13" O 472 591 0 0 0
Dr 276 0 0
At STD N 00E0FFFF
Ne 0 ""
Po 1771 393
$EndPAD
$PAD
Sh "5" O 472 591 0 0 0
Dr 276 0 0
At STD N 00E0FFFF
Ne 0 ""
Po -1378 393
$EndPAD
$PAD
Sh "6" O 472 591 0 0 0
Dr 276 0 0
At STD N 00E0FFFF
Ne 0 ""
Po -984 -394
$EndPAD
$PAD
Sh "8" O 472 591 0 0 0
Dr 276 0 0
At STD N 00E0FFFF
Ne 0 ""
Po -197 -394
$EndPAD
$PAD
Sh "7" O 472 591 0 0 0
Dr 276 0 0
At STD N 00E0FFFF
Ne 0 ""
Po -591 393
$EndPAD
$PAD
Sh "3" O 472 591 0 0 0
Dr 276 0 0
At STD N 00E0FFFF
Ne 0 ""
Po -2166 393
$EndPAD
$PAD
Sh "4" O 472 591 0 0 0
Dr 276 0 0
At STD N 00E0FFFF
Ne 0 ""
Po -1772 -394
$EndPAD
$PAD
Sh "2" O 472 591 0 0 0
Dr 276 0 0
At STD N 00E0FFFF
Ne 0 ""
Po -2559 -394
$EndPAD
$PAD
Sh "1" O 472 591 0 0 0
Dr 276 0 0
At STD N 00E0FFFF
Ne 0 ""
Po -2953 393
$EndPAD
$EndMODULE  FPC_FCC_16_1MM
$MODULE SMD-TESTPOINT
Po 0 0 0 15 4AF35876 00000000 ~~
Li SMD-TESTPOINT
Sc 00000000
AR
Op 0 0 0
T0 0 -500 250 250 0 50 N V 21 N"P"
T1 0 500 250 250 0 40 N I 21 N"VAL**"
$PAD
Sh "1" C 472 472 0 0 0
Dr 0 0 0
At CONN N 00808000
Ne 0 ""
Po 0 0
$EndPAD
$EndMODULE  SMD-TESTPOINT
$MODULE 6X1_50MIL
Po 0 0 0 15 4AF35976 00000000 ~~
Li 6X1_50MIL
Cd Connecteur 6 pins
Kw CONN DEV
Sc 00000000
AR
Op 0 0 0
T0 100 -500 250 250 0 50 N V 21 N"6X1_50MIL"
T1 0 600 250 250 0 50 N I 21 N"Val**"
DS -950 -300 -950 -200 80 21
DS -950 200 -950 300 80 21
DS -1550 -300 1550 -300 80 21
DS 1550 -300 1550 300 80 21
DS 1550 300 -1550 300 80 21
DS -1550 300 -1550 -300 80 21
$PAD
Sh "1" R 400 400 0 0 0
Dr 276 0 0
At STD N 00E0FFFF
Ne 0 ""
Po -1250 0
$EndPAD
$PAD
Sh "2" C 400 400 0 0 0
Dr 276 0 0
At STD N 00E0FFFF
Ne 0 ""
Po -750 0
$EndPAD
$PAD
Sh "3" C 400 400 0 0 0
Dr 276 0 0
At STD N 00E0FFFF
Ne 0 ""
Po -250 0
$EndPAD
$PAD
Sh "4" C 400 400 0 0 0
Dr 276 0 0
At STD N 00E0FFFF
Ne 0 ""
Po 250 0
$EndPAD
$PAD
Sh "5" C 400 400 0 0 0
Dr 276 0 0
At STD N 00E0FFFF
Ne 0 ""
Po 750 0
$EndPAD
$PAD
Sh "6" C 400 400 0 0 0
Dr 276 0 0
At STD N 00E0FFFF
Ne 0 ""
Po 1250 0
$EndPAD
$SHAPE3D
Na "pin_array/pins_array_6x1.wrl"
Sc 0.000000 1.000000 1.000000
Of 0.000000 0.000000 0.000000
Ro 0.000000 0.000000 0.000000
$EndSHAPE3D
$EndMODULE  6X1_50MIL
$MODULE NHD-C0220AZ-FSW-FTW
Po 0 0 0 15 4C193825 00000000 ~~
Li NHD-C0220AZ-FSW-FTW
Sc 00000000
AR
Op 0 0 0
T0 -500 1000 600 600 0 120 N V 21 N"NHD-C0220AZ-FSW-FTW"
T1 0 0 600 600 0 120 N V 21 N"VAL**"
DS -15748 -3936 -16142 -3936 150 26
DS -16142 -3936 -16142 -3543 150 26
DS -13386 -3937 -13780 -3937 150 26
DS -13780 -3937 -13780 -3543 150 26
DS 13780 -3543 13780 -3937 150 26
DS 13780 -3937 13386 -3937 150 26
DS -15748 3347 -16142 3347 150 26
DS -16142 3347 -16142 2953 150 26
DS -13386 5906 -13780 5906 150 26
DS -13780 5906 -13780 5512 150 26
DS 13386 5906 13780 5906 150 26
DS 13780 5906 13780 5512 150 26
$PAD
Sh "K" C 1181 1181 0 0 0
Dr 787 0 0
At STD N 00E0FFFF
Ne 0 ""
Po -15356 -1969
$EndPAD
$PAD
Sh "A" C 1181 1181 0 0 0
Dr 787 0 0
At STD N 00E0FFFF
Ne 0 ""
Po -15356 1378
$EndPAD
$PAD
Sh "9" O 512 630 0 0 0
Dr 276 0 0
At STD N 00E0FFFF
Ne 0 ""
Po -1182 5906
$EndPAD
$PAD
Sh "10" O 512 630 0 0 0
Dr 276 0 0
At STD N 00E0FFFF
Ne 0 ""
Po -1970 5906
$EndPAD
$PAD
Sh "12" O 512 630 0 0 0
Dr 276 0 0
At STD N 00E0FFFF
Ne 0 ""
Po -3545 5906
$EndPAD
$PAD
Sh "11" O 512 630 0 0 0
Dr 276 0 0
At STD N 00E0FFFF
Ne 0 ""
Po -2757 5906
$EndPAD
$PAD
Sh "14" O 512 630 0 0 0
Dr 276 0 0
At STD N 00E0FFFF
Ne 0 ""
Po -5120 5906
$EndPAD
$PAD
Sh "13" O 512 630 0 0 0
Dr 276 0 0
At STD N 00E0FFFF
Ne 0 ""
Po -4332 5906
$EndPAD
$PAD
Sh "5" O 512 630 0 0 0
Dr 276 0 0
At STD N 00E0FFFF
Ne 0 ""
Po 1968 5906
$EndPAD
$PAD
Sh "6" O 512 630 0 0 0
Dr 276 0 0
At STD N 00E0FFFF
Ne 0 ""
Po 1180 5906
$EndPAD
$PAD
Sh "8" O 512 630 0 0 0
Dr 276 0 0
At STD N 00E0FFFF
Ne 0 ""
Po -395 5906
$EndPAD
$PAD
Sh "7" O 512 630 0 0 0
Dr 276 0 0
At STD N 00E0FFFF
Ne 0 ""
Po 393 5906
$EndPAD
$PAD
Sh "3" O 512 630 0 0 0
Dr 276 0 0
At STD N 00E0FFFF
Ne 0 ""
Po 3543 5906
$EndPAD
$PAD
Sh "4" O 512 630 0 0 0
Dr 276 0 0
At STD N 00E0FFFF
Ne 0 ""
Po 2755 5906
$EndPAD
$PAD
Sh "2" O 512 630 0 0 0
Dr 276 0 0
At STD N 00E0FFFF
Ne 0 ""
Po 4330 5906
$EndPAD
$PAD
Sh "1" O 512 630 0 0 0
Dr 276 0 0
At STD N 00E0FFFF
Ne 0 ""
Po 5118 5906
$EndPAD
$EndMODULE  NHD-C0220AZ-FSW-FTW
$MODULE SD-RSMT-2-MQ-WF
Po 0 0 0 0 4C1FAD5E 00000000 ~~
Li SD-RSMT-2-MQ-WF
Sc 00000000
AR /4B6ED75B/4BAA6A9C
Op 0 0 0
T0 4900 450 500 400 0 100 M V 20 N"J2"
T1 0 -6000 300 300 0 60 M V 20 N"SD_CARD"
DS -5197 -39 5827 -39 70 20
DS 5827 -9803 5827 -39 70 20
DS -5197 -12047 5827 -12047 70 20
DS 5827 -12047 5827 -11260 70 20
DS -5197 -11260 -5197 -12047 70 20
DS -5197 -39 -5197 -9803 70 20
$PAD
Sh "GND2" R 787 1181 0 0 0
Dr 0 0 0
At SMD N 00440001
Ne 2 "GND"
Po 6228 -10531
$EndPAD
$PAD
Sh "GND1" R 787 1181 0 0 0
Dr 0 0 0
At SMD N 00440001
Ne 2 "GND"
Po -5622 -10531
$EndPAD
$PAD
Sh "3" R 394 591 0 0 0
Dr 0 0 0
At SMD N 00440001
Ne 2 "GND"
Po 740 394
$EndPAD
$PAD
Sh "2" R 394 591 0 0 0
Dr 0 0 0
At SMD N 00440001
Ne 5 "N-000189"
Po 1724 394
$EndPAD
$PAD
Sh "1" R 394 591 0 0 0
Dr 0 0 0
At SMD N 00440001
Ne 3 "N-000168"
Po 2709 394
$EndPAD
$PAD
Sh "9" R 394 591 0 0 0
Dr 0 0 0
At SMD N 00440001
Ne 2 "GND"
Po 3693 394
$EndPAD
$PAD
Sh "DT" R 276 591 0 0 0
Dr 0 0 0
At SMD N 00440001
Ne 7 "N-000231"
Po -4350 394
$EndPAD
$PAD
Sh "8" R 394 591 0 0 0
Dr 0 0 0
At SMD N 00440001
Ne 2 "GND"
Po -3839 394
$EndPAD
$PAD
Sh "7" R 394 591 0 0 0
Dr 0 0 0
At SMD N 00440001
Ne 4 "N-000169"
Po -3169 394
$EndPAD
$PAD
Sh "5" R 394 591 0 0 0
Dr 0 0 0
At SMD N 00440001
Ne 6 "N-000190"
Po -1228 394
$EndPAD
$PAD
Sh "6" R 394 591 0 0 0
Dr 0 0 0
At SMD N 00440001
Ne 2 "GND"
Po -2213 394
$EndPAD
$PAD
Sh "4" R 394 591 0 0 0
Dr 0 0 0
At SMD N 00440001
Ne 1 "+3.3V"
Po -244 394
$EndPAD
$PAD
Sh "WP" R 276 591 0 0 0
Dr 0 0 0
At SMD N 00440001
Ne 8 "N-000240"
Po -4823 394
$EndPAD
$PAD
Sh "" C 512 512 0 0 0
Dr 433 0 0
At STD N 00C0FFFF
Ne 0 ""
Po -4528 -709
$EndPAD
$PAD
Sh "" C 748 748 0 0 0
Dr 630 0 0
At STD N 00C0FFFF
Ne 0 ""
Po 3740 -709
$EndPAD
$EndMODULE  SD-RSMT-2-MQ-WF
$MODULE SM0805_FIXED
Po 0 0 0 15 4C1FB11A 00000000 ~~
Li SM0805_FIXED
Sc 00000000
AR
Op 0 0 0
At SMD
T0 0 -580 250 250 0 50 N V 21 N"SM0805"
T1 0 0 250 250 0 50 N I 21 N"Val*"
DS 200 -340 620 -340 60 21
DS 620 -340 620 340 60 21
DS 620 340 220 340 60 21
DS -200 -340 -620 -340 60 21
DS -620 -340 -620 340 60 21
DS -620 340 -200 340 60 21
$PAD
Sh "1" R 350 550 0 0 0
Dr 0 0 0
At SMD N 00888000
Ne 0 ""
Po -375 0
$EndPAD
$PAD
Sh "2" R 350 550 0 0 0
Dr 0 0 0
At SMD N 00888000
Ne 0 ""
Po 375 0
$EndPAD
$SHAPE3D
Na "smd/chip_cms.wrl"
Sc 0.100000 0.100000 0.100000
Of 0.000000 0.000000 0.000000
Ro 0.000000 0.000000 0.000000
$EndSHAPE3D
$EndMODULE  SM0805_FIXED
$MODULE S
Po 0 0 0 15 4C21312C 00000000 ~~
Li S
Sc 00000000
AR
Op 0 0 0
T0 0 1000 250 250 0 50 N V 21 N"S"
T1 0 1750 250 250 0 50 N I 21 N"PTS645VH83"
DS 1575 -945 -1575 -945 60 21
DS -1575 -945 -1575 394 60 21
DS 1575 -945 1575 394 60 21
DS -866 1181 866 1181 60 21
$PAD
Sh "1" O 591 748 0 0 0
Dr 394 0 0
At STD N 00E0FFFF
Ne 0 ""
Po -886 0
$EndPAD
$PAD
Sh "2" O 591 748 0 0 0
Dr 394 0 0
At STD N 00E0FFFF
Ne 0 ""
Po 886 0
$EndPAD
$PAD
Sh "" C 800 800 0 0 0
Dr 512 0 0
At STD N 00E0FFFF
Ne 0 ""
Po 1378 984
$EndPAD
$PAD
Sh "" C 800 800 0 0 0
Dr 512 0 0
At STD N 00E0FFFF
Ne 0 ""
Po -1378 984
$EndPAD
$EndMODULE  S
$MODULE SWITCH_RT_ANGLE
Po 0 0 0 15 4C2134AA 00000000 ~~
Li SWITCH_RT_ANGLE
Sc 00000000
AR
Op 0 0 0
T0 -157 1496 250 250 0 50 N V 21 N"S"
T1 79 -630 250 250 0 50 N I 21 N"EVQ-PF008K"
DS 1575 -945 -1575 -945 60 21
DS -1575 -945 -1575 394 60 21
DS 1575 -945 1575 394 60 21
DS -866 1181 866 1181 60 21
$PAD
Sh "1" O 591 748 0 0 0
Dr 394 0 0
At STD N 00E0FFFF
Ne 0 ""
Po -886 0
$EndPAD
$PAD
Sh "2" O 591 748 0 0 0
Dr 394 0 0
At STD N 00E0FFFF
Ne 0 ""
Po 886 0
$EndPAD
$PAD
Sh "" C 800 800 0 0 0
Dr 512 0 0
At STD N 00E0FFFF
Ne 0 ""
Po 1378 984
$EndPAD
$PAD
Sh "" C 800 800 0 0 0
Dr 512 0 0
At STD N 00E0FFFF
Ne 0 ""
Po -1378 984
$EndPAD
$EndMODULE  SWITCH_RT_ANGLE
$MODULE DIP-SWITCH-4X
Po 0 0 0 15 4C224FEB 00000000 ~~
Li DIP-SWITCH-4X
Cd 8 pins DIL package, elliptical pads
Kw DIL
Sc 00000000
AR
Op 0 0 0
T0 -2756 0 500 500 900 80 N V 21 N"SW***"
T1 0 0 400 400 0 80 N V 21 N"DIP-SWITCH"
DS -2362 -1969 2362 -1969 39 21
DS 2362 -1969 2362 1969 39 21
DS 2362 1969 -2362 1969 39 21
DS -2362 1969 -2362 -1969 39 21
$PAD
Sh "1" O 620 787 0 0 0
Dr 315 0 0
At STD N 00E0FFFF
Ne 0 ""
Po -1500 1500
$EndPAD
$PAD
Sh "3" O 620 787 0 0 0
Dr 315 0 0
At STD N 00E0FFFF
Ne 0 ""
Po -500 1500
$EndPAD
$PAD
Sh "5" O 620 787 0 0 0
Dr 315 0 0
At STD N 00E0FFFF
Ne 0 ""
Po 500 1500
$EndPAD
$PAD
Sh "7" O 620 787 0 0 0
Dr 315 0 0
At STD N 00E0FFFF
Ne 0 ""
Po 1500 1500
$EndPAD
$PAD
Sh "8" O 620 787 0 0 0
Dr 315 0 0
At STD N 00E0FFFF
Ne 0 ""
Po 1500 -1500
$EndPAD
$PAD
Sh "6" O 620 787 0 0 0
Dr 315 0 0
At STD N 00E0FFFF
Ne 0 ""
Po 500 -1500
$EndPAD
$PAD
Sh "4" O 620 787 0 0 0
Dr 315 0 0
At STD N 00E0FFFF
Ne 0 ""
Po -500 -1500
$EndPAD
$PAD
Sh "2" O 620 787 0 0 0
Dr 315 0 0
At STD N 00E0FFFF
Ne 0 ""
Po -1500 -1500
$EndPAD
$EndMODULE  DIP-SWITCH-4X
$MODULE pin_array_10x2
Po 0 0 0 15 4C2510D8 00000000 ~~
Li pin_array_10x2
Cd Double rangee de contacts 2 x 10 pins
Kw CONN
Sc 00000000
AR
Op 0 0 0
T0 0 -1500 400 400 0 100 N V 21 N"PIN_ARRAY_10X2"
T1 0 1500 400 400 0 80 N V 21 N"Val**"
DS -5000 1000 5000 1000 150 21
DS -5000 -1000 5000 -1000 150 21
DS -5000 -1000 -5000 1000 150 21
DS 5000 1000 5000 -1000 150 21
$PAD
Sh "1" R 600 600 0 0 0
Dr 315 0 0
At STD N 00E0FFFF
Ne 0 ""
Po -4500 500
$EndPAD
$PAD
Sh "2" C 600 600 0 0 0
Dr 315 0 0
At STD N 00E0FFFF
Ne 0 ""
Po -4500 -500
$EndPAD
$PAD
Sh "3" C 600 600 0 0 0
Dr 315 0 0
At STD N 00E0FFFF
Ne 0 ""
Po -3500 500
$EndPAD
$PAD
Sh "4" C 600 600 0 0 0
Dr 315 0 0
At STD N 00E0FFFF
Ne 0 ""
Po -3500 -500
$EndPAD
$PAD
Sh "5" C 600 600 0 0 0
Dr 315 0 0
At STD N 00E0FFFF
Ne 0 ""
Po -2500 500
$EndPAD
$PAD
Sh "6" C 600 600 0 0 0
Dr 315 0 0
At STD N 00E0FFFF
Ne 0 ""
Po -2500 -500
$EndPAD
$PAD
Sh "7" C 600 600 0 0 0
Dr 315 0 0
At STD N 00E0FFFF
Ne 0 ""
Po -1500 500
$EndPAD
$PAD
Sh "8" C 600 600 0 0 0
Dr 315 0 0
At STD N 00E0FFFF
Ne 0 ""
Po -1500 -500
$EndPAD
$PAD
Sh "9" C 600 600 0 0 0
Dr 315 0 0
At STD N 00E0FFFF
Ne 0 ""
Po -500 500
$EndPAD
$PAD
Sh "10" C 600 600 0 0 0
Dr 315 0 0
At STD N 00E0FFFF
Ne 0 ""
Po -500 -500
$EndPAD
$PAD
Sh "11" C 600 600 0 0 0
Dr 315 0 0
At STD N 00E0FFFF
Ne 0 ""
Po 500 500
$EndPAD
$PAD
Sh "12" C 600 600 0 0 0
Dr 315 0 0
At STD N 00E0FFFF
Ne 0 ""
Po 500 -500
$EndPAD
$PAD
Sh "13" C 600 600 0 0 0
Dr 315 0 0
At STD N 00E0FFFF
Ne 0 ""
Po 1500 500
$EndPAD
$PAD
Sh "14" C 600 600 0 0 0
Dr 315 0 0
At STD N 00E0FFFF
Ne 0 ""
Po 1500 -500
$EndPAD
$PAD
Sh "15" C 600 600 0 0 0
Dr 315 0 0
At STD N 00E0FFFF
Ne 0 ""
Po 2500 500
$EndPAD
$PAD
Sh "16" C 600 600 0 0 0
Dr 315 0 0
At STD N 00E0FFFF
Ne 0 ""
Po 2500 -500
$EndPAD
$PAD
Sh "17" C 600 600 0 0 0
Dr 315 0 0
At STD N 00E0FFFF
Ne 0 ""
Po 3500 500
$EndPAD
$PAD
Sh "18" C 600 600 0 0 0
Dr 315 0 0
At STD N 00E0FFFF
Ne 0 ""
Po 3500 -500
$EndPAD
$PAD
Sh "19" C 600 600 0 0 0
Dr 315 0 0
At STD N 00E0FFFF
Ne 0 ""
Po 4500 500
$EndPAD
$PAD
Sh "20" C 600 600 0 0 0
Dr 315 0 0
At STD N 00E0FFFF
Ne 0 ""
Po 4500 -500
$EndPAD
$EndMODULE  pin_array_10x2
$MODULE pin_array_16
Po 0 0 0 15 4C251244 00000000 ~~
Li pin_array_16
Cd Double rangee de contacts 2 x 10 pins
Kw CONN
Sc 00000000
AR
Op 0 0 0
T0 0 -1000 500 500 0 100 N V 21 N"PIN_ARRAY_16"
T1 0 1000 500 500 0 100 N V 21 N"Val**"
DS -8000 500 8000 500 39 21
DS -8000 500 -8000 -500 39 21
DS -8000 -500 8000 -500 39 21
DS 8000 -500 8000 500 39 21
$PAD
Sh "1" R 600 600 0 0 0
Dr 315 0 0
At STD N 00E0FFFF
Ne 0 ""
Po -7500 0
$EndPAD
$PAD
Sh "11" C 600 600 0 0 0
Dr 315 0 0
At STD N 00E0FFFF
Ne 0 ""
Po 2539 -15
$EndPAD
$PAD
Sh "2" C 600 600 0 0 0
Dr 315 0 0
At STD N 00E0FFFF
Ne 0 ""
Po -6500 0
$EndPAD
$PAD
Sh "12" C 600 600 0 0 0
Dr 315 0 0
At STD N 00E0FFFF
Ne 0 ""
Po 3539 -15
$EndPAD
$PAD
Sh "3" C 600 600 0 0 0
Dr 315 0 0
At STD N 00E0FFFF
Ne 0 ""
Po -5500 0
$EndPAD
$PAD
Sh "13" C 600 600 0 0 0
Dr 315 0 0
At STD N 00E0FFFF
Ne 0 ""
Po 4539 -15
$EndPAD
$PAD
Sh "4" C 600 600 0 0 0
Dr 315 0 0
At STD N 00E0FFFF
Ne 0 ""
Po -4500 0
$EndPAD
$PAD
Sh "14" C 600 600 0 0 0
Dr 315 0 0
At STD N 00E0FFFF
Ne 0 ""
Po 5539 -15
$EndPAD
$PAD
Sh "5" C 600 600 0 0 0
Dr 315 0 0
At STD N 00E0FFFF
Ne 0 ""
Po -3500 0
$EndPAD
$PAD
Sh "15" C 600 600 0 0 0
Dr 315 0 0
At STD N 00E0FFFF
Ne 0 ""
Po 6539 -15
$EndPAD
$PAD
Sh "6" C 600 600 0 0 0
Dr 315 0 0
At STD N 00E0FFFF
Ne 0 ""
Po -2500 0
$EndPAD
$PAD
Sh "16" C 600 600 0 0 0
Dr 315 0 0
At STD N 00E0FFFF
Ne 0 ""
Po 7539 -15
$EndPAD
$PAD
Sh "7" C 600 600 0 0 0
Dr 315 0 0
At STD N 00E0FFFF
Ne 0 ""
Po -1500 0
$EndPAD
$PAD
Sh "8" C 600 600 0 0 0
Dr 315 0 0
At STD N 00E0FFFF
Ne 0 ""
Po -500 0
$EndPAD
$PAD
Sh "9" C 600 600 0 0 0
Dr 315 0 0
At STD N 00E0FFFF
Ne 0 ""
Po 500 0
$EndPAD
$PAD
Sh "10" C 600 600 0 0 0
Dr 315 0 0
At STD N 00E0FFFF
Ne 0 ""
Po 1500 0
$EndPAD
$EndMODULE  pin_array_16
$MODULE SOCKET-DIN-SDS-60J
Po 0 0 0 15 4C2CF3DB 00000000 ~~
Li SOCKET-DIN-SDS-60J
Sc 00000000
AR
Op 0 0 0
T0 -3543 -4134 500 500 0 100 N V 21 N"P"
T1 197 1575 500 500 0 100 N I 21 N"VAL**"
DS -3937 3937 3937 3937 39 21
DS 0 -3740 -3937 -3740 60 21
DS -3937 -3740 -3937 -2756 60 21
DS 0 -3740 3937 -3740 60 21
DS 3937 -3740 3937 -2756 60 21
DS -3937 3937 -3937 -2756 60 21
DS 3937 -2756 3937 3937 60 21
$PAD
Sh "6" C 1102 1102 0 0 0
Dr 512 0 0
At STD N 00E0FFFF
Ne 0 ""
Po 0 -2953
$EndPAD
$PAD
Sh "4" C 1102 1102 0 0 0
Dr 512 0 0
At STD N 00E0FFFF
Ne 0 ""
Po -1969 -1969
$EndPAD
$PAD
Sh "2" C 1102 1102 0 0 0
Dr 512 0 0
At STD N 00E0FFFF
Ne 0 ""
Po 1969 -1969
$EndPAD
$PAD
Sh "5" C 1102 1102 0 0 0
Dr 512 0 0
At STD N 00E0FFFF
Ne 0 ""
Po -2952 -984
$EndPAD
$PAD
Sh "1" C 1102 1102 0 0 0
Dr 512 0 0
At STD N 00E0FFFF
Ne 0 ""
Po 2953 -984
$EndPAD
$PAD
Sh "3" C 1102 1102 0 0 0
Dr 512 0 0
At STD N 00E0FFFF
Ne 0 ""
Po 0 -984
$EndPAD
$PAD
Sh "" O 866 1181 0 0 0
Dr 512 0 0
At STD N 00E0FFFF
Ne 0 ""
Po 1968 2953
$EndPAD
$PAD
Sh "" O 866 1181 0 0 0
Dr 512 0 0
At STD N 00E0FFFF
Ne 0 ""
Po 984 2953
$EndPAD
$PAD
Sh "" O 866 1181 0 0 0
Dr 512 0 0
At STD N 00E0FFFF
Ne 0 ""
Po -1969 2953
$EndPAD
$PAD
Sh "" O 866 1181 0 0 0
Dr 512 0 0
At STD N 00E0FFFF
Ne 0 ""
Po -985 2953
$EndPAD
$EndMODULE  SOCKET-DIN-SDS-60J
$MODULE DC-SOCKET-PJ-047B
Po 0 0 0 15 4C323C1C 00000000 ~~
Li DC-SOCKET-PJ-047B
Sc 00000000
AR
Op 0 0 0
T0 39 5157 600 600 0 120 N V 21 N"P"
T1 2559 3346 600 600 900 120 N V 21 N"VAL**"
DS -1457 0 -1457 236 39 21
DS 1457 0 1457 236 39 21
DS -748 4528 748 4528 39 21
DS 1457 2087 1457 3268 39 21
DS -1457 3268 -1457 2087 39 21
DS -1457 0 1457 0 39 21
$PAD
Sh "2" C 1378 1378 0 0 0
Dr 787 0 0
At STD N 00E0FFFF
Ne 0 ""
Po 0 3150
$EndPAD
$PAD
Sh "1" O 1378 1378 0 0 0
Dr 787 0 0 O 787 787
At STD N 00E0FFFF
Ne 0 ""
Po -1299 4055
$EndPAD
$PAD
Sh "3" C 1378 1378 0 0 0
Dr 787 0 0
At STD N 00E0FFFF
Ne 0 ""
Po 1299 4055
$EndPAD
$PAD
Sh "" C 1181 1181 0 0 0
Dr 945 0 0
At STD N 0000FFFF
Ne 0 ""
Po 0 1575
$EndPAD
$PAD
Sh "" C 1575 1575 0 0 0
Dr 945 0 0
At STD N 00E0FFFF
Ne 0 ""
Po 1457 1142
$EndPAD
$PAD
Sh "" C 1575 1575 0 0 0
Dr 945 0 0
At STD N 00E0FFFF
Ne 0 ""
Po -1457 1142
$EndPAD
$EndMODULE  DC-SOCKET-PJ-047B
$MODULE BOX_HOLES_RL6215
Po 0 0 0 15 4C324541 00000000 ~~
Li BOX_HOLES_RL6215
Sc 00000000
AR
Op 0 0 0
T0 -15748 9843 600 600 0 120 N I 21 N"P"
T1 -17717 7874 600 600 0 120 N I 21 N"VAL**"
$PAD
Sh "" C 1969 1969 0 0 0
Dr 1181 0 0
At STD N 00E0FFFF
Ne 0 ""
Po -17717 9842
$EndPAD
$PAD
Sh "" C 1969 1969 0 0 0
Dr 1181 0 0
At STD N 00E0FFFF
Ne 0 ""
Po 17717 9843
$EndPAD
$PAD
Sh "" C 1969 1969 0 0 0
Dr 1181 0 0
At STD N 00E0FFFF
Ne 0 ""
Po 17717 -9843
$EndPAD
$PAD
Sh "" C 1969 1969 0 0 0
Dr 1181 0 0
At STD N 00E0FFFF
Ne 0 ""
Po -17717 -9843
$EndPAD
$EndMODULE  BOX_HOLES_RL6215
$MODULE LQFP64-EP
Po 0 0 0 15 4C32551C 00000000 ~~
Li LQFP64-EP
Sc 00000000
AR
Op 0 0 0
T0 -2362 2362 394 394 0 59 N V 21 N"U"
T1 0 -1378 315 315 0 59 N I 21 N"VAL**"
DS -1968 -1968 1968 -1968 78 21
DS 1968 -1968 1968 1968 78 21
DS -1968 1968 1968 1968 78 21
DS -1968 -1968 -1968 1968 78 21
DS -1968 1732 -1732 1732 78 21
DS -1732 1732 -1732 1968 78 21
$PAD
Sh "1" R 98 591 0 0 1800
Dr 0 0 0
At SMD N 00888000
Ne 0 ""
Po -1476 2362
$EndPAD
$PAD
Sh "2" R 98 590 0 0 1800
Dr 0 0 0
At SMD N 00888000
Ne 0 ""
Po -1279 2362
$EndPAD
$PAD
Sh "3" R 98 590 0 0 1800
Dr 0 0 0
At SMD N 00888000
Ne 0 ""
Po -1082 2362
$EndPAD
$PAD
Sh "4" R 98 590 0 0 1800
Dr 0 0 0
At SMD N 00888000
Ne 0 ""
Po -885 2362
$EndPAD
$PAD
Sh "5" R 98 590 0 0 1800
Dr 0 0 0
At SMD N 00888000
Ne 0 ""
Po -688 2362
$EndPAD
$PAD
Sh "6" R 98 590 0 0 1800
Dr 0 0 0
At SMD N 00888000
Ne 0 ""
Po -492 2362
$EndPAD
$PAD
Sh "7" R 98 590 0 0 1800
Dr 0 0 0
At SMD N 00888000
Ne 0 ""
Po -295 2362
$EndPAD
$PAD
Sh "8" R 98 590 0 0 1800
Dr 0 0 0
At SMD N 00888000
Ne 0 ""
Po -98 2362
$EndPAD
$PAD
Sh "9" R 98 590 0 0 1800
Dr 0 0 0
At SMD N 00888000
Ne 0 ""
Po 98 2362
$EndPAD
$PAD
Sh "10" R 98 590 0 0 1800
Dr 0 0 0
At SMD N 00888000
Ne 0 ""
Po 295 2362
$EndPAD
$PAD
Sh "11" R 98 590 0 0 1800
Dr 0 0 0
At SMD N 00888000
Ne 0 ""
Po 492 2362
$EndPAD
$PAD
Sh "12" R 98 590 0 0 1800
Dr 0 0 0
At SMD N 00888000
Ne 0 ""
Po 688 2362
$EndPAD
$PAD
Sh "13" R 98 590 0 0 1800
Dr 0 0 0
At SMD N 00888000
Ne 0 ""
Po 885 2362
$EndPAD
$PAD
Sh "14" R 98 590 0 0 1800
Dr 0 0 0
At SMD N 00888000
Ne 0 ""
Po 1082 2362
$EndPAD
$PAD
Sh "15" R 98 590 0 0 1800
Dr 0 0 0
At SMD N 00888000
Ne 0 ""
Po 1279 2362
$EndPAD
$PAD
Sh "16" R 98 590 0 0 1800
Dr 0 0 0
At SMD N 00888000
Ne 0 ""
Po 1476 2362
$EndPAD
$PAD
Sh "17" R 98 590 0 0 2700
Dr 0 0 0
At SMD N 00888000
Ne 0 ""
Po 2362 1476
$EndPAD
$PAD
Sh "18" R 98 590 0 0 2700
Dr 0 0 0
At SMD N 00888000
Ne 0 ""
Po 2362 1279
$EndPAD
$PAD
Sh "19" R 98 590 0 0 2700
Dr 0 0 0
At SMD N 00888000
Ne 0 ""
Po 2362 1082
$EndPAD
$PAD
Sh "20" R 98 590 0 0 2700
Dr 0 0 0
At SMD N 00888000
Ne 0 ""
Po 2362 885
$EndPAD
$PAD
Sh "21" R 98 590 0 0 2700
Dr 0 0 0
At SMD N 00888000
Ne 0 ""
Po 2362 688
$EndPAD
$PAD
Sh "22" R 98 590 0 0 2700
Dr 0 0 0
At SMD N 00888000
Ne 0 ""
Po 2362 492
$EndPAD
$PAD
Sh "23" R 98 590 0 0 2700
Dr 0 0 0
At SMD N 00888000
Ne 0 ""
Po 2362 295
$EndPAD
$PAD
Sh "24" R 98 590 0 0 2700
Dr 0 0 0
At SMD N 00888000
Ne 0 ""
Po 2362 98
$EndPAD
$PAD
Sh "25" R 98 590 0 0 2700
Dr 0 0 0
At SMD N 00888000
Ne 0 ""
Po 2362 -98
$EndPAD
$PAD
Sh "26" R 98 590 0 0 2700
Dr 0 0 0
At SMD N 00888000
Ne 0 ""
Po 2362 -295
$EndPAD
$PAD
Sh "27" R 98 590 0 0 2700
Dr 0 0 0
At SMD N 00888000
Ne 0 ""
Po 2362 -492
$EndPAD
$PAD
Sh "28" R 98 590 0 0 2700
Dr 0 0 0
At SMD N 00888000
Ne 0 ""
Po 2362 -688
$EndPAD
$PAD
Sh "29" R 98 590 0 0 2700
Dr 0 0 0
At SMD N 00888000
Ne 0 ""
Po 2362 -885
$EndPAD
$PAD
Sh "30" R 98 590 0 0 2700
Dr 0 0 0
At SMD N 00888000
Ne 0 ""
Po 2362 -1082
$EndPAD
$PAD
Sh "31" R 98 590 0 0 2700
Dr 0 0 0
At SMD N 00888000
Ne 0 ""
Po 2362 -1279
$EndPAD
$PAD
Sh "32" R 98 590 0 0 2700
Dr 0 0 0
At SMD N 00888000
Ne 0 ""
Po 2362 -1476
$EndPAD
$PAD
Sh "33" R 98 590 0 0 0
Dr 0 0 0
At SMD N 00888000
Ne 0 ""
Po 1476 -2362
$EndPAD
$PAD
Sh "34" R 98 590 0 0 0
Dr 0 0 0
At SMD N 00888000
Ne 0 ""
Po 1279 -2362
$EndPAD
$PAD
Sh "35" R 98 590 0 0 0
Dr 0 0 0
At SMD N 00888000
Ne 0 ""
Po 1082 -2362
$EndPAD
$PAD
Sh "36" R 98 590 0 0 0
Dr 0 0 0
At SMD N 00888000
Ne 0 ""
Po 885 -2362
$EndPAD
$PAD
Sh "37" R 98 590 0 0 0
Dr 0 0 0
At SMD N 00888000
Ne 0 ""
Po 688 -2362
$EndPAD
$PAD
Sh "38" R 98 590 0 0 0
Dr 0 0 0
At SMD N 00888000
Ne 0 ""
Po 492 -2362
$EndPAD
$PAD
Sh "39" R 98 590 0 0 0
Dr 0 0 0
At SMD N 00888000
Ne 0 ""
Po 295 -2362
$EndPAD
$PAD
Sh "40" R 98 590 0 0 0
Dr 0 0 0
At SMD N 00888000
Ne 0 ""
Po 98 -2362
$EndPAD
$PAD
Sh "41" R 98 590 0 0 0
Dr 0 0 0
At SMD N 00888000
Ne 0 ""
Po -98 -2362
$EndPAD
$PAD
Sh "42" R 98 590 0 0 0
Dr 0 0 0
At SMD N 00888000
Ne 0 ""
Po -295 -2362
$EndPAD
$PAD
Sh "43" R 98 590 0 0 0
Dr 0 0 0
At SMD N 00888000
Ne 0 ""
Po -492 -2362
$EndPAD
$PAD
Sh "44" R 98 590 0 0 0
Dr 0 0 0
At SMD N 00888000
Ne 0 ""
Po -688 -2362
$EndPAD
$PAD
Sh "45" R 98 590 0 0 0
Dr 0 0 0
At SMD N 00888000
Ne 0 ""
Po -885 -2362
$EndPAD
$PAD
Sh "46" R 98 590 0 0 0
Dr 0 0 0
At SMD N 00888000
Ne 0 ""
Po -1082 -2362
$EndPAD
$PAD
Sh "47" R 98 590 0 0 0
Dr 0 0 0
At SMD N 00888000
Ne 0 ""
Po -1279 -2362
$EndPAD
$PAD
Sh "48" R 98 590 0 0 0
Dr 0 0 0
At SMD N 00888000
Ne 0 ""
Po -1476 -2362
$EndPAD
$PAD
Sh "49" R 98 590 0 0 900
Dr 0 0 0
At SMD N 00888000
Ne 0 ""
Po -2362 -1476
$EndPAD
$PAD
Sh "50" R 98 590 0 0 900
Dr 0 0 0
At SMD N 00888000
Ne 0 ""
Po -2362 -1279
$EndPAD
$PAD
Sh "51" R 98 590 0 0 900
Dr 0 0 0
At SMD N 00888000
Ne 0 ""
Po -2362 -1082
$EndPAD
$PAD
Sh "52" R 98 590 0 0 900
Dr 0 0 0
At SMD N 00888000
Ne 0 ""
Po -2362 -885
$EndPAD
$PAD
Sh "53" R 98 590 0 0 900
Dr 0 0 0
At SMD N 00888000
Ne 0 ""
Po -2362 -688
$EndPAD
$PAD
Sh "54" R 98 590 0 0 900
Dr 0 0 0
At SMD N 00888000
Ne 0 ""
Po -2362 -492
$EndPAD
$PAD
Sh "55" R 98 590 0 0 900
Dr 0 0 0
At SMD N 00888000
Ne 0 ""
Po -2362 -295
$EndPAD
$PAD
Sh "56" R 98 590 0 0 900
Dr 0 0 0
At SMD N 00888000
Ne 0 ""
Po -2362 -98
$EndPAD
$PAD
Sh "57" R 98 590 0 0 900
Dr 0 0 0
At SMD N 00888000
Ne 0 ""
Po -2362 98
$EndPAD
$PAD
Sh "58" R 98 590 0 0 900
Dr 0 0 0
At SMD N 00888000
Ne 0 ""
Po -2362 295
$EndPAD
$PAD
Sh "59" R 98 590 0 0 900
Dr 0 0 0
At SMD N 00888000
Ne 0 ""
Po -2362 492
$EndPAD
$PAD
Sh "60" R 98 590 0 0 900
Dr 0 0 0
At SMD N 00888000
Ne 0 ""
Po -2362 688
$EndPAD
$PAD
Sh "61" R 98 590 0 0 900
Dr 0 0 0
At SMD N 00888000
Ne 0 ""
Po -2362 885
$EndPAD
$PAD
Sh "62" R 98 590 0 0 900
Dr 0 0 0
At SMD N 00888000
Ne 0 ""
Po -2362 1082
$EndPAD
$PAD
Sh "63" R 98 590 0 0 900
Dr 0 0 0
At SMD N 00888000
Ne 0 ""
Po -2362 1279
$EndPAD
$PAD
Sh "64" R 98 590 0 0 900
Dr 0 0 0
At SMD N 00888000
Ne 0 ""
Po -2362 1476
$EndPAD
$PAD
Sh "EP" R 1968 1968 0 0 0
Dr 1181 0 0
At STD N 0088FFFF
Ne 0 ""
Po 0 0
$EndPAD
$SHAPE3D
Na "smd/vqfp64.wrl"
Sc 0.395000 0.395000 0.500000
Of 0.000000 0.000000 0.000000
Ro 0.000000 0.000000 0.000000
$EndSHAPE3D
$EndMODULE  LQFP64-EP
$MODULE SO8N-8MM
Po 0 0 0 15 4C336DF5 00000000 ~~
Li SO8N-8MM
Cd Module CMS SOJ 8 pins large
Kw CMS SOJ
Sc 00000000
AR
Op 0 0 0
At SMD
T0 0 -500 450 400 0 50 N V 21 N"SO8N"
T1 0 500 400 400 0 50 N V 21 N"VAL*"
DS -1024 -1024 1024 -1024 39 21
DS 1024 -1024 1024 1024 39 21
DS 1024 1024 -1024 1024 39 21
DS -1024 1024 -1024 -1024 39 21
DS -1000 -300 -800 -300 50 21
DS -800 -300 -800 200 50 21
DS -800 200 -1000 200 50 21
$PAD
Sh "8" R 200 450 0 0 0
Dr 0 0 0
At SMD N 00888000
Ne 0 ""
Po -750 -1378
$EndPAD
$PAD
Sh "7" R 200 450 0 0 0
Dr 0 0 0
At SMD N 00888000
Ne 0 ""
Po -250 -1378
$EndPAD
$PAD
Sh "6" R 200 450 0 0 0
Dr 0 0 0
At SMD N 00888000
Ne 0 ""
Po 250 -1378
$EndPAD
$PAD
Sh "5" R 200 450 0 0 0
Dr 0 0 0
At SMD N 00888000
Ne 0 ""
Po 750 -1378
$EndPAD
$PAD
Sh "4" R 200 450 0 0 0
Dr 0 0 0
At SMD N 00888000
Ne 0 ""
Po 750 1378
$EndPAD
$PAD
Sh "3" R 200 450 0 0 0
Dr 0 0 0
At SMD N 00888000
Ne 0 ""
Po 250 1378
$EndPAD
$PAD
Sh "2" R 200 450 0 0 0
Dr 0 0 0
At SMD N 00888000
Ne 0 ""
Po -250 1378
$EndPAD
$PAD
Sh "1" R 200 450 0 0 0
Dr 0 0 0
At SMD N 00888000
Ne 0 ""
Po -750 1378
$EndPAD
$SHAPE3D
Na "smd/cms_so8.wrl"
Sc 0.500000 0.380000 0.500000
Of 0.000000 0.000000 0.000000
Ro 0.000000 0.000000 0.000000
$EndSHAPE3D
$EndMODULE  SO8N-8MM
$MODULE LCD_80X36
Po 0 0 0 15 4C33931E 00000000 ~~
Li LCD_80X36
Sc 00000000
AR
Op 0 0 0
T0 -12717 -5315 250 250 0 50 N V 21 N"P"
T1 -11969 -6929 500 500 0 100 N V 21 N"VAL**"
$PAD
Sh "1" R 551 709 0 0 0
Dr 315 0 0
At STD N 00E0FFFF
Ne 0 ""
Po -12500 -6100
$EndPAD
$PAD
Sh "2" O 551 709 0 0 0
Dr 315 0 0
At STD N 00E0FFFF
Ne 0 ""
Po -11500 -6100
$EndPAD
$PAD
Sh "7" O 551 709 0 0 0
Dr 315 0 0
At STD N 00E0FFFF
Ne 0 ""
Po -6500 -6100
$EndPAD
$PAD
Sh "8" O 551 709 0 0 0
Dr 315 0 0
At STD N 00E0FFFF
Ne 0 ""
Po -5500 -6100
$EndPAD
$PAD
Sh "4" O 551 709 0 0 0
Dr 315 0 0
At STD N 00E0FFFF
Ne 0 ""
Po -9500 -6100
$EndPAD
$PAD
Sh "3" O 551 709 0 0 0
Dr 315 0 0
At STD N 00E0FFFF
Ne 0 ""
Po -10500 -6100
$EndPAD
$PAD
Sh "5" O 551 709 0 0 0
Dr 315 0 0
At STD N 00E0FFFF
Ne 0 ""
Po -8500 -6100
$EndPAD
$PAD
Sh "6" O 551 709 0 0 0
Dr 315 0 0
At STD N 00E0FFFF
Ne 0 ""
Po -7500 -6100
$EndPAD
$PAD
Sh "12" O 551 709 0 0 0
Dr 315 0 0
At STD N 00E0FFFF
Ne 0 ""
Po -1500 -6100
$EndPAD
$PAD
Sh "11" O 551 709 0 0 0
Dr 315 0 0
At STD N 00E0FFFF
Ne 0 ""
Po -2500 -6100
$EndPAD
$PAD
Sh "9" O 551 709 0 0 0
Dr 315 0 0
At STD N 00E0FFFF
Ne 0 ""
Po -4500 -6100
$EndPAD
$PAD
Sh "10" O 551 709 0 0 0
Dr 315 0 0
At STD N 00E0FFFF
Ne 0 ""
Po -3500 -6100
$EndPAD
$PAD
Sh "14" O 551 709 0 0 0
Dr 315 0 0
At STD N 00E0FFFF
Ne 0 ""
Po 500 -6100
$EndPAD
$PAD
Sh "13" O 551 709 0 0 0
Dr 315 0 0
At STD N 00E0FFFF
Ne 0 ""
Po -500 -6100
$EndPAD
$PAD
Sh "15" O 551 709 0 0 0
Dr 315 0 0
At STD N 00E0FFFF
Ne 0 ""
Po 1500 -6100
$EndPAD
$PAD
Sh "" C 1890 1890 0 0 0
Dr 1024 0 0
At STD N 00E0FFFF
Ne 0 ""
Po -14764 6103
$EndPAD
$PAD
Sh "" C 1890 1890 0 0 0
Dr 1024 0 0
At STD N 00E0FFFF
Ne 0 ""
Po 14764 6102
$EndPAD
$PAD
Sh "" C 1890 1890 0 0 0
Dr 1024 0 0
At STD N 00E0FFFF
Ne 0 ""
Po 14764 -6102
$EndPAD
$PAD
Sh "" C 1890 1890 0 0 0
Dr 1024 0 0
At STD N 00E0FFFF
Ne 0 ""
Po -14764 -6102
$EndPAD
$PAD
Sh "16" O 551 709 0 0 0
Dr 315 0 0
At STD N 00E0FFFF
Ne 0 ""
Po 2500 -6100
$EndPAD
$EndMODULE  LCD_80X36
$MODULE LED-3MM-FIXED
Po 0 0 0 15 4C33A19C 00000000 ~~
Li LED-3MM-FIXED
Cd LED 3mm - Lead pitch 100mil (2,54mm)
Kw LED led 3mm 3MM 100mil 2,54mm
Sc 00000000
AR 
Op 0 0 0
At VIRTUAL 
T0 700 -1100 300 300 0 35 N V 21 N"LED-3MM"
T1 0 1000 300 300 0 35 N V 21 N"VAL***"
DS 512 591 630 512 39 21
DS 630 512 630 394 39 21
DS 512 -591 630 -512 39 21
DS 630 -512 630 -394 39 21
DA 79 0 512 591 900 39 21
DA 79 0 -512 -433 900 39 21
$PAD
Sh "1" C 660 660 0 0 0
Dr 320 0 0
At STD N 00A8FFFF
Ne 0 ""
Po -500 0
$EndPAD
$PAD
Sh "2" C 660 660 0 0 0
Dr 320 0 0
At STD N 00A8FFFF
Ne 0 ""
Po 500 0
$EndPAD
$SHAPE3D
Na "discret/leds/led3_vertical_verde.wrl"
Sc 1.000000 1.000000 1.000000
Of 0.000000 0.000000 0.000000
Ro 0.000000 0.000000 0.000000
$EndSHAPE3D
$EndMODULE  LED-3MM-FIXED
$EndLIBRARY
