# EESchema Netlist Version 1.1 created  Fr 03 Sep 2010 00:14:56 CEST
(
 ( /4C4B3EAC $noname  P50 CONN_1 {Lib=CONN_1}
  (    1 N-000072 )
 )
 ( /4C3374CD $noname  R60 10k {Lib=R}
  (    1 N-000055 )
  (    2 VCC )
 )
 ( /4C324445 $noname  P500 HOLES_FOR_HAMMOND_RL6215 {Lib=HOLES_FOR_HAMMOND_RL6215}
 )
 ( /4C322FAD $noname  U10 TC1262-3.3 {Lib=TC1262}
  (    1 +5V )
  (    2 GND )
  (    3 VCC )
  (    4 GND )
 )
 ( /4C322E23 $noname  C10 10u {Lib=C}
  (    1 +5V )
  (    2 GND )
 )
 ( /4C2FA59E $noname  C32 1u {Lib=C}
  (    1 VCC )
  (    2 GND )
 )
 ( /4C2CDF92 $noname  R104 470 {Lib=R}
  (    1 N-000085 )
  (    2 N-000077 )
 )
 ( /4C278DCC $noname  R80 10k {Lib=R}
  (    1 N-000078 )
  (    2 VCC )
 )
 ( /4C2762D8 $noname  C11 10u {Lib=C}
  (    1 +5V )
  (    2 GND )
 )
 ( /4C19407C $noname  R100 10 {Lib=R}
  (    1 +5V )
  (    2 N-000068 )
 )
 ( /4C250C86 $noname  P100 LCD {Lib=CONN_16}
  (    1 GND )
  (    2 +5V )
  (    3 N-000077 )
  (    4 N-000075 )
  (    5 GND )
  (    6 N-000076 )
  (    7 ? )
  (    8 ? )
  (    9 ? )
  (   10 ? )
  (   11 N-000064 )
  (   12 N-000060 )
  (   13 N-000057 )
  (   14 N-000053 )
  (   15 N-000068 )
  (   16 GND )
 )
 ( /4C23D225 $noname  R103 n.c. {Lib=R}
  (    1 GND )
  (    2 N-000085 )
 )
 ( /4C19464D $noname  C100 1u {Lib=C}
  (    1 N-000077 )
  (    2 GND )
 )
 ( /4C194617 $noname  R102 10k {Lib=R}
  (    1 N-000069 )
  (    2 VCC )
 )
 ( /4C23D031 $noname  U70 74LVC06 {Lib=74HCT04}
  (    1 N-000036 )
  (    2 N-000016 )
  (    3 N-000066 )
  (    4 N-000015 )
  (    5 N-000031 )
  (    6 N-000014 )
  (    7 GND )
  (    8 N-000032 )
  (    9 N-000013 )
  (   10 N-000059 )
  (   11 N-000013 )
  (   12 N-000085 )
  (   13 N-000069 )
  (   14 VCC )
 )
 ( /4C225CFC $noname  P10 5V= {Lib=CONN_3}
  (    1 +5V )
  (    2 GND )
  (    3 ? )
 )
 ( /4C21210C $noname  P41 UART {Lib=CONN_3}
  (    1 N-000065 )
  (    2 GND )
  (    3 N-000063 )
 )
 ( /4C211F7F $noname  R81 10k {Lib=R}
  (    1 N-000048 )
  (    2 VCC )
 )
 ( /4C211F7E $noname  R82 10k {Lib=R}
  (    1 N-000047 )
  (    2 VCC )
 )
 ( /4C1D41BC $noname  P60 ISP {Lib=CONN_5X2}
  (    1 N-000054 )
  (    2 VCC )
  (    3 ? )
  (    4 GND )
  (    5 N-000055 )
  (    6 GND )
  (    7 N-000045 )
  (    8 GND )
  (    9 N-000058 )
  (   10 GND )
 )
 ( /4C1D3095 $noname  C55 1u {Lib=C}
  (    1 VDD )
  (    2 GND )
 )
 ( /4C1D3094 $noname  C56 1u {Lib=C}
  (    1 VDD )
  (    2 GND )
 )
 ( /4C1D3093 $noname  C57 1u {Lib=C}
  (    1 VDD )
  (    2 GND )
 )
 ( /4C1D3090 $noname  C58 1u {Lib=C}
  (    1 VDD )
  (    2 GND )
 )
 ( /4C1D301F $noname  C54 1u {Lib=C}
  (    1 VCC )
  (    2 GND )
 )
 ( /4C1BDBDE $noname  R72 10 {Lib=R}
  (    1 N-000014 )
  (    2 /IEC_ATN )
 )
 ( /4C1BDBDA $noname  R71 10 {Lib=R}
  (    1 N-000015 )
  (    2 /IEC_DATA )
 )
 ( /4C1BDBD6 $noname  R70 10 {Lib=R}
  (    1 N-000016 )
  (    2 /IEC_CLK )
 )
 ( /4C1BD6EC $noname  C71 1u {Lib=C}
  (    1 VCC )
  (    2 GND )
 )
 ( /4C1BD6DD $noname  C70 1u {Lib=C}
  (    1 VCC )
  (    2 GND )
 )
 ( /4C1BD122 $noname  R10 100k {Lib=R}
  (    1 VCC )
  (    2 N-000017 )
 )
 ( /4C1BD100 $noname  C15 1u {Lib=C}
  (    1 N-000017 )
  (    2 GND )
 )
 ( /4C1BBEB3 $noname  R22 10k {Lib=R}
  (    1 VCC )
  (    2 N-000059 )
 )
 ( /4C1BBE74 $noname  R20 100k {Lib=R}
  (    1 VCC )
  (    2 N-000074 )
 )
 ( /4C1BBE64 $noname  C20 1u {Lib=C}
  (    1 N-000074 )
  (    2 GND )
 )
 ( /4C1BBE22 $noname  R21 10k {Lib=R}
  (    1 VCC )
  (    2 N-000032 )
 )
 ( /4C1BBB5F $noname  U71 74LVC14 {Lib=74HCT04}
  (    1 /IEC_CLK )
  (    2 N-000037 )
  (    3 /IEC_DATA )
  (    4 N-000042 )
  (    5 /IEC_ATN )
  (    6 N-000046 )
  (    7 GND )
  (    8 N-000049 )
  (    9 /IEC_RST )
  (   10 N-000013 )
  (   11 N-000074 )
  (   14 VCC )
 )
 ( /4C1A858F $noname  U60 AT25DF041A {Lib=AT25DF041A}
  (    1 N-000055 )
  (    2 N-000058 )
  (    3 VCC )
  (    4 GND )
  (    5 N-000054 )
  (    6 N-000045 )
  (    7 VCC )
  (    8 VCC )
 )
 ( /4C1A8462 $noname  C60 1u {Lib=C}
  (    1 VCC )
  (    2 GND )
 )
 ( /4C194621 $noname  R101 470 {Lib=R}
  (    1 N-000085 )
  (    2 +5V )
 )
 ( /4C192AB6 $noname  P40 JTAG {Lib=CONN_10X2}
  (    1 ? )
  (    2 ? )
  (    3 N-000059 )
  (    4 GND )
  (    5 N-000035 )
  (    6 ? )
  (    7 N-000062 )
  (    8 GND )
  (    9 N-000067 )
  (   10 ? )
  (   11 N-000061 )
  (   12 GND )
  (   13 N-000038 )
  (   14 ? )
  (   15 N-000032 )
  (   16 GND )
  (   17 ? )
  (   18 ? )
  (   19 ? )
  (   20 GND )
 )
 ( /4C192807 $noname  U30 TC7SU04 {Lib=TC7SU04}
  (    2 N-000009 )
  (    3 GND )
  (    4 N-000033 )
  (    5 VCC )
 )
 ( /4C16A2F3 $noname  R53 10k {Lib=R}
  (    1 VCC )
  (    2 N-000001 )
 )
 ( /4C16A2F2 $noname  R52 10k {Lib=R}
  (    1 VCC )
  (    2 N-000084 )
 )
 ( /4C1690BF $noname  R87 10k {Lib=R}
  (    1 VCC )
  (    2 N-000083 )
 )
 ( /4C1690BE $noname  R88 10k {Lib=R}
  (    1 VCC )
  (    2 N-000070 )
 )
 ( /4C1690B9 $noname  R86 10k {Lib=R}
  (    1 VCC )
  (    2 N-000071 )
 )
 ( /4C1690B2 $noname  R85 10k {Lib=R}
  (    1 VCC )
  (    2 N-000082 )
 )
 ( /4C1524DD $noname  C14 10u {Lib=C}
  (    1 VDD )
  (    2 GND )
 )
 ( /4C1524AC $noname  C13 33p {Lib=C}
  (    1 VDD )
  (    2 N-000011 )
 )
 ( /4C152498 $noname  R12 100k {Lib=R}
  (    1 N-000011 )
  (    2 GND )
 )
 ( /4C152476 $noname  R11 68k {Lib=R}
  (    1 VDD )
  (    2 N-000011 )
 )
 ( /4C15242F $noname  L10 2u2 {Lib=INDUCTOR}
  (    1 N-000010 )
  (    2 VDD )
 )
 ( /4C152324 $noname  U11 NCP1521B {Lib=NCP1521B}
  (    1 +5V )
  (    2 GND )
  (    3 N-000017 )
  (    4 N-000011 )
  (    5 N-000010 )
 )
 ( /4C13F0D7 $noname  R31 470 {Lib=R}
  (    1 N-000033 )
  (    2 N-000030 )
 )
 ( /4C13F04B $noname  R30 1M {Lib=R}
  (    1 N-000033 )
  (    2 N-000009 )
 )
 ( /4C12AEC9 $noname  R51 10k {Lib=R}
  (    1 VCC )
  (    2 N-000056 )
 )
 ( /4C12A8D3 $noname  C50 1u {Lib=C}
  (    1 N-000044 )
  (    2 GND )
 )
 ( /4C12A89E $noname  R50 2R2 {Lib=R}
  (    1 VDD )
  (    2 N-000044 )
 )
 ( /4C12A454 $noname  P90 SD_CARD {Lib=SD_CARD}
  (   WP N-000084 )
  (   DT N-000001 )
  ( GND1 GND )
  ( GND2 GND )
  (    1 N-000039 )
  (    2 N-000040 )
  (    3 GND )
  (    4 N-000029 )
  (    5 N-000043 )
  (    6 GND )
  (    7 N-000041 )
  (    8 GND )
  (    9 GND )
 )
 ( /4C12A384 $noname  U50 XS1-L1-64LQFP {Lib=XS1-L1-64LQFP}
  (   EP GND )
  (    1 N-000045 )
  (    2 N-000046 )
  (    3 N-000047 )
  (    4 VDD )
  (    5 N-000048 )
  (    6 VCC )
  (    7 N-000049 )
  (    8 N-000032 )
  (    9 N-000033 )
  (   10 ? )
  (   11 N-000037 )
  (   12 N-000078 )
  (   13 VDD )
  (   14 N-000042 )
  (   15 N-000055 )
  (   16 N-000058 )
  (   17 N-000061 )
  (   18 VCC )
  (   19 GND )
  (   20 N-000044 )
  (   21 VDD )
  (   22 VCC )
  (   23 VCC )
  (   24 N-000056 )
  (   25 N-000056 )
  (   26 N-000059 )
  (   27 N-000062 )
  (   28 VDD )
  (   29 N-000067 )
  (   30 N-000035 )
  (   31 N-000038 )
  (   32 VCC )
  (   33 N-000041 )
  (   34 N-000043 )
  (   35 N-000070 )
  (   36 N-000083 )
  (   37 VDD )
  (   38 N-000001 )
  (   39 N-000084 )
  (   40 VCC )
  (   41 N-000039 )
  (   42 N-000040 )
  (   43 VDD )
  (   44 N-000071 )
  (   45 N-000082 )
  (   46 N-000069 )
  (   47 N-000063 )
  (   48 N-000065 )
  (   49 N-000075 )
  (   50 N-000036 )
  (   51 N-000031 )
  (   52 VDD )
  (   53 VCC )
  (   54 N-000053 )
  (   55 N-000057 )
  (   56 N-000060 )
  (   57 N-000064 )
  (   58 N-000066 )
  (   59 N-000051 )
  (   60 VCC )
  (   61 VDD )
  (   62 N-000076 )
  (   63 N-000072 )
  (   64 N-000054 )
 )
 ( /4BCE2309 $noname  SW83 BUTTON_C {Lib=SW_PUSH}
  (    1 GND )
  (    2 N-000083 )
 )
 ( /4BCE2308 $noname  SW84 BUTTON_D {Lib=SW_PUSH}
  (    1 GND )
  (    2 N-000070 )
 )
 ( /4BCE22F1 $noname  SW82 BUTTON_B {Lib=SW_PUSH}
  (    1 GND )
  (    2 N-000071 )
 )
 ( /4BCE22B6 $noname  SW81 BUTTON_A {Lib=SW_PUSH}
  (    1 GND )
  (    2 N-000082 )
 )
 ( /4B86E018 $noname  R84 470 {Lib=R}
  (    1 GND )
  (    2 N-000050 )
 )
 ( /4B86E011 $noname  R83 470 {Lib=R}
  (    1 GND )
  (    2 N-000052 )
 )
 ( /4B86DED6 $noname  D81 LED_2mA,_2.5V,_green {Lib=LED}
  (    1 VCC )
  (    2 N-000050 )
 )
 ( /4B86DEC5 $noname  D80 LED_2mA,_2.5V,_red {Lib=LED}
  (    1 N-000051 )
  (    2 N-000052 )
 )
 ( /4B8446F7 $noname  SW80 DIP {Lib=DIP_SWITCH_4}
  (    1 N-000056 )
  (    2 GND )
  (    3 N-000078 )
  (    4 GND )
  (    5 N-000048 )
  (    6 GND )
  (    7 N-000047 )
  (    8 GND )
 )
 ( /4B84450A $noname  P70 IEC {Lib=CONN_6}
  (    1 ? )
  (    2 GND )
  (    3 /IEC_ATN )
  (    4 /IEC_CLK )
  (    5 /IEC_DATA )
  (    6 /IEC_RST )
 )
 ( /4B8443F9 $noname  R76 10k {Lib=R}
  (    1 +5V )
  (    2 /IEC_RST )
 )
 ( /4B8443EA $noname  R75 10k {Lib=R}
  (    1 +5V )
  (    2 /IEC_ATN )
 )
 ( /4B8443E4 $noname  R74 10k {Lib=R}
  (    1 +5V )
  (    2 /IEC_DATA )
 )
 ( /4B8443D1 $noname  R73 10k {Lib=R}
  (    1 +5V )
  (    2 /IEC_CLK )
 )
 ( /4B843E4C $noname  R90 2R2 {Lib=R}
  (    1 N-000029 )
  (    2 VCC )
 )
 ( /4B843E14 $noname  C90 10u {Lib=C}
  (    1 N-000029 )
  (    2 GND )
 )
 ( /4AC7DA2B $noname  C53 1u {Lib=C}
  (    1 VCC )
  (    2 GND )
 )
 ( /4AC7DA22 $noname  C52 1u {Lib=C}
  (    1 VCC )
  (    2 GND )
 )
 ( /4AC7D9E4 $noname  C51 1u {Lib=C}
  (    1 VCC )
  (    2 GND )
 )
 ( /4A9711DD $noname  C12 1u {Lib=C}
  (    1 VCC )
  (    2 GND )
 )
 ( /4AECC855 $noname  C30 18p {Lib=C}
  (    1 N-000009 )
  (    2 GND )
 )
 ( /4AECC848 $noname  C31 18p {Lib=C}
  (    1 N-000030 )
  (    2 GND )
 )
 ( /4AECC4B7 $noname  X30 20MHz {Lib=CRYSTAL}
  (    1 N-000030 )
  (    2 N-000009 )
 )
)
*
{ Allowed footprints by component:
$component R60
 R?
 SM0603
 SM0805
 R?-*
 SM1206
$endlist
$component C10
 SM*
 C?
 C1-1
$endlist
$component C32
 SM*
 C?
 C1-1
$endlist
$component R104
 R?
 SM0603
 SM0805
 R?-*
 SM1206
$endlist
$component R80
 R?
 SM0603
 SM0805
 R?-*
 SM1206
$endlist
$component C11
 SM*
 C?
 C1-1
$endlist
$component R100
 R?
 SM0603
 SM0805
 R?-*
 SM1206
$endlist
$component R103
 R?
 SM0603
 SM0805
 R?-*
 SM1206
$endlist
$component C100
 SM*
 C?
 C1-1
$endlist
$component R102
 R?
 SM0603
 SM0805
 R?-*
 SM1206
$endlist
$component R81
 R?
 SM0603
 SM0805
 R?-*
 SM1206
$endlist
$component R82
 R?
 SM0603
 SM0805
 R?-*
 SM1206
$endlist
$component C55
 SM*
 C?
 C1-1
$endlist
$component C56
 SM*
 C?
 C1-1
$endlist
$component C57
 SM*
 C?
 C1-1
$endlist
$component C58
 SM*
 C?
 C1-1
$endlist
$component C54
 SM*
 C?
 C1-1
$endlist
$component R72
 R?
 SM0603
 SM0805
 R?-*
 SM1206
$endlist
$component R71
 R?
 SM0603
 SM0805
 R?-*
 SM1206
$endlist
$component R70
 R?
 SM0603
 SM0805
 R?-*
 SM1206
$endlist
$component C71
 SM*
 C?
 C1-1
$endlist
$component C70
 SM*
 C?
 C1-1
$endlist
$component R10
 R?
 SM0603
 SM0805
 R?-*
 SM1206
$endlist
$component C15
 SM*
 C?
 C1-1
$endlist
$component R22
 R?
 SM0603
 SM0805
 R?-*
 SM1206
$endlist
$component R20
 R?
 SM0603
 SM0805
 R?-*
 SM1206
$endlist
$component C20
 SM*
 C?
 C1-1
$endlist
$component R21
 R?
 SM0603
 SM0805
 R?-*
 SM1206
$endlist
$component C60
 SM*
 C?
 C1-1
$endlist
$component R101
 R?
 SM0603
 SM0805
 R?-*
 SM1206
$endlist
$component R53
 R?
 SM0603
 SM0805
 R?-*
 SM1206
$endlist
$component R52
 R?
 SM0603
 SM0805
 R?-*
 SM1206
$endlist
$component R87
 R?
 SM0603
 SM0805
 R?-*
 SM1206
$endlist
$component R88
 R?
 SM0603
 SM0805
 R?-*
 SM1206
$endlist
$component R86
 R?
 SM0603
 SM0805
 R?-*
 SM1206
$endlist
$component R85
 R?
 SM0603
 SM0805
 R?-*
 SM1206
$endlist
$component C14
 SM*
 C?
 C1-1
$endlist
$component C13
 SM*
 C?
 C1-1
$endlist
$component R12
 R?
 SM0603
 SM0805
 R?-*
 SM1206
$endlist
$component R11
 R?
 SM0603
 SM0805
 R?-*
 SM1206
$endlist
$component R31
 R?
 SM0603
 SM0805
 R?-*
 SM1206
$endlist
$component R30
 R?
 SM0603
 SM0805
 R?-*
 SM1206
$endlist
$component R51
 R?
 SM0603
 SM0805
 R?-*
 SM1206
$endlist
$component C50
 SM*
 C?
 C1-1
$endlist
$component R50
 R?
 SM0603
 SM0805
 R?-*
 SM1206
$endlist
$component R84
 R?
 SM0603
 SM0805
 R?-*
 SM1206
$endlist
$component R83
 R?
 SM0603
 SM0805
 R?-*
 SM1206
$endlist
$component D81
 LED-3MM
 LED-5MM
 LED-10MM
 LED-0603
 LED-0805
 LED-1206
 LEDV
$endlist
$component D80
 LED-3MM
 LED-5MM
 LED-10MM
 LED-0603
 LED-0805
 LED-1206
 LEDV
$endlist
$component R76
 R?
 SM0603
 SM0805
 R?-*
 SM1206
$endlist
$component R75
 R?
 SM0603
 SM0805
 R?-*
 SM1206
$endlist
$component R74
 R?
 SM0603
 SM0805
 R?-*
 SM1206
$endlist
$component R73
 R?
 SM0603
 SM0805
 R?-*
 SM1206
$endlist
$component R90
 R?
 SM0603
 SM0805
 R?-*
 SM1206
$endlist
$component C90
 SM*
 C?
 C1-1
$endlist
$component C53
 SM*
 C?
 C1-1
$endlist
$component C52
 SM*
 C?
 C1-1
$endlist
$component C51
 SM*
 C?
 C1-1
$endlist
$component C12
 SM*
 C?
 C1-1
$endlist
$component C30
 SM*
 C?
 C1-1
$endlist
$component C31
 SM*
 C?
 C1-1
$endlist
$endfootprintlist
}
{ Pin List by Nets
Net 1 "" ""
 R53 2
 P90 DT
 U50 38
Net 9 "" ""
 X30 2
 C30 1
 U30 2
 R30 2
Net 10 "" ""
 L10 1
 U11 5
Net 11 "" ""
 R11 2
 R12 1
 U11 4
 C13 2
Net 12 "VDD" "VDD"
 U50 4
 R50 1
 U50 43
 U50 13
 U50 52
 U50 61
 U50 21
 C58 1
 R11 1
 C13 1
 C14 1
 C55 1
 U50 28
 U50 37
 C56 1
 C57 1
 L10 2
Net 13 "" ""
 U70 9
 U70 11
 U71 10
Net 14 "" ""
 U70 6
 R72 1
Net 15 "" ""
 R71 1
 U70 4
Net 16 "" ""
 U70 2
 R70 1
Net 17 "" ""
 C15 1
 R10 2
 U11 3
Net 24 "+5V" "+5V"
 R101 2
 U11 1
 R76 1
 R75 1
 R74 1
 R73 1
 U10 1
 C10 1
 C11 1
 P100 2
 R100 1
 P10 1
Net 25 "/IEC_RST" "IEC_RST"
 R76 2
 P70 6
 U71 9
Net 26 "/IEC_ATN" "IEC_ATN"
 R75 2
 P70 3
 U71 5
 R72 2
Net 27 "/IEC_DATA" "IEC_DATA"
 P70 5
 U71 3
 R74 2
 R71 2
Net 28 "/IEC_CLK" "IEC_CLK"
 R70 2
 P70 4
 R73 2
 U71 1
Net 29 "" ""
 C90 1
 P90 4
 R90 1
Net 30 "" ""
 R31 2
 C31 1
 X30 1
Net 31 "" ""
 U50 51
 U70 5
Net 32 "" ""
 U50 8
 U70 8
 R21 2
 P40 15
Net 33 "" ""
 U50 9
 R31 1
 R30 1
 U30 4
Net 35 "" ""
 U50 30
 P40 5
Net 36 "" ""
 U50 50
 U70 1
Net 37 "" ""
 U50 11
 U71 2
Net 38 "" ""
 U50 31
 P40 13
Net 39 "" ""
 U50 41
 P90 1
Net 40 "" ""
 U50 42
 P90 2
Net 41 "" ""
 U50 33
 P90 7
Net 42 "" ""
 U71 4
 U50 14
Net 43 "" ""
 U50 34
 P90 5
Net 44 "" ""
 C50 1
 U50 20
 R50 2
Net 45 "" ""
 P60 7
 U50 1
 U60 6
Net 46 "" ""
 U50 2
 U71 6
Net 47 "" ""
 SW80 7
 R82 1
 U50 3
Net 48 "" ""
 SW80 5
 R81 1
 U50 5
Net 49 "" ""
 U50 7
 U71 8
Net 50 "" ""
 R84 2
 D81 2
Net 51 "" ""
 U50 59
 D80 1
Net 52 "" ""
 D80 2
 R83 2
Net 53 "" ""
 U50 54
 P100 14
Net 54 "" ""
 P60 1
 U50 64
 U60 5
Net 55 "" ""
 U60 1
 P60 5
 R60 1
 U50 15
Net 56 "" ""
 U50 24
 SW80 1
 R51 2
 U50 25
Net 57 "" ""
 U50 55
 P100 13
Net 58 "" ""
 P60 9
 U60 2
 U50 16
Net 59 "" ""
 P40 3
 U50 26
 R22 2
 U70 10
Net 60 "" ""
 U50 56
 P100 12
Net 61 "" ""
 U50 17
 P40 11
Net 62 "" ""
 P40 7
 U50 27
Net 63 "" ""
 P41 3
 U50 47
Net 64 "" ""
 U50 57
 P100 11
Net 65 "" ""
 U50 48
 P41 1
Net 66 "" ""
 U50 58
 U70 3
Net 67 "" ""
 U50 29
 P40 9
Net 68 "" ""
 P100 15
 R100 2
Net 69 "" ""
 U50 46
 R102 1
 U70 13
Net 70 "" ""
 SW84 2
 U50 35
 R88 2
Net 71 "" ""
 R86 2
 SW82 2
 U50 44
Net 72 "" ""
 P50 1
 U50 63
Net 73 "GND" "GND"
 C31 2
 SW80 2
 C51 2
 C12 2
 C58 2
 P40 8
 P40 20
 C54 2
 U71 7
 R12 2
 C71 2
 C52 2
 U71 7
 C53 2
 C14 2
 C70 2
 C90 2
 C11 2
 SW80 6
 SW80 8
 C32 2
 C10 2
 U10 4
 U10 2
 P10 2
 U70 7
 C56 2
 C55 2
 C57 2
 P60 10
 P60 8
 C20 2
 P60 6
 U70 7
 P60 4
 U70 7
 P100 5
 P100 1
 U71 7
 C100 2
 R103 1
 U70 7
 P100 16
 P41 2
 C30 2
 U70 7
 U70 7
 P90 GND2
 P40 4
 P40 16
 SW83 1
 U30 3
 U71 7
 P90 6
 P90 8
 P90 9
 U50 EP
 P90 GND1
 U60 4
 U71 7
 SW84 1
 SW82 1
 SW81 1
 R84 1
 R83 1
 SW80 4
 C60 2
 U11 2
 P70 2
 P90 3
 C50 2
 C15 2
 U50 19
 P40 12
Net 74 "" ""
 C20 1
 R20 2
 U71 11
Net 75 "" ""
 P100 4
 U50 49
Net 76 "" ""
 U50 62
 P100 6
Net 77 "" ""
 C100 1
 R104 2
 P100 3
Net 78 "" ""
 R80 1
 U50 12
 SW80 3
Net 81 "VCC" "VCC"
 U70 14
 R90 2
 R102 2
 U70 14
 R86 1
 R22 1
 U71 14
 U71 14
 R52 1
 U71 14
 U71 14
 R20 1
 R88 1
 R87 1
 R10 1
 U50 22
 C71 1
 U50 32
 C51 1
 C52 1
 U50 23
 C70 1
 C53 1
 U50 53
 D81 1
 U60 3
 R53 1
 U60 7
 U60 8
 U50 18
 C60 1
 R51 1
 U50 6
 U30 5
 U70 14
 U70 14
 U70 14
 R60 2
 R21 1
 U10 3
 C32 1
 R80 2
 R81 2
 R82 2
 U70 14
 P60 2
 R85 1
 C12 1
 U50 40
 C54 1
 U50 60
 U71 14
Net 82 "" ""
 U50 45
 R85 2
 SW81 2
Net 83 "" ""
 R87 2
 SW83 2
 U50 36
Net 84 "" ""
 U50 39
 R52 2
 P90 WP
Net 85 "" ""
 U70 12
 R101 1
 R104 1
 R103 2
}
#End
